dc;type;value
DC_JOHANNESBURG;battery;1.64
DC_JOHANNESBURG;pv;1.72
DC_PUNE;battery;0.76
DC_PUNE;pv;3.72
DC_CANBERRA;battery;4.25
DC_CANBERRA;pv;8.62
DC_DUBAI;battery;2.88
DC_DUBAI;pv;2.31
DC_SINGAPORE;battery;0.34
DC_SINGAPORE;pv;7.22
DC_SEOUL;battery;1.11
DC_SEOUL;pv;3.15
DC_VIRGINIA;battery;0.87
DC_VIRGINIA;pv;2.2
DC_SP;battery;8.05
DC_SP;pv;5.81
DC_PARIS;battery;0
DC_PARIS;pv;2.76
