time;dc;power;grid;bat;pv
1;DC_CANBERRA;6203147.494487501;0.0;1.3159875e-10;31744760.477660105
2;DC_CANBERRA;7381532.8;0.0;0.0;33745291.9853526
3;DC_CANBERRA;7381532.8;0.0;19047816.0;30015164.0518992
4;DC_CANBERRA;7381532.8;0.0;0.0;27345060.980504554
5;DC_CANBERRA;7381532.8;0.0;0.0;24549962.198255554
6;DC_CANBERRA;3415001.1093790005;0.0;0.0;19163891.57564835
7;DC_CANBERRA;7381532.8;0.0;0.0;14410453.759045651
8;DC_CANBERRA;7381532.8;0.0;0.0;9995588.163108
9;DC_CANBERRA;7381532.8;0.0;3665218.1;3716314.6791636003
10;DC_CANBERRA;7283373.88;0.0;7210142.300000001;73231.60843845
11;DC_CANBERRA;7381532.8;0.0;7381532.8;0.0
12;DC_CANBERRA;6739461.133450001;0.0;6739461.100000001;0.0
13;DC_CANBERRA;7381532.8;0.0;7381532.8;0.0
14;DC_CANBERRA;3372224.8000000003;0.0;3372224.8;0.0
15;DC_CANBERRA;4913273.76;0.0;4913273.8;0.0
16;DC_CANBERRA;7381532.8;0.0;7381532.8;0.0
17;DC_CANBERRA;3372224.8000000003;0.0;3372224.8;0.0
18;DC_CANBERRA;3372224.8000000003;0.0;3372224.8;0.0
19;DC_CANBERRA;3372224.8000000003;0.0;3361691.9;10532.86069005
20;DC_CANBERRA;3372224.8000000003;0.0;1152807.1;2219417.6778414003
21;DC_CANBERRA;7381532.8;0.0;0.0;7510270.4260695
22;DC_CANBERRA;7381532.8;0.0;93012.942;11751992.270518951
23;DC_CANBERRA;7381532.8;0.0;3224858.8;16309552.445104951
24;DC_CANBERRA;7381532.8;0.0;8780454.700000001;21325904.9084349
25;DC_CANBERRA;7381532.8;0.0;7381532.8;27082543.0325382
26;DC_CANBERRA;7381532.8;0.0;16500196.0;32969928.999528896
27;DC_CANBERRA;7381532.8;0.0;0.0;32320558.557343356
28;DC_CANBERRA;7381532.8;0.0;0.0;26390415.584161796
29;DC_CANBERRA;7381532.8;0.0;0.0;20020643.9239167
30;DC_CANBERRA;7381532.8;0.0;0.0;16761392.33377005
31;DC_CANBERRA;7381532.8;0.0;0.0;12902708.572377298
32;DC_CANBERRA;7381532.8;0.0;1853515.2;5528017.5766677
33;DC_CANBERRA;7381532.8;0.0;5793313.699999999;1588219.090434
34;DC_CANBERRA;7381532.8;0.0;7353346.8;28185.9555501
35;DC_CANBERRA;7381532.8;0.0;7381532.8;0.0
36;DC_CANBERRA;7381532.8;0.0;7381532.8;0.0
37;DC_CANBERRA;7381532.8;0.0;7381532.8;0.0
38;DC_CANBERRA;7381532.8;0.0;7381532.8;0.0
39;DC_CANBERRA;7381532.8;0.0;7381532.8;0.0
40;DC_CANBERRA;7381532.8;0.0;7381532.8;0.0
41;DC_CANBERRA;7381532.8;0.0;7381532.8;0.0
42;DC_CANBERRA;7381532.8;0.0;7381532.8;0.0
43;DC_CANBERRA;7381532.8;0.0;7374168.399999999;7364.3564844
44;DC_CANBERRA;7381532.8;0.0;5137662.2;2243870.5963338
45;DC_CANBERRA;7381532.8;0.0;0.0;8771472.41872005
46;DC_CANBERRA;7381532.8;0.0;1004231.4;16447003.47987525
47;DC_CANBERRA;7381532.8;0.0;7275359.8;23454839.66762025
48;DC_CANBERRA;7381532.8;0.0;0.0;36074274.80942565
49;DC_CANBERRA;7381532.8;0.0;0.0;45153148.080790795
50;DC_CANBERRA;7381532.8;0.0;0.0;45810549.1299438
51;DC_CANBERRA;7381532.8;0.0;27764964.0;45765513.64881855
52;DC_CANBERRA;7381532.8;0.0;7381532.8;37503555.01554061
53;DC_CANBERRA;7381532.8;0.0;7381532.8;21795550.468406547
54;DC_CANBERRA;7381532.8;0.0;0.0;24239108.032038003
55;DC_CANBERRA;7381532.8;0.0;0.0;21507684.486795
56;DC_CANBERRA;7381532.8;0.0;0.0;9493774.402332598
57;DC_CANBERRA;7381532.8;0.0;4923566.899999999;2457965.8660626
58;DC_CANBERRA;7381532.8;0.0;7324291.199999999;57241.596845249995
59;DC_CANBERRA;7381532.8;0.0;7381532.8;0.0
60;DC_CANBERRA;7381532.8;0.0;7381532.8;0.0
61;DC_CANBERRA;7381532.8;0.0;7381532.8;0.0
62;DC_CANBERRA;7381532.8;0.0;7381532.8;0.0
63;DC_CANBERRA;7381532.8;0.0;7381532.8;0.0
64;DC_CANBERRA;7381532.8;0.0;7381532.8;0.0
65;DC_CANBERRA;7381532.8;0.0;7381532.8;0.0
66;DC_CANBERRA;7381532.8;0.0;7381532.8;0.0
67;DC_CANBERRA;7381532.8;0.0;7376884.3;4648.4957367
68;DC_CANBERRA;7381532.8;0.0;5873685.9;1507846.90429935
69;DC_CANBERRA;7381532.8;0.0;0.0;8191610.71967835
70;DC_CANBERRA;7381532.8;0.0;585281.3099999999;14779398.864327302
71;DC_CANBERRA;7381532.8;0.0;5767824.0;16567472.756150102
72;DC_CANBERRA;7381532.8;0.0;0.0;20103935.406061053
73;DC_CANBERRA;7381532.8;0.0;0.0;22128045.06061935
74;DC_CANBERRA;7381532.8;0.0;0.0;18935693.156381402
75;DC_CANBERRA;7381532.8;0.0;0.0;18121835.13310575
76;DC_CANBERRA;7381532.8;0.0;0.0;16043743.93177575
77;DC_CANBERRA;7381532.8;0.0;0.0;21059089.3905588
78;DC_CANBERRA;7381532.8;0.0;3503796.4000000004;23530309.0639407
79;DC_CANBERRA;7381532.8;0.0;0.0;18504486.68916465
80;DC_CANBERRA;7381532.8;0.0;0.0;9009908.71754715
81;DC_CANBERRA;7381532.8;0.0;3818949.0999999996;3562583.73755175
82;DC_CANBERRA;7381532.8;0.0;7356164.399999999;25368.3771714
83;DC_CANBERRA;7381532.8;0.0;7381532.8;0.0
84;DC_CANBERRA;7381532.8;0.0;7381532.8;0.0
85;DC_CANBERRA;7381532.8;0.0;7381532.8;0.0
86;DC_CANBERRA;7381532.8;0.0;7381532.8;0.0
87;DC_CANBERRA;7381532.8;0.0;7381532.8;0.0
88;DC_CANBERRA;7381532.8;0.0;7381532.8;0.0
89;DC_CANBERRA;7381532.8;0.0;7381532.8;0.0
90;DC_CANBERRA;7381532.8;0.0;7381532.8;0.0
91;DC_CANBERRA;7381532.8;0.0;7375048.300000001;6484.49897625
92;DC_CANBERRA;7381532.8;0.0;5204216.0;2177316.7503705
93;DC_CANBERRA;7381532.8;0.0;0.0;7758832.71506265
94;DC_CANBERRA;7381532.8;0.0;272599.2;15306052.0705929
95;DC_CANBERRA;7381532.8;0.0;5922418.1;25951936.30632855
96;DC_CANBERRA;7381532.8;0.0;17696064.0;36953735.61881475
97;DC_CANBERRA;7381532.8;0.0;0.0;39780087.14318851
98;DC_CANBERRA;7381532.8;0.0;0.0;41999459.04809595
99;DC_CANBERRA;7381532.8;0.0;0.0;44702645.778973356
100;DC_CANBERRA;7381532.8;0.0;51975956.0;45534156.89710905
101;DC_CANBERRA;7381532.8;0.0;7381532.8;41531730.86546865
102;DC_CANBERRA;7381532.8;0.0;0.0;33084534.2543766
103;DC_CANBERRA;7381532.8;0.0;7381532.8;23591263.35431745
104;DC_CANBERRA;7381532.8;0.0;0.0;13557073.35024495
105;DC_CANBERRA;7381532.8;0.0;3667522.0;3714010.7748214495
106;DC_CANBERRA;7381532.8;0.0;7319525.7;62007.06785760001
107;DC_CANBERRA;7381532.8;0.0;7381532.8;0.0
108;DC_CANBERRA;7381532.8;0.0;7381532.8;0.0
109;DC_CANBERRA;7381532.8;0.0;7381532.8;0.0
110;DC_CANBERRA;7381532.8;0.0;7381532.8;0.0
111;DC_CANBERRA;7381532.8;0.0;7381532.8;0.0
112;DC_CANBERRA;7381532.8;0.0;7381532.8;0.0
113;DC_CANBERRA;7381532.8;0.0;7381532.8;0.0
114;DC_CANBERRA;7381532.8;0.0;7381532.8;0.0
115;DC_CANBERRA;7381532.8;0.0;7374219.3;7313.497668900001
116;DC_CANBERRA;7381532.8;0.0;4655988.5;2725544.2661712
117;DC_CANBERRA;7381532.8;0.0;0.0;9561106.38817305
118;DC_CANBERRA;7381532.8;0.0;1574741.9;17929507.436410952
119;DC_CANBERRA;7381532.8;0.0;7381532.8;28105903.774502996
120;DC_CANBERRA;7381532.8;0.0;21683645.0;35144036.55864135
121;DC_CANBERRA;7381532.8;0.0;25391566.0;35982108.463976555
122;DC_CANBERRA;7381532.8;0.0;0.0;35966840.64756345
123;DC_CANBERRA;7381532.8;0.0;13970683.0;32717109.8276784
124;DC_CANBERRA;7381532.8;0.0;7381532.8;31577175.594706047
125;DC_CANBERRA;7381532.8;0.0;7381532.8;31908108.821282998
126;DC_CANBERRA;7381532.8;0.0;0.0;26634059.8256961
127;DC_CANBERRA;7381532.8;0.0;0.0;16132568.853046497
128;DC_CANBERRA;7381532.8;0.0;0.0;8566246.92641445
129;DC_CANBERRA;7381532.8;0.0;4539928.7;2841604.0831422
130;DC_CANBERRA;7381532.8;0.0;7342274.9;39257.919684450004
131;DC_CANBERRA;7381532.8;0.0;7381532.8;0.0
132;DC_CANBERRA;7381532.8;0.0;7381532.8;0.0
133;DC_CANBERRA;7381532.8;0.0;7381532.8;0.0
134;DC_CANBERRA;7381532.8;0.0;7381532.8;0.0
135;DC_CANBERRA;7381532.8;0.0;7381532.8;0.0
136;DC_CANBERRA;7381532.8;0.0;7381532.8;0.0
137;DC_CANBERRA;7381532.8;0.0;7381532.8;0.0
138;DC_CANBERRA;7381532.8;0.0;7381532.8;0.0
139;DC_CANBERRA;7381532.8;0.0;7374570.2;6962.57184195
140;DC_CANBERRA;7381532.8;0.0;4204860.7;3176672.1314193
141;DC_CANBERRA;7381532.8;0.0;0.0;12799856.78979165
142;DC_CANBERRA;7381532.8;0.0;3914739.0999999996;22666497.51208095
143;DC_CANBERRA;7381532.8;0.0;13871786.0;35324081.8513929
144;DC_CANBERRA;7381532.8;0.0;0.0;44724876.1672284
145;DC_CANBERRA;7381532.8;0.0;0.0;51674692.618250996
146;DC_CANBERRA;7381532.8;0.0;32001808.0;55036663.758063
147;DC_CANBERRA;7381532.8;0.0;0.0;54884290.746825
148;DC_CANBERRA;7381532.8;0.0;34320743.0;47333999.518838555
149;DC_CANBERRA;7381532.8;0.0;304006.88;38227718.43180045
150;DC_CANBERRA;7381532.8;0.0;7381532.8;30978211.32456255
151;DC_CANBERRA;7381532.8;0.0;7381532.8;21967788.93297885
152;DC_CANBERRA;7381532.8;0.0;7381532.8;12548822.7623652
153;DC_CANBERRA;7381532.8;0.0;2916952.6999999997;4464580.0880889
154;DC_CANBERRA;7381532.8;0.0;7314714.5;66818.3118039
155;DC_CANBERRA;7381532.8;0.0;7381532.8;0.0
156;DC_CANBERRA;7381532.8;0.0;7381532.8;0.0
157;DC_CANBERRA;7381532.8;0.0;7381532.8;0.0
158;DC_CANBERRA;7381532.8;0.0;7381532.8;0.0
159;DC_CANBERRA;7381532.8;0.0;7381532.8;0.0
160;DC_CANBERRA;7381532.8;0.0;7381532.8;0.0
161;DC_CANBERRA;7381532.8;0.0;7381532.8;0.0
162;DC_CANBERRA;7381532.8;0.0;7381532.8;0.0
163;DC_CANBERRA;7381532.8;0.0;7377718.399999999;3814.4111625
164;DC_CANBERRA;7381532.8;0.0;4914585.3;2466947.5328798997
165;DC_CANBERRA;7381532.8;0.0;0.0;8503324.399877852
166;DC_CANBERRA;7381532.8;0.0;810494.4400000001;19757688.590137053
167;DC_CANBERRA;7381532.8;0.0;9527354.799999999;28762231.70264895
1;DC_SEOUL;7381532.8;0.0;0.0;16290002.621778002
2;DC_SEOUL;7381532.8;0.0;-2.0964002999999998e-23;26197918.904066097
3;DC_SEOUL;7381532.8;0.0;0.0;34390671.16177335
4;DC_SEOUL;7381532.8;0.0;0.0;34810485.671532154
5;DC_SEOUL;3372224.8000000003;0.0;0.0;28452089.25458745
6;DC_SEOUL;7381532.8;0.0;0.0;23150257.32435495
7;DC_SEOUL;7381532.8;0.0;0.0;15208392.555188248
8;DC_SEOUL;3372224.8000000003;0.0;0.0;5180072.69597445
9;DC_SEOUL;3372224.8000000003;0.0;3263598.0;108626.77719494999
10;DC_SEOUL;3372224.8000000003;0.0;3372224.8;0.0
11;DC_SEOUL;3546883.16;0.0;3546883.2;0.0
12;DC_SEOUL;3372224.8000000003;0.0;3372224.8;0.0
13;DC_SEOUL;4402663.04;0.0;4402663.0;0.0
14;DC_SEOUL;4704052.4;0.0;4704052.399999999;0.0
15;DC_SEOUL;3372224.8000000003;0.0;3372224.8;0.0
16;DC_SEOUL;4047079.3136362503;0.0;4047079.3;0.0
17;DC_SEOUL;5445083.12;0.0;5445083.1;0.0
18;DC_SEOUL;5732186.44;0.0;5732186.399999999;0.0
19;DC_SEOUL;5753845.92;0.0;5753845.9;0.0
20;DC_SEOUL;5855691.5600000005;0.0;5855691.600000001;0.0
21;DC_SEOUL;3372224.8000000003;0.0;3372224.8;0.0
22;DC_SEOUL;3372224.8000000003;0.0;3372224.8;0.0
23;DC_SEOUL;3372224.8000000003;0.0;3275458.0999999996;96766.66891305
24;DC_SEOUL;6847675.006200001;0.0;0.0;6847675.1113533005
25;DC_SEOUL;7381532.8;0.0;0.0;20187578.04032145
26;DC_SEOUL;7381532.8;0.0;0.0;31290388.871753998
27;DC_SEOUL;7381532.8;0.0;0.0;38170758.80268135
28;DC_SEOUL;7381532.8;0.0;0.0;39316577.0416938
29;DC_SEOUL;7381532.8;0.0;0.0;36761556.792455845
30;DC_SEOUL;7381532.8;0.0;0.0;29949393.844406396
31;DC_SEOUL;7381532.8;0.0;0.0;19637764.323245395
32;DC_SEOUL;7381532.8;0.0;0.0;7549246.7146060495
33;DC_SEOUL;7381532.8;0.0;7381532.8;209604.31469339997
34;DC_SEOUL;7381532.8;0.0;7381532.8;0.0
35;DC_SEOUL;7381532.8;0.0;7381532.8;0.0
36;DC_SEOUL;7381532.8;0.0;7381532.8;0.0
37;DC_SEOUL;7381532.8;0.0;7381532.8;0.0
38;DC_SEOUL;7381532.8;0.0;7381532.8;0.0
39;DC_SEOUL;7381532.8;0.0;7381532.8;0.0
40;DC_SEOUL;7381532.8;0.0;7381532.8;0.0
41;DC_SEOUL;7381532.8;0.0;7381532.8;0.0
42;DC_SEOUL;7381532.8;0.0;7381532.8;0.0
43;DC_SEOUL;7381532.8;0.0;7381532.8;0.0
44;DC_SEOUL;7381532.8;0.0;7381532.8;0.0
45;DC_SEOUL;7381532.8;0.0;7381532.8;0.0
46;DC_SEOUL;7381532.8;0.0;7381532.8;0.0
47;DC_SEOUL;7381532.8;0.0;7255214.3;126318.48405735
48;DC_SEOUL;7381532.8;0.0;0.0;7629094.1741309995
49;DC_SEOUL;7381532.8;0.0;0.0;20533490.29170555
50;DC_SEOUL;7381532.8;0.0;0.0;31301574.93812205
51;DC_SEOUL;7381532.8;0.0;0.0;38187738.60010665
52;DC_SEOUL;7381532.8;0.0;0.0;35946117.54679035
53;DC_SEOUL;7381532.8;0.0;0.0;28128367.37182785
54;DC_SEOUL;7381532.8;0.0;0.0;21136916.84819895
55;DC_SEOUL;7381532.8;0.0;0.0;11644770.82418655
56;DC_SEOUL;7381532.8;0.0;2579453.8;4802079.07889295
57;DC_SEOUL;7381532.8;0.0;7191104.6;190428.2009196
58;DC_SEOUL;7381532.8;0.0;7381532.8;0.0
59;DC_SEOUL;7381532.8;0.0;7381532.8;0.0
60;DC_SEOUL;7381532.8;0.0;7381532.8;0.0
61;DC_SEOUL;7381532.8;0.0;7381532.8;0.0
62;DC_SEOUL;7381532.8;0.0;7381532.8;0.0
63;DC_SEOUL;7381532.8;0.0;7381532.8;0.0
64;DC_SEOUL;7381532.8;0.0;7381532.8;0.0
65;DC_SEOUL;7381532.8;0.0;7381532.8;0.0
66;DC_SEOUL;7189608.205325;0.0;7189608.199999999;0.0
67;DC_SEOUL;3861176.04;0.0;3861176.0;0.0
68;DC_SEOUL;5312755.6502375;0.0;5312755.699999999;0.0
69;DC_SEOUL;6828431.479900001;0.0;6828431.5;0.0
70;DC_SEOUL;7381532.8;0.0;7381532.8;0.0
71;DC_SEOUL;3617391.68;0.0;3531902.0;85489.7204892
72;DC_SEOUL;7381532.8;0.0;2846806.0999999996;4534726.7912433
73;DC_SEOUL;7381532.8;0.0;0.0;14027660.4597393
74;DC_SEOUL;7381532.8;0.0;0.0;22546323.343049996
75;DC_SEOUL;7381532.8;0.0;0.0;26815947.1775247
76;DC_SEOUL;7381532.8;0.0;0.0;25203517.743521098
77;DC_SEOUL;7381532.8;0.0;0.0;20773131.12584085
78;DC_SEOUL;7381532.8;0.0;0.0;15527911.1428671
79;DC_SEOUL;7381532.8;0.0;0.0;8853063.4076268
80;DC_SEOUL;3839977.4;0.0;340374.54000000004;3499602.89619525
81;DC_SEOUL;3486513.12;0.0;3486513.1;85762.3666566
82;DC_SEOUL;3663014.84;0.0;3663014.8;0.0
83;DC_SEOUL;3503564.2;0.0;3503564.1999999997;0.0
84;DC_SEOUL;3766243.0;0.0;3766243.0;0.0
85;DC_SEOUL;3783754.92;0.0;3783754.9;0.0
86;DC_SEOUL;3372224.8000000003;0.0;3372224.8;0.0
87;DC_SEOUL;3372224.8000000003;0.0;3372224.8;0.0
88;DC_SEOUL;3372224.8000000003;0.0;3372224.8;0.0
89;DC_SEOUL;3822004.64;0.0;3822004.6;0.0
90;DC_SEOUL;3372224.8000000003;0.0;3372224.8;0.0
91;DC_SEOUL;3372224.8000000003;0.0;3372224.8;0.0
92;DC_SEOUL;5585662.5060125;0.0;5585662.5;0.0
93;DC_SEOUL;3918320.2;0.0;3918320.2;0.0
94;DC_SEOUL;3372224.8000000003;0.0;3372224.8;0.0
95;DC_SEOUL;7381532.8;0.0;7259667.5;121865.26332315
96;DC_SEOUL;6989814.6236375;0.0;-8.7847478e-09;6989814.646624501
97;DC_SEOUL;7381532.8;0.0;-5.5716936e-09;18325768.24520265
98;DC_SEOUL;7381532.8;0.0;0.0;24913763.02911675
99;DC_SEOUL;7381532.8;0.0;0.0;36993760.44502485
100;DC_SEOUL;7381532.8;0.0;0.0;39987672.86223494
101;DC_SEOUL;7381532.8;0.0;0.0;38383718.179934695
102;DC_SEOUL;7381532.8;0.0;0.0;31812869.810548197
103;DC_SEOUL;7381532.8;0.0;0.0;21416939.609128047
104;DC_SEOUL;7381532.8;0.0;0.0;8761317.9722967
105;DC_SEOUL;7381532.8;0.0;7084901.300000001;296631.45662654995
106;DC_SEOUL;7381532.8;0.0;7381532.8;0.0
107;DC_SEOUL;7381532.8;0.0;7381532.8;0.0
108;DC_SEOUL;7381532.8;0.0;7381532.8;0.0
109;DC_SEOUL;7381532.8;0.0;7381532.8;0.0
110;DC_SEOUL;7381532.8;0.0;7381532.8;0.0
111;DC_SEOUL;7381532.8;0.0;7381532.8;0.0
112;DC_SEOUL;7381532.8;0.0;7381532.8;0.0
113;DC_SEOUL;7381532.8;0.0;7381532.8;0.0
114;DC_SEOUL;7381532.8;0.0;7381532.8;0.0
115;DC_SEOUL;7381532.8;0.0;7381532.8;0.0
116;DC_SEOUL;7381532.8;0.0;7381532.8;0.0
117;DC_SEOUL;7381532.8;0.0;7381532.8;0.0
118;DC_SEOUL;7381532.8;0.0;7381532.8;0.0
119;DC_SEOUL;7381532.8;0.0;7221974.199999999;159558.5959662
120;DC_SEOUL;7381532.8;0.0;0.0;7932844.725128549
121;DC_SEOUL;7381532.8;0.0;0.0;20936612.797215745
122;DC_SEOUL;7381532.8;0.0;0.0;31679659.43725935
123;DC_SEOUL;7381532.8;0.0;0.0;38008852.420273654
124;DC_SEOUL;7381532.8;0.0;0.0;38412277.86596985
125;DC_SEOUL;7381532.8;0.0;0.0;33479283.185697
126;DC_SEOUL;7381532.8;0.0;0.0;23327447.03914635
127;DC_SEOUL;7381532.8;0.0;0.0;13972389.022803599
128;DC_SEOUL;7381532.8;0.0;1360960.2;6020572.668526799
129;DC_SEOUL;7381532.8;0.0;7381532.8;134974.99987230002
130;DC_SEOUL;3675457.52;0.0;3675457.5;0.0
131;DC_SEOUL;3824308.84;0.0;3824308.8;0.0
132;DC_SEOUL;6892630.668262501;0.0;6892630.699999999;0.0
133;DC_SEOUL;7381532.8;0.0;7381532.8;0.0
134;DC_SEOUL;4147357.68;0.0;4147357.6999999997;0.0
135;DC_SEOUL;7381532.8;0.0;7381532.8;0.0
136;DC_SEOUL;7381532.8;0.0;7381532.8;0.0
137;DC_SEOUL;7381532.8;0.0;7381532.8;0.0
138;DC_SEOUL;7381532.8;0.0;7381532.8;0.0
139;DC_SEOUL;7381532.8;0.0;7381532.8;0.0
140;DC_SEOUL;7381532.8;0.0;7381532.8;0.0
141;DC_SEOUL;7381532.8;0.0;7381532.8;0.0
142;DC_SEOUL;7381532.8;0.0;7381532.8;0.0
143;DC_SEOUL;7381532.8;0.0;7213650.899999999;167881.87757655
144;DC_SEOUL;7381532.8;0.0;0.0;8087503.2635862
145;DC_SEOUL;7381532.8;0.0;0.0;20899570.7859726
146;DC_SEOUL;7381532.8;0.0;0.0;31488746.53204215
147;DC_SEOUL;7381532.8;0.0;0.0;36680429.410645045
148;DC_SEOUL;7381532.8;0.0;0.0;34370048.508611396
149;DC_SEOUL;7381532.8;0.0;0.0;29038748.071785748
150;DC_SEOUL;7381532.8;0.0;0.0;22355046.909609597
151;DC_SEOUL;7381532.8;0.0;0.0;11555918.467632748
152;DC_SEOUL;3851498.4;0.0;130893.1;3720605.3353869
153;DC_SEOUL;4302660.76;0.0;4173873.3000000003;128787.44657325
154;DC_SEOUL;3372224.8000000003;0.0;3372224.8;0.0
155;DC_SEOUL;3372224.8000000003;0.0;3372224.8;0.0
156;DC_SEOUL;7381532.8;0.0;7381532.8;0.0
157;DC_SEOUL;3372224.8000000003;0.0;3372224.8;0.0
158;DC_SEOUL;4053807.16;0.0;4053807.2;0.0
159;DC_SEOUL;4274549.5200000005;0.0;4274549.5;0.0
160;DC_SEOUL;7381532.8;0.0;7381532.8;0.0
161;DC_SEOUL;7381532.8;0.0;7381532.8;0.0
162;DC_SEOUL;7381532.8;0.0;7381532.8;0.0
163;DC_SEOUL;7381532.8;0.0;7381532.8;0.0
164;DC_SEOUL;7381532.8;0.0;7381532.8;0.0
165;DC_SEOUL;5631845.5866125;0.0;5631845.6;0.0
166;DC_SEOUL;7381532.8;0.0;7381532.8;0.0
167;DC_SEOUL;3448724.24;0.0;3292960.0;155764.27013655
1;DC_PARIS;2844189.6;0.0;27873603.0;0.0
2;DC_PARIS;5532689.16;0.0;5532689.2;0.0
3;DC_PARIS;5564223.497175;0.0;5564223.5;0.0
4;DC_PARIS;6225705.600000001;0.0;6225705.600000001;0.0
5;DC_PARIS;6225705.600000001;0.0;6225705.600000001;0.0
6;DC_PARIS;6225705.600000001;0.0;6225705.600000001;0.0
7;DC_PARIS;6225705.600000001;0.0;6225705.600000001;0.0
8;DC_PARIS;6225705.600000001;0.0;6146358.6;79346.97963059999
9;DC_PARIS;6225705.600000001;0.0;1352919.7;4872785.9088816
10;DC_PARIS;6225705.600000001;0.0;0.0;13492827.0984252
11;DC_PARIS;6225705.600000001;0.0;0.0;21285313.5108069
12;DC_PARIS;6225705.600000001;0.0;0.0;26762372.337787498
13;DC_PARIS;6225705.600000001;0.0;0.0;25113676.0283268
14;DC_PARIS;6225705.600000001;0.0;0.0;22916025.653770503
15;DC_PARIS;6225705.600000001;0.0;0.0;10844316.9933492
16;DC_PARIS;6225705.600000001;0.0;3497023.8;2728681.8206103
17;DC_PARIS;6225705.600000001;0.0;6225705.600000001;0.0
18;DC_PARIS;6225705.600000001;0.0;6225705.600000001;0.0
19;DC_PARIS;6225705.600000001;0.0;6225705.600000001;0.0
20;DC_PARIS;6225705.600000001;0.0;6225705.600000001;0.0
21;DC_PARIS;6225705.600000001;0.0;6225705.600000001;0.0
22;DC_PARIS;6225705.600000001;0.0;6225705.600000001;0.0
23;DC_PARIS;6225705.600000001;0.0;6225705.600000001;0.0
24;DC_PARIS;6225705.600000001;0.0;6225705.600000001;0.0
25;DC_PARIS;6225705.600000001;0.0;6225705.600000001;0.0
26;DC_PARIS;6225705.600000001;0.0;6225705.600000001;0.0
27;DC_PARIS;6225705.600000001;0.0;6225705.600000001;0.0
28;DC_PARIS;6225705.600000001;0.0;6225705.600000001;0.0
29;DC_PARIS;6225705.600000001;0.0;6225705.600000001;0.0
30;DC_PARIS;6225705.600000001;0.0;6225705.600000001;0.0
31;DC_PARIS;6225705.600000001;0.0;6225705.600000001;0.0
32;DC_PARIS;6225705.600000001;0.0;6069929.0;155776.6098705
33;DC_PARIS;6225705.600000001;0.0;0.0;7564490.018227499
34;DC_PARIS;6225705.600000001;0.0;0.0;20138672.1053508
35;DC_PARIS;6225705.600000001;0.0;0.0;30056207.513781
36;DC_PARIS;6225705.600000001;0.0;0.0;34184306.139585905
37;DC_PARIS;6225705.600000001;0.0;0.0;32205937.039485
38;DC_PARIS;6225705.600000001;0.0;0.0;24311047.9706424
39;DC_PARIS;6225705.600000001;0.0;0.0;13472996.5082631
40;DC_PARIS;6225705.600000001;0.0;3143113.6;3082591.9992263997
41;DC_PARIS;6225705.600000001;0.0;6225705.600000001;0.0
42;DC_PARIS;6225705.600000001;0.0;6225705.600000001;0.0
43;DC_PARIS;6225705.600000001;0.0;6225705.600000001;0.0
44;DC_PARIS;6225705.600000001;0.0;6225705.600000001;0.0
45;DC_PARIS;6225705.600000001;0.0;6225705.600000001;0.0
46;DC_PARIS;6225705.600000001;0.0;6225705.600000001;0.0
47;DC_PARIS;6225705.600000001;0.0;6225705.600000001;0.0
48;DC_PARIS;6225705.600000001;0.0;6225705.600000001;0.0
49;DC_PARIS;6225705.600000001;0.0;6225705.600000001;0.0
50;DC_PARIS;6225705.600000001;0.0;6225705.600000001;0.0
51;DC_PARIS;6225705.600000001;0.0;6225705.600000001;0.0
52;DC_PARIS;6225705.600000001;0.0;6225705.600000001;0.0
53;DC_PARIS;6225705.600000001;0.0;6225705.600000001;0.0
54;DC_PARIS;6225705.600000001;0.0;6225705.600000001;0.0
55;DC_PARIS;6225705.600000001;0.0;6225705.600000001;0.0
56;DC_PARIS;6225705.600000001;0.0;6137397.3;88308.2891514
57;DC_PARIS;6225705.600000001;0.0;1912447.5999999999;4313257.9909311
58;DC_PARIS;6225705.600000001;0.0;0.0;12662490.3762747
59;DC_PARIS;6225705.600000001;0.0;0.0;22221647.2608195
60;DC_PARIS;6225705.600000001;0.0;0.0;27354705.049519498
61;DC_PARIS;6225705.600000001;0.0;0.0;28191331.921622097
62;DC_PARIS;6225705.600000001;0.0;0.0;22692842.2706364
63;DC_PARIS;6225705.600000001;0.0;0.0;11691714.6701643
64;DC_PARIS;6225705.600000001;0.0;4016755.0999999996;2208950.4873861
65;DC_PARIS;6225705.600000001;0.0;6225705.600000001;0.0
66;DC_PARIS;6225705.600000001;0.0;6225705.600000001;0.0
67;DC_PARIS;6225705.600000001;0.0;6225705.600000001;0.0
68;DC_PARIS;6225705.600000001;0.0;6225705.600000001;0.0
69;DC_PARIS;6225705.600000001;0.0;6225705.600000001;0.0
70;DC_PARIS;6225705.600000001;0.0;6225705.600000001;0.0
71;DC_PARIS;6225705.600000001;0.0;6225705.600000001;0.0
72;DC_PARIS;6225705.600000001;0.0;6225705.600000001;0.0
73;DC_PARIS;6225705.600000001;0.0;6225705.600000001;0.0
74;DC_PARIS;6225705.600000001;0.0;6225705.600000001;0.0
75;DC_PARIS;5258224.23555;0.0;5258224.3;0.0
76;DC_PARIS;3037363.56;0.0;3037363.6;0.0
77;DC_PARIS;3104993.8800000004;0.0;3104993.9;0.0
78;DC_PARIS;3267850.8000000003;0.0;3267850.8000000003;0.0
79;DC_PARIS;2973231.3600000003;0.0;2973231.4;0.0
80;DC_PARIS;6225705.600000001;0.0;6145078.4;80627.166705
81;DC_PARIS;6225705.600000001;0.0;3184485.8;3041219.7996393
82;DC_PARIS;6225705.600000001;0.0;0.0;8202232.442627399
83;DC_PARIS;6225705.600000001;0.0;0.0;14215357.297521899
84;DC_PARIS;6225705.600000001;0.0;0.0;18975474.434365198
85;DC_PARIS;6225705.600000001;0.0;0.0;17695115.0270898
86;DC_PARIS;6225705.600000001;0.0;0.0;13810424.2782963
87;DC_PARIS;6225705.600000001;0.0;0.0;8903676.4834698
88;DC_PARIS;6225705.600000001;0.0;3747915.8000000003;2477789.7730101002
89;DC_PARIS;2844189.6;0.0;2844177.3;12.3094911
90;DC_PARIS;6225705.600000001;0.0;6225705.600000001;0.0
91;DC_PARIS;3044359.8000000003;0.0;3044359.8000000003;0.0
92;DC_PARIS;2844189.6;0.0;2844189.6;0.0
93;DC_PARIS;2844189.6;0.0;2844189.6;0.0
94;DC_PARIS;6098613.4345875;0.0;6098613.5;0.0
95;DC_PARIS;3259688.52;0.0;3259688.5;0.0
96;DC_PARIS;3454809.4388512503;0.0;3454809.4;0.0
97;DC_PARIS;2844189.6;0.0;2844189.6;0.0
98;DC_PARIS;2844189.6;0.0;2844189.6;0.0
99;DC_PARIS;2844189.6;0.0;2844189.6;0.0
100;DC_PARIS;2844189.6;0.0;2844189.6;0.0
101;DC_PARIS;2844189.6;0.0;2844189.6;0.0
102;DC_PARIS;2844189.6;0.0;2844189.6;0.0
103;DC_PARIS;2844189.6;0.0;2844189.6;0.0
104;DC_PARIS;2844189.6;0.0;2711727.1999999997;132462.4337271
105;DC_PARIS;5256620.444700001;0.0;0.0;5256620.4603618
106;DC_PARIS;6225705.600000001;0.0;0.0;14880943.790789999
107;DC_PARIS;6225705.600000001;0.0;0.0;23337256.4392125
108;DC_PARIS;6225705.600000001;0.0;0.0;27773609.341143597
109;DC_PARIS;6225705.600000001;0.0;0.0;22667767.837265696
110;DC_PARIS;6225705.600000001;0.0;0.0;17290575.911579397
111;DC_PARIS;6225705.600000001;0.0;0.0;10045874.1626388
112;DC_PARIS;2916095.4;0.0;310520.81;2605574.6001192
113;DC_PARIS;2844189.6;0.0;2844152.7;36.92847329999999
114;DC_PARIS;3034642.8000000003;0.0;3034642.8000000003;0.0
115;DC_PARIS;2844189.6;0.0;2844189.6;0.0
116;DC_PARIS;3038698.03204875;0.0;3038698.0;0.0
117;DC_PARIS;3247250.7600000002;0.0;3247250.8;0.0
118;DC_PARIS;2844189.6;0.0;2844189.6;0.0
119;DC_PARIS;2988389.8800000004;0.0;2988389.9;0.0
120;DC_PARIS;3232092.24;0.0;3232092.2;0.0
121;DC_PARIS;6225705.600000001;0.0;6225705.600000001;0.0
122;DC_PARIS;6225705.600000001;0.0;6225705.600000001;0.0
123;DC_PARIS;3342189.2023650003;0.0;3342189.1999999997;0.0
124;DC_PARIS;3405832.2;0.0;3405832.1999999997;0.0
125;DC_PARIS;3312937.68;0.0;3312937.6999999997;0.0
126;DC_PARIS;3251526.24;0.0;3251526.1999999997;0.0
127;DC_PARIS;3474628.56;0.0;3474628.6;0.0
128;DC_PARIS;3373571.7600000002;0.0;3196044.3;177527.4806442
129;DC_PARIS;3210714.8400000003;0.0;0.0;5791443.2296746
130;DC_PARIS;6225705.600000001;0.0;0.0;15717435.2584905
131;DC_PARIS;6225705.600000001;0.0;0.0;25869983.4710019
132;DC_PARIS;6225705.600000001;0.0;0.0;30366529.784411997
133;DC_PARIS;6225705.600000001;0.0;0.0;26451151.4743062
134;DC_PARIS;6225705.600000001;0.0;0.0;20464270.4544369
135;DC_PARIS;6225705.600000001;0.0;0.0;12353719.1015223
136;DC_PARIS;3389750.7229012502;0.0;0.0;3389750.7306447
137;DC_PARIS;2844189.6;0.0;2844091.1;98.4759288
138;DC_PARIS;3137643.0;0.0;3137643.0;0.0
139;DC_PARIS;2844189.6;0.0;2844189.6;0.0
140;DC_PARIS;3256967.7600000002;0.0;3256967.8;0.0
141;DC_PARIS;3071567.4;0.0;3071567.4;0.0
142;DC_PARIS;2970121.92;0.0;2970121.9;0.0
143;DC_PARIS;3080507.04;0.0;3080507.0;0.0
144;DC_PARIS;3353360.4000000004;0.0;3353360.4;0.0
145;DC_PARIS;3467869.4998237505;0.0;3467869.5;0.0
146;DC_PARIS;3415160.52;0.0;3415160.5;0.0
147;DC_PARIS;3202941.24;0.0;3202941.2;0.0
148;DC_PARIS;2844189.6;0.0;2844189.6;0.0
149;DC_PARIS;2844189.6;0.0;2844189.6;0.0
150;DC_PARIS;2844189.6;0.0;2844189.6;0.0
151;DC_PARIS;2844189.6;0.0;2844189.6;0.0
152;DC_PARIS;2844189.6;0.0;2776278.1;67911.4623987
153;DC_PARIS;2844189.6;0.0;277796.12;2566393.4899479
154;DC_PARIS;6225705.600000001;0.0;0.0;8333254.665895799
155;DC_PARIS;6225705.600000001;0.0;0.0;14416654.4054802
156;DC_PARIS;6225705.600000001;0.0;0.0;19603726.241127
157;DC_PARIS;6225705.600000001;0.0;0.0;23229646.8680163
158;DC_PARIS;6225705.600000001;0.0;0.0;18520355.619924903
159;DC_PARIS;6225705.600000001;0.0;0.0;11920264.991417998
160;DC_PARIS;3619994.8800000004;0.0;397493.22000000003;3222501.6750689996
161;DC_PARIS;2844189.6;0.0;2843943.4;246.18982199999996
162;DC_PARIS;3341700.0;0.0;3341700.0;0.0
163;DC_PARIS;2844189.6;0.0;2844189.6;0.0
164;DC_PARIS;2844189.6;0.0;2844189.6;0.0
165;DC_PARIS;2844189.6;0.0;2844189.6;0.0
166;DC_PARIS;2844189.6;0.0;2844189.6;0.0
167;DC_PARIS;2844189.6;0.0;2844189.6;0.0
1;DC_VIRGINIA;2808187.1999999997;0.0;2808187.1999999997;0.0
2;DC_VIRGINIA;2808187.1999999997;0.0;2808187.1999999997;0.0
3;DC_VIRGINIA;2808187.1999999997;0.0;2808187.1999999997;0.0
4;DC_VIRGINIA;2808187.1999999997;0.0;2808187.1999999997;0.0
5;DC_VIRGINIA;2808187.1999999997;0.0;2808187.1999999997;0.0
6;DC_VIRGINIA;2808187.1999999997;0.0;2808187.1999999997;0.0
7;DC_VIRGINIA;2808187.1999999997;0.0;2808187.1999999997;0.0
8;DC_VIRGINIA;2808187.1999999997;0.0;2808187.1999999997;0.0
9;DC_VIRGINIA;2808187.1999999997;0.0;2808187.1999999997;0.0
10;DC_VIRGINIA;2808187.1999999997;0.0;2808187.1999999997;0.0
11;DC_VIRGINIA;2808187.1999999997;0.0;2808187.1999999997;0.0
12;DC_VIRGINIA;6146899.199999999;0.0;6146899.2;0.0
13;DC_VIRGINIA;2808187.1999999997;0.0;2570166.6;238020.58031159997
14;DC_VIRGINIA;6146899.199999999;0.0;3740424.5999999996;2406474.6247609495
15;DC_VIRGINIA;6146899.199999999;0.0;2022700.9000000001;4124198.2987362
16;DC_VIRGINIA;6146899.199999999;0.0;1250246.2;4896653.0642711995
17;DC_VIRGINIA;6146899.199999999;0.0;1654642.5999999999;4492256.580687299
18;DC_VIRGINIA;6146899.199999999;0.0;918177.7100000001;5228721.5196789
19;DC_VIRGINIA;6146899.199999999;0.0;522617.89999999997;5624281.33512975
20;DC_VIRGINIA;6146899.199999999;0.0;1852727.4;4294171.844758649
21;DC_VIRGINIA;6146899.199999999;0.0;3521966.6;2624932.60389855
22;DC_VIRGINIA;5382065.52;0.0;4686179.600000001;695885.94059745
23;DC_VIRGINIA;6146899.199999999;0.0;6146899.2;0.0
24;DC_VIRGINIA;5950948.345874999;0.0;5950948.4;0.0
25;DC_VIRGINIA;6146899.199999999;0.0;6146899.2;0.0
26;DC_VIRGINIA;2808187.1999999997;0.0;2808187.1999999997;0.0
27;DC_VIRGINIA;2808187.1999999997;0.0;2808187.1999999997;0.0
28;DC_VIRGINIA;2808187.1999999997;0.0;2808187.1999999997;0.0
29;DC_VIRGINIA;2808187.1999999997;0.0;2808187.1999999997;0.0
30;DC_VIRGINIA;2808187.1999999997;0.0;2808187.1999999997;0.0
31;DC_VIRGINIA;2808187.1999999997;0.0;2808187.1999999997;0.0
32;DC_VIRGINIA;2808187.1999999997;0.0;2808187.1999999997;0.0
33;DC_VIRGINIA;2808187.1999999997;0.0;2808187.1999999997;0.0
34;DC_VIRGINIA;2808187.1999999997;0.0;2808187.1999999997;0.0
35;DC_VIRGINIA;3104066.1599999997;0.0;3104066.2;0.0
36;DC_VIRGINIA;3074516.6399999997;0.0;3074516.6;0.0
37;DC_VIRGINIA;2808187.1999999997;0.0;2536193.4;271993.85104905
38;DC_VIRGINIA;2868520.46852475;0.0;0.0;2868520.4861195995
39;DC_VIRGINIA;6146899.199999999;0.0;0.0;6313909.9231599
40;DC_VIRGINIA;6146899.199999999;0.0;0.0;10708614.779294249
41;DC_VIRGINIA;6146899.199999999;0.0;0.0;16480017.594485998
42;DC_VIRGINIA;6146899.199999999;0.0;0.0;22612323.603254247
43;DC_VIRGINIA;6146899.199999999;0.0;0.0;24780670.4553684
44;DC_VIRGINIA;6146899.199999999;0.0;0.0;19916878.541356947
45;DC_VIRGINIA;6146899.199999999;0.0;0.0;11183195.444350349
46;DC_VIRGINIA;6146899.199999999;0.0;3209320.1;2937579.1480722
47;DC_VIRGINIA;2808187.1999999997;0.0;2807919.1999999997;267.98083799999995
48;DC_VIRGINIA;6146899.199999999;0.0;6146899.2;0.0
49;DC_VIRGINIA;3634422.48;0.0;3634422.5;0.0
50;DC_VIRGINIA;3512386.8;0.0;3512386.8000000003;0.0
51;DC_VIRGINIA;2958891.6708;0.0;2958891.7;0.0
52;DC_VIRGINIA;2808187.1999999997;0.0;2808187.1999999997;0.0
53;DC_VIRGINIA;2808187.1999999997;0.0;2808187.1999999997;0.0
54;DC_VIRGINIA;2808187.1999999997;0.0;2808187.1999999997;0.0
55;DC_VIRGINIA;2808187.1999999997;0.0;2808187.1999999997;0.0
56;DC_VIRGINIA;2808187.1999999997;0.0;2808187.1999999997;0.0
57;DC_VIRGINIA;2808187.1999999997;0.0;2808187.1999999997;0.0
58;DC_VIRGINIA;2808187.1999999997;0.0;2808187.1999999997;0.0
59;DC_VIRGINIA;2808187.1999999997;0.0;2808187.1999999997;0.0
60;DC_VIRGINIA;3358499.0399999996;0.0;3358499.0;0.0
61;DC_VIRGINIA;2808187.1999999997;0.0;2298601.5;509585.66201984993
62;DC_VIRGINIA;3947806.5924375;0.0;0.0;3947806.611643649
63;DC_VIRGINIA;6146899.199999999;0.0;0.0;6961090.346450849
64;DC_VIRGINIA;6146899.199999999;0.0;0.0;9231705.38586675
65;DC_VIRGINIA;6146899.199999999;0.0;0.0;9372582.91240335
66;DC_VIRGINIA;6146899.199999999;0.0;0.0;8092632.735384899
67;DC_VIRGINIA;6146899.199999999;0.0;0.0;6283668.2855915995
68;DC_VIRGINIA;4839867.925425;0.0;0.0;4839867.924699
69;DC_VIRGINIA;3422664.647415;0.0;0.0;3422664.6619778997
70;DC_VIRGINIA;2808187.1999999997;0.0;1446938.3;1361248.8637466999
71;DC_VIRGINIA;2808187.1999999997;0.0;2807892.4000000004;294.7789218
72;DC_VIRGINIA;2808187.1999999997;0.0;2808187.1999999997;0.0
73;DC_VIRGINIA;2808187.1999999997;0.0;2808187.1999999997;0.0
74;DC_VIRGINIA;2808187.1999999997;0.0;2808187.1999999997;0.0
75;DC_VIRGINIA;2808187.1999999997;0.0;2808187.1999999997;0.0
76;DC_VIRGINIA;2808187.1999999997;0.0;2808187.1999999997;0.0
77;DC_VIRGINIA;2808187.1999999997;0.0;2808187.1999999997;0.0
78;DC_VIRGINIA;2808187.1999999997;0.0;2808187.1999999997;0.0
79;DC_VIRGINIA;2808187.1999999997;0.0;2808187.1999999997;0.0
80;DC_VIRGINIA;2808187.1999999997;0.0;2808187.1999999997;0.0
81;DC_VIRGINIA;2808187.1999999997;0.0;2808187.1999999997;0.0
82;DC_VIRGINIA;2808187.1999999997;0.0;2808187.1999999997;0.0
83;DC_VIRGINIA;2808187.1999999997;0.0;2808187.1999999997;0.0
84;DC_VIRGINIA;2808187.1999999997;0.0;2808187.1999999997;0.0
85;DC_VIRGINIA;2808187.1999999997;0.0;2044763.4000000001;763423.8112944
86;DC_VIRGINIA;6146899.199999999;0.0;0.0;8370682.95337275
87;DC_VIRGINIA;6146899.199999999;0.0;0.0;17199057.07948665
88;DC_VIRGINIA;6146899.199999999;0.0;0.0;21093622.59814065
89;DC_VIRGINIA;6146899.199999999;0.0;0.0;25081224.3642273
90;DC_VIRGINIA;6146899.199999999;0.0;0.0;24095771.72912895
91;DC_VIRGINIA;6146899.199999999;0.0;351874.91;20134023.414388347
92;DC_VIRGINIA;6146899.199999999;0.0;6146899.2;13995064.781316748
93;DC_VIRGINIA;6146899.199999999;0.0;0.0;9040876.231126951
94;DC_VIRGINIA;6146899.199999999;0.0;3325523.3;2821375.9571944503
95;DC_VIRGINIA;6146899.199999999;0.0;6146229.2;669.952095
96;DC_VIRGINIA;6146899.199999999;0.0;6146899.2;0.0
97;DC_VIRGINIA;6146899.199999999;0.0;6146899.2;0.0
98;DC_VIRGINIA;6146899.199999999;0.0;6146899.2;0.0
99;DC_VIRGINIA;5135509.07415;0.0;5135509.0;0.0
100;DC_VIRGINIA;3008893.6799999997;0.0;3008893.7;0.0
101;DC_VIRGINIA;2984716.8;0.0;2984716.8000000003;0.0
102;DC_VIRGINIA;2808187.1999999997;0.0;2808187.1999999997;0.0
103;DC_VIRGINIA;2808187.1999999997;0.0;2808187.1999999997;0.0
104;DC_VIRGINIA;2983949.28;0.0;2983949.3000000003;0.0
105;DC_VIRGINIA;2808187.1999999997;0.0;2808187.1999999997;0.0
106;DC_VIRGINIA;2808187.1999999997;0.0;2808187.1999999997;0.0
107;DC_VIRGINIA;2808187.1999999997;0.0;2808187.1999999997;0.0
108;DC_VIRGINIA;2886474.2399999998;0.0;2886474.2;0.0
109;DC_VIRGINIA;4736051.1315;0.0;4149541.5999999996;586509.56156775
110;DC_VIRGINIA;5470225.865325;0.0;0.0;5470225.850884499
111;DC_VIRGINIA;6146899.199999999;0.0;0.0;11915600.473646248
112;DC_VIRGINIA;6146899.199999999;0.0;0.0;17843028.432242546
113;DC_VIRGINIA;6146899.199999999;0.0;0.0;21397827.745917298
114;DC_VIRGINIA;6146899.199999999;0.0;0.0;21756995.76356775
115;DC_VIRGINIA;6146899.199999999;0.0;0.0;19513654.4739393
116;DC_VIRGINIA;6146899.199999999;0.0;0.0;15406874.929673098
117;DC_VIRGINIA;6146899.199999999;0.0;0.0;9593104.34399355
118;DC_VIRGINIA;6146899.199999999;0.0;3205065.9;2941833.3438754496
119;DC_VIRGINIA;6146899.199999999;0.0;6145740.2;1159.01712435
120;DC_VIRGINIA;6146899.199999999;0.0;6146899.2;0.0
121;DC_VIRGINIA;3267164.1599999997;0.0;3267164.2;0.0
122;DC_VIRGINIA;2808187.1999999997;0.0;2808187.1999999997;0.0
123;DC_VIRGINIA;4931820.29925;0.0;4931820.300000001;0.0
124;DC_VIRGINIA;2808187.1999999997;0.0;2808187.1999999997;0.0
125;DC_VIRGINIA;2808187.1999999997;0.0;2808187.1999999997;0.0
126;DC_VIRGINIA;2808187.1999999997;0.0;2808187.1999999997;0.0
127;DC_VIRGINIA;2808187.1999999997;0.0;2808187.1999999997;0.0
128;DC_VIRGINIA;2808187.1999999997;0.0;2808187.1999999997;0.0
129;DC_VIRGINIA;2808187.1999999997;0.0;2808187.1999999997;0.0
130;DC_VIRGINIA;2808187.1999999997;0.0;2808187.1999999997;0.0
131;DC_VIRGINIA;2808187.1999999997;0.0;2808187.1999999997;0.0
132;DC_VIRGINIA;2808187.1999999997;0.0;2808187.1999999997;0.0
133;DC_VIRGINIA;3027314.1599999997;0.0;1974564.8;1052749.3230411
134;DC_VIRGINIA;6146899.199999999;0.0;0.0;9998726.839911299
135;DC_VIRGINIA;6146899.199999999;0.0;0.0;20691698.2377873
136;DC_VIRGINIA;6146899.199999999;0.0;0.0;29204256.946318198
137;DC_VIRGINIA;6146899.199999999;0.0;0.0;34254945.396271795
138;DC_VIRGINIA;6146899.199999999;0.0;0.0;35245918.436632946
139;DC_VIRGINIA;6146899.199999999;0.0;0.0;31582680.676861495
140;DC_VIRGINIA;6146899.199999999;0.0;0.0;23984398.89285615
141;DC_VIRGINIA;6146899.199999999;0.0;0.0;13576853.885533947
142;DC_VIRGINIA;6146899.199999999;0.0;2379483.9000000004;3767415.3105439497
143;DC_VIRGINIA;6146899.199999999;0.0;6145251.100000001;1648.0821536999997
144;DC_VIRGINIA;6146899.199999999;0.0;6146899.2;0.0
145;DC_VIRGINIA;6146899.199999999;0.0;6146899.2;0.0
146;DC_VIRGINIA;6146899.199999999;0.0;6146899.2;0.0
147;DC_VIRGINIA;6146899.199999999;0.0;6146899.2;0.0
148;DC_VIRGINIA;6146899.199999999;0.0;6146899.2;0.0
149;DC_VIRGINIA;6146899.199999999;0.0;6146899.2;0.0
150;DC_VIRGINIA;6146899.199999999;0.0;6146899.2;0.0
151;DC_VIRGINIA;6146899.199999999;0.0;6146899.2;0.0
152;DC_VIRGINIA;6146899.199999999;0.0;6146899.2;0.0
153;DC_VIRGINIA;6146899.199999999;0.0;6146899.2;0.0
154;DC_VIRGINIA;6146899.199999999;0.0;6146899.2;0.0
155;DC_VIRGINIA;6146899.199999999;0.0;6146899.2;0.0
156;DC_VIRGINIA;6146899.199999999;0.0;6146899.2;0.0
157;DC_VIRGINIA;6146899.199999999;0.0;5133456.0;1013443.23362745
158;DC_VIRGINIA;6146899.199999999;0.0;0.0;9828471.91400895
159;DC_VIRGINIA;6146899.199999999;0.0;0.0;21124721.77439055
160;DC_VIRGINIA;6146899.199999999;0.0;0.0;29321163.5868957
161;DC_VIRGINIA;6146899.199999999;0.0;0.0;32860292.721068393
162;DC_VIRGINIA;6146899.199999999;0.0;0.0;34106088.74028375
163;DC_VIRGINIA;6146899.199999999;0.0;0.0;29213019.9197208
164;DC_VIRGINIA;6146899.199999999;0.0;0.0;22473254.947374146
165;DC_VIRGINIA;6146899.199999999;0.0;0.0;10721183.080596449
166;DC_VIRGINIA;6146899.199999999;0.0;4347227.0;1799672.2142356497
167;DC_VIRGINIA;6146899.199999999;0.0;6146356.5;542.66119695
1;DC_DUBAI;2844189.6;0.0;2844189.6;0.0
2;DC_DUBAI;2844189.6;0.0;2844189.6;0.0
3;DC_DUBAI;2844189.6;0.0;2844189.6;0.0
4;DC_DUBAI;2844189.6;0.0;909541.7;1934647.8798725996
5;DC_DUBAI;6225705.600000001;0.0;0.0;8129673.9602112
6;DC_DUBAI;6225705.600000001;0.0;1375617.2;19071999.831621747
7;DC_DUBAI;5651165.868825;0.0;0.0;26150936.880133495
8;DC_DUBAI;6225705.600000001;0.0;0.0;29584578.038502898
9;DC_DUBAI;6225705.600000001;0.0;0.0;31129831.81707345
10;DC_DUBAI;6225705.600000001;0.0;0.0;28012382.865047548
11;DC_DUBAI;6225705.600000001;0.0;0.0;20841343.524564147
12;DC_DUBAI;6225705.600000001;0.0;0.0;13023039.8733165
13;DC_DUBAI;6225705.600000001;0.0;884718.08;5340987.4642811995
14;DC_DUBAI;6225705.600000001;0.0;5661651.7;564053.9397313499
15;DC_DUBAI;6225705.600000001;0.0;6225705.600000001;0.0
16;DC_DUBAI;6225705.600000001;0.0;6225705.600000001;0.0
17;DC_DUBAI;6225705.600000001;0.0;6225705.600000001;0.0
18;DC_DUBAI;6225705.600000001;0.0;6225705.600000001;0.0
19;DC_DUBAI;6225705.600000001;0.0;6225705.600000001;0.0
20;DC_DUBAI;6225705.600000001;0.0;6225705.600000001;0.0
21;DC_DUBAI;6225705.600000001;0.0;6225705.600000001;0.0
22;DC_DUBAI;6225705.600000001;0.0;6225705.600000001;0.0
23;DC_DUBAI;6225705.600000001;0.0;6225705.600000001;0.0
24;DC_DUBAI;6225705.600000001;0.0;6225705.600000001;0.0
25;DC_DUBAI;6225705.600000001;0.0;6225705.600000001;0.0
26;DC_DUBAI;6225705.600000001;0.0;6225705.600000001;0.0
27;DC_DUBAI;6185093.641425;0.0;6185093.600000001;0.0
28;DC_DUBAI;6173622.48;0.0;3728249.6;2445372.8051636997
29;DC_DUBAI;6225705.600000001;0.0;0.0;10608993.6432879
30;DC_DUBAI;6225705.600000001;0.0;0.0;18896367.50968725
31;DC_DUBAI;6225705.600000001;0.0;0.0;25593298.630193394
32;DC_DUBAI;6225705.600000001;0.0;2503390.1;29554989.3274095
33;DC_DUBAI;6225705.600000001;0.0;6225705.600000001;30398398.158486445
34;DC_DUBAI;6225705.600000001;0.0;6225705.600000001;28151929.745805297
35;DC_DUBAI;6225705.600000001;0.0;0.0;23085812.943373498
36;DC_DUBAI;6225705.600000001;0.0;0.0;15825471.703234348
37;DC_DUBAI;6225705.600000001;0.0;0.0;7291613.7884128485
38;DC_DUBAI;6225705.600000001;0.0;5520808.100000001;704897.4651626999
39;DC_DUBAI;6225705.600000001;0.0;6225705.600000001;0.0
40;DC_DUBAI;6225705.600000001;0.0;6225705.600000001;0.0
41;DC_DUBAI;6225705.600000001;0.0;6225705.600000001;0.0
42;DC_DUBAI;6225705.600000001;0.0;6225705.600000001;0.0
43;DC_DUBAI;6225705.600000001;0.0;6225705.600000001;0.0
44;DC_DUBAI;6225705.600000001;0.0;6225705.600000001;0.0
45;DC_DUBAI;6225705.600000001;0.0;6225705.600000001;0.0
46;DC_DUBAI;6225705.600000001;0.0;6225705.600000001;0.0
47;DC_DUBAI;6225705.600000001;0.0;6225705.600000001;0.0
48;DC_DUBAI;6225705.600000001;0.0;6225705.600000001;0.0
49;DC_DUBAI;6225705.600000001;0.0;6225705.600000001;0.0
50;DC_DUBAI;6225705.600000001;0.0;6225705.600000001;0.0
51;DC_DUBAI;6225705.600000001;0.0;6225705.600000001;0.0
52;DC_DUBAI;6225705.600000001;0.0;4070240.9;2155464.6668912997
53;DC_DUBAI;6225705.600000001;0.0;0.0;9288599.661864148
54;DC_DUBAI;6225705.600000001;0.0;0.0;17310368.4731442
55;DC_DUBAI;6225705.600000001;0.0;0.0;23509207.949449945
56;DC_DUBAI;6225705.600000001;0.0;0.0;27289467.44160795
57;DC_DUBAI;6225705.600000001;0.0;0.0;28441990.960185
58;DC_DUBAI;6225705.600000001;0.0;0.0;26816799.9379347
59;DC_DUBAI;6225705.600000001;0.0;0.0;22370285.693230346
60;DC_DUBAI;6225705.600000001;0.0;0.0;15541330.932416398
61;DC_DUBAI;6225705.600000001;0.0;0.0;7347414.531762149
62;DC_DUBAI;6225705.600000001;0.0;5488338.0;737367.6088641
63;DC_DUBAI;6225705.600000001;0.0;6225705.600000001;0.0
64;DC_DUBAI;6225705.600000001;0.0;6225705.600000001;0.0
65;DC_DUBAI;6225705.600000001;0.0;6225705.600000001;0.0
66;DC_DUBAI;6225705.600000001;0.0;6225705.600000001;0.0
67;DC_DUBAI;6225705.600000001;0.0;6225705.600000001;0.0
68;DC_DUBAI;6225705.600000001;0.0;6225705.600000001;0.0
69;DC_DUBAI;6225705.600000001;0.0;6225705.600000001;0.0
70;DC_DUBAI;6225705.600000001;0.0;6225705.600000001;0.0
71;DC_DUBAI;6225705.600000001;0.0;6225705.600000001;0.0
72;DC_DUBAI;6225705.600000001;0.0;6225705.600000001;0.0
73;DC_DUBAI;6225705.600000001;0.0;6225705.600000001;0.0
74;DC_DUBAI;6225705.600000001;0.0;6225705.600000001;0.0
75;DC_DUBAI;6225705.600000001;0.0;6225705.600000001;0.0
76;DC_DUBAI;6225705.600000001;0.0;3327403.1;2898302.49547215
77;DC_DUBAI;6225705.600000001;0.0;0.0;11864006.11794075
78;DC_DUBAI;6225705.600000001;0.0;4073672.2;20622287.112779398
79;DC_DUBAI;6225705.600000001;0.0;6225705.600000001;27557526.2166825
80;DC_DUBAI;6225705.600000001;0.0;6225705.600000001;31658115.47231955
81;DC_DUBAI;6225705.600000001;0.0;17369798.0;32660336.262481797
82;DC_DUBAI;6225705.600000001;0.0;6225705.600000001;30602092.9326798
83;DC_DUBAI;6225705.600000001;0.0;0.0;25414154.562267896
84;DC_DUBAI;6225705.600000001;0.0;0.0;17732025.61517895
85;DC_DUBAI;6225705.600000001;0.0;0.0;8361269.1060792
86;DC_DUBAI;6225705.600000001;0.0;5342334.899999999;883370.6995591498
87;DC_DUBAI;6225705.600000001;0.0;6225705.600000001;0.0
88;DC_DUBAI;6225705.600000001;0.0;6225705.600000001;0.0
89;DC_DUBAI;6225705.600000001;0.0;6225705.600000001;0.0
90;DC_DUBAI;6225705.600000001;0.0;6225705.600000001;0.0
91;DC_DUBAI;6225705.600000001;0.0;6225705.600000001;0.0
92;DC_DUBAI;6225705.600000001;0.0;6225705.600000001;0.0
93;DC_DUBAI;6225705.600000001;0.0;6225705.600000001;0.0
94;DC_DUBAI;6225705.600000001;0.0;6225705.600000001;0.0
95;DC_DUBAI;6225705.600000001;0.0;6225705.600000001;0.0
96;DC_DUBAI;6225705.600000001;0.0;6225705.600000001;0.0
97;DC_DUBAI;6225705.600000001;0.0;6225705.600000001;0.0
98;DC_DUBAI;6225705.600000001;0.0;6225705.600000001;0.0
99;DC_DUBAI;6225705.600000001;0.0;6225705.600000001;0.0
100;DC_DUBAI;6225705.600000001;0.0;3231658.5;2994047.0983498497
101;DC_DUBAI;6225705.600000001;0.0;0.0;12068794.936077448
102;DC_DUBAI;6225705.600000001;0.0;4221632.1;20886699.074709445
103;DC_DUBAI;6225705.600000001;0.0;2.5891598e-09;27851526.88970595
104;DC_DUBAI;6225705.600000001;0.0;6667819.8;31957406.27552175
105;DC_DUBAI;6225705.600000001;0.0;6225705.600000001;32954300.917597648
106;DC_DUBAI;6225705.600000001;0.0;6225705.600000001;30774740.270521946
107;DC_DUBAI;6225705.600000001;0.0;0.0;25548460.83746985
108;DC_DUBAI;6225705.600000001;0.0;0.0;17813583.664700698
109;DC_DUBAI;6225705.600000001;0.0;0.0;8522035.0366518
110;DC_DUBAI;6225705.600000001;0.0;5325586.6;900119.0265931499
111;DC_DUBAI;6225705.600000001;0.0;6225705.600000001;0.0
112;DC_DUBAI;6225705.600000001;0.0;6225705.600000001;0.0
113;DC_DUBAI;6225705.600000001;0.0;6225705.600000001;0.0
114;DC_DUBAI;6225705.600000001;0.0;6225705.600000001;0.0
115;DC_DUBAI;6225705.600000001;0.0;6225705.600000001;0.0
116;DC_DUBAI;6225705.600000001;0.0;6225705.600000001;0.0
117;DC_DUBAI;6225705.600000001;0.0;6225705.600000001;0.0
118;DC_DUBAI;6225705.600000001;0.0;6225705.600000001;0.0
119;DC_DUBAI;6225705.600000001;0.0;6225705.600000001;0.0
120;DC_DUBAI;6225705.600000001;0.0;6225705.600000001;0.0
121;DC_DUBAI;6225705.600000001;0.0;6225705.600000001;0.0
122;DC_DUBAI;6225705.600000001;0.0;6225705.600000001;0.0
123;DC_DUBAI;6225705.600000001;0.0;6225705.600000001;0.0
124;DC_DUBAI;6225705.600000001;0.0;3371155.8;2854549.7422150495
125;DC_DUBAI;6225705.600000001;0.0;0.0;11646606.529905599
126;DC_DUBAI;6225705.600000001;0.0;0.0;20318129.389812745
127;DC_DUBAI;6225705.600000001;0.0;0.0;27142077.661470298
128;DC_DUBAI;6225705.600000001;0.0;0.0;31217400.35492595
129;DC_DUBAI;6225705.600000001;0.0;4359779.7;32206263.003607046
130;DC_DUBAI;6225705.600000001;0.0;0.0;29879524.18160085
131;DC_DUBAI;6225705.600000001;0.0;0.0;24679245.175597496
132;DC_DUBAI;6225705.600000001;0.0;0.0;17021378.7915156
133;DC_DUBAI;6225705.600000001;0.0;0.0;7962595.891331699
134;DC_DUBAI;6225705.600000001;0.0;6225705.600000001;813946.18266015
135;DC_DUBAI;6225705.600000001;0.0;6225705.600000001;0.0
136;DC_DUBAI;6225705.600000001;0.0;6225705.600000001;0.0
137;DC_DUBAI;6225705.600000001;0.0;6225705.600000001;0.0
138;DC_DUBAI;6225705.600000001;0.0;6225705.600000001;0.0
139;DC_DUBAI;6225705.600000001;0.0;6225705.600000001;0.0
140;DC_DUBAI;6225705.600000001;0.0;6225705.600000001;0.0
141;DC_DUBAI;6225705.600000001;0.0;6225705.600000001;0.0
142;DC_DUBAI;6225705.600000001;0.0;6225705.600000001;0.0
143;DC_DUBAI;6225705.600000001;0.0;6225705.600000001;0.0
144;DC_DUBAI;6225705.600000001;0.0;6225705.600000001;0.0
145;DC_DUBAI;6225705.600000001;0.0;6225705.600000001;0.0
146;DC_DUBAI;6225705.600000001;0.0;6225705.600000001;0.0
147;DC_DUBAI;6225705.600000001;0.0;6225705.600000001;0.0
148;DC_DUBAI;6225705.600000001;0.0;3635234.5999999996;2590470.9459302993
149;DC_DUBAI;6225705.600000001;0.0;0.0;10912557.070779148
150;DC_DUBAI;6225705.600000001;0.0;3386250.3000000003;19298750.56891755
151;DC_DUBAI;6225705.600000001;0.0;0.0;26972172.1868442
152;DC_DUBAI;6225705.600000001;0.0;0.0;31019684.5533942
153;DC_DUBAI;6225705.600000001;0.0;0.0;32020090.941461097
154;DC_DUBAI;6225705.600000001;0.0;5090222.399999999;29887880.33616405
155;DC_DUBAI;6225705.600000001;0.0;0.0;24720634.253668346
156;DC_DUBAI;6225705.600000001;0.0;0.0;17089281.551818497
157;DC_DUBAI;6225705.600000001;0.0;0.0;8009063.4943741495
158;DC_DUBAI;6225705.600000001;0.0;5395704.399999999;830001.16497285
159;DC_DUBAI;6225705.600000001;0.0;6225705.600000001;0.0
160;DC_DUBAI;6225705.600000001;0.0;6225705.600000001;0.0
161;DC_DUBAI;6225705.600000001;0.0;6225705.600000001;0.0
162;DC_DUBAI;6225705.600000001;0.0;6225705.600000001;0.0
163;DC_DUBAI;6225705.600000001;0.0;6225705.600000001;0.0
164;DC_DUBAI;6225705.600000001;0.0;6225705.600000001;0.0
165;DC_DUBAI;6225705.600000001;0.0;6225705.600000001;0.0
166;DC_DUBAI;6225705.600000001;0.0;6225705.600000001;0.0
167;DC_DUBAI;6225705.600000001;0.0;6225705.600000001;0.0
1;DC_SINGAPORE;4418809.83671;0.0;0.0;4418809.891070699
2;DC_SINGAPORE;3372224.8000000003;0.0;0.0;8569928.6327463
3;DC_SINGAPORE;3372224.8000000003;0.0;0.0;12398225.98632825
4;DC_SINGAPORE;3372224.8000000003;0.0;0.0;16134838.2656409
5;DC_SINGAPORE;3372224.8000000003;0.0;0.0;19332203.287761603
6;DC_SINGAPORE;3372224.8000000003;0.0;0.0;20965127.560051497
7;DC_SINGAPORE;3372224.8000000003;0.0;0.0;20972568.342562348
8;DC_SINGAPORE;3372224.8000000003;0.0;0.0;18938573.50146795
9;DC_SINGAPORE;3372224.8000000003;0.0;0.0;14590908.3484887
10;DC_SINGAPORE;3372224.8000000003;0.0;0.0;8466536.5699746
11;DC_SINGAPORE;3372224.8000000003;0.0;1193521.2;2178703.6042158003
12;DC_SINGAPORE;3372224.8000000003;0.0;3370549.0;1675.7987573999999
13;DC_SINGAPORE;3372224.8000000003;0.0;3372224.8;0.0
14;DC_SINGAPORE;3372224.8000000003;0.0;3372224.8;0.0
15;DC_SINGAPORE;3372224.8000000003;0.0;3372224.8;0.0
16;DC_SINGAPORE;3372224.8000000003;0.0;3372224.8;0.0
17;DC_SINGAPORE;3372224.8000000003;0.0;3372224.8;0.0
18;DC_SINGAPORE;3372224.8000000003;0.0;3372224.8;0.0
19;DC_SINGAPORE;3372224.8000000003;0.0;3372224.8;0.0
20;DC_SINGAPORE;3372224.8000000003;0.0;3372224.8;0.0
21;DC_SINGAPORE;3372224.8000000003;0.0;3372224.8;0.0
22;DC_SINGAPORE;3372224.8000000003;0.0;3372224.8;0.0
23;DC_SINGAPORE;3372224.8000000003;0.0;3372224.8;0.0
24;DC_SINGAPORE;3372224.8000000003;0.0;2311733.3;1060491.47914155
25;DC_SINGAPORE;5095578.7517125;0.0;0.0;5095578.85896675
26;DC_SINGAPORE;7381532.8;0.0;0.0;10292437.3301589
27;DC_SINGAPORE;7381532.8;0.0;0.0;15951881.166091798
28;DC_SINGAPORE;7381532.8;0.0;0.0;20228224.5599841
29;DC_SINGAPORE;6670050.852775;0.0;0.0;22438001.249609996
30;DC_SINGAPORE;6978886.955137501;0.0;0.0;22725253.21900785
31;DC_SINGAPORE;7381532.8;0.0;0.0;20400855.4347957
32;DC_SINGAPORE;7381532.8;0.0;0.0;15769183.697336098
33;DC_SINGAPORE;7381532.8;0.0;0.0;10544479.8235518
34;DC_SINGAPORE;6058390.017825;0.0;0.0;6058390.1527913995
35;DC_SINGAPORE;3372224.8000000003;0.0;1718323.5999999999;1653901.2602566497
36;DC_SINGAPORE;3372224.8000000003;0.0;3370932.5;1292.2532671499998
37;DC_SINGAPORE;7381532.8;0.0;7381532.8;0.0
38;DC_SINGAPORE;3530193.3065537503;0.0;3530193.3;0.0
39;DC_SINGAPORE;3372224.8000000003;0.0;3372224.8;0.0
40;DC_SINGAPORE;3372224.8000000003;0.0;3372224.8;0.0
41;DC_SINGAPORE;7381532.8;0.0;7381532.8;0.0
42;DC_SINGAPORE;3390981.5669302503;0.0;3390981.6;0.0
43;DC_SINGAPORE;7381532.8;0.0;7381532.8;0.0
44;DC_SINGAPORE;7381532.8;0.0;7381532.8;0.0
45;DC_SINGAPORE;7381532.8;0.0;7381532.8;0.0
46;DC_SINGAPORE;4018783.3200000003;0.0;4018783.3000000003;0.0
47;DC_SINGAPORE;7381532.8;0.0;7381532.8;0.0
48;DC_SINGAPORE;3918320.2;0.0;2972402.6;945917.5901540999
49;DC_SINGAPORE;7381532.8;0.0;2718156.7;4663376.19775365
50;DC_SINGAPORE;7381532.8;0.0;0.0;9389146.395721199
51;DC_SINGAPORE;7381532.8;0.0;0.0;12447184.0929837
52;DC_SINGAPORE;7381532.8;0.0;0.0;15252536.12056965
53;DC_SINGAPORE;7381532.8;0.0;0.0;15714596.323023748
54;DC_SINGAPORE;7381532.8;0.0;0.0;15868988.134599
55;DC_SINGAPORE;7381532.8;0.0;0.0;14957241.497276248
56;DC_SINGAPORE;7381532.8;0.0;0.0;12139173.46151355
57;DC_SINGAPORE;7381532.8;0.0;0.0;8867548.131780598
58;DC_SINGAPORE;5108607.5625875;0.0;0.0;5108607.604235549
59;DC_SINGAPORE;4194363.36;0.0;2733220.3;1461143.0982567
60;DC_SINGAPORE;3372224.8000000003;0.0;3370962.1;1262.7497678999998
61;DC_SINGAPORE;7224187.190712499;0.0;7224187.2;0.0
62;DC_SINGAPORE;3372224.8000000003;0.0;3372224.8;0.0
63;DC_SINGAPORE;3372224.8000000003;0.0;3372224.8;0.0
64;DC_SINGAPORE;3372224.8000000003;0.0;3372224.8;0.0
65;DC_SINGAPORE;3372224.8000000003;0.0;3372224.8;0.0
66;DC_SINGAPORE;3372224.8000000003;0.0;3372224.8;0.0
67;DC_SINGAPORE;3372224.8000000003;0.0;3372224.8;0.0
68;DC_SINGAPORE;3372224.8000000003;0.0;3372224.8;0.0
69;DC_SINGAPORE;3372224.8000000003;0.0;3372224.8;0.0
70;DC_SINGAPORE;3693430.2800000003;0.0;3693430.3;0.0
71;DC_SINGAPORE;7381532.8;0.0;7381532.8;0.0
72;DC_SINGAPORE;3778224.84;0.0;2416166.3;1362058.5463754998
73;DC_SINGAPORE;6624810.0459625;0.0;0.0;6624810.1327925995
74;DC_SINGAPORE;7381532.8;0.0;0.0;13945808.4366876
75;DC_SINGAPORE;7381532.8;0.0;0.0;22286394.56836395
76;DC_SINGAPORE;7381532.8;0.0;0.0;29338492.079394598
77;DC_SINGAPORE;7381532.8;0.0;0.0;34112317.57694055
78;DC_SINGAPORE;7381532.8;0.0;0.0;34122224.851988696
79;DC_SINGAPORE;7381532.8;0.0;0.0;29351320.200868495
80;DC_SINGAPORE;7381532.8;0.0;0.0;21162576.778432198
81;DC_SINGAPORE;7381532.8;0.0;0.0;13273807.23427035
82;DC_SINGAPORE;7381532.8;0.0;1088318.5;6293214.404022
83;DC_SINGAPORE;7381532.8;0.0;5800316.399999999;1581216.43950435
84;DC_SINGAPORE;7381532.8;0.0;7380529.7;1003.1189745
85;DC_SINGAPORE;7381532.8;0.0;7381532.8;0.0
86;DC_SINGAPORE;7381532.8;0.0;7381532.8;0.0
87;DC_SINGAPORE;7381532.8;0.0;7381532.8;0.0
88;DC_SINGAPORE;7381532.8;0.0;7381532.8;0.0
89;DC_SINGAPORE;7381532.8;0.0;7381532.8;0.0
90;DC_SINGAPORE;4416723.009177499;0.0;4416723.0;0.0
91;DC_SINGAPORE;7381532.8;0.0;7381532.8;0.0
92;DC_SINGAPORE;7381532.8;0.0;7381532.8;0.0
93;DC_SINGAPORE;7381532.8;0.0;7381532.8;0.0
94;DC_SINGAPORE;7381532.8;0.0;7381532.8;0.0
95;DC_SINGAPORE;7381532.8;0.0;7381532.8;0.0
96;DC_SINGAPORE;7381532.8;0.0;6119733.100000001;1261799.75522415
97;DC_SINGAPORE;7381532.8;0.0;1474690.4;5906842.47854385
98;DC_SINGAPORE;7381532.8;0.0;0.0;11590278.560066849
99;DC_SINGAPORE;7381532.8;0.0;0.0;17183864.6849739
100;DC_SINGAPORE;7381532.8;0.0;0.0;20827723.863344397
101;DC_SINGAPORE;7381532.8;0.0;0.0;22991935.348728597
102;DC_SINGAPORE;7302729.16;0.0;0.0;25011278.75209545
103;DC_SINGAPORE;7301346.640000001;0.0;0.0;25678388.274337046
104;DC_SINGAPORE;7381532.8;0.0;0.0;22197329.404828053
105;DC_SINGAPORE;4605097.3789;0.0;0.0;17265807.70379085
106;DC_SINGAPORE;3451028.44;0.0;0.0;10022161.6742295
107;DC_SINGAPORE;3514163.52;0.0;713921.5299999999;2800242.02151585
108;DC_SINGAPORE;3372224.8000000003;0.0;3370006.1;2218.6631436
109;DC_SINGAPORE;5348943.255249999;0.0;5348943.3;0.0
110;DC_SINGAPORE;3775682.328115;0.0;3775682.3;0.0
111;DC_SINGAPORE;3585132.88;0.0;3585132.9;0.0
112;DC_SINGAPORE;7381532.8;0.0;7381532.8;0.0
113;DC_SINGAPORE;7250654.24;0.0;7250654.2;0.0
114;DC_SINGAPORE;7381532.8;0.0;7381532.8;0.0
115;DC_SINGAPORE;7381532.8;0.0;7381532.8;0.0
116;DC_SINGAPORE;7381532.8;0.0;7381532.8;0.0
117;DC_SINGAPORE;7381532.8;0.0;7381532.8;0.0
118;DC_SINGAPORE;7381532.8;0.0;7381532.8;0.0
119;DC_SINGAPORE;7381532.8;0.0;7381532.8;0.0
120;DC_SINGAPORE;7381532.8;0.0;6072580.600000001;1308952.2477254998
121;DC_SINGAPORE;7381532.8;0.0;0.0;7621774.6773490505
122;DC_SINGAPORE;7381532.8;0.0;0.0;15537598.930323148
123;DC_SINGAPORE;7381532.8;0.0;0.0;23140969.324840046
124;DC_SINGAPORE;7381532.8;0.0;0.0;28364239.328560796
125;DC_SINGAPORE;7381532.8;0.0;0.0;31497245.417417552
126;DC_SINGAPORE;7381532.8;0.0;0.0;31910017.074024595
127;DC_SINGAPORE;7381532.8;0.0;0.0;27347666.758402802
128;DC_SINGAPORE;7381532.8;0.0;0.0;22227116.13767085
129;DC_SINGAPORE;7381532.8;0.0;0.0;16171304.590713896
130;DC_SINGAPORE;7381532.8;0.0;0.0;9089355.439142099
131;DC_SINGAPORE;7381532.8;0.0;5072329.300000001;2309203.4820983997
132;DC_SINGAPORE;7381532.8;0.0;7379986.8;1545.9833607
133;DC_SINGAPORE;7381532.8;0.0;7381532.8;0.0
134;DC_SINGAPORE;7381532.8;0.0;7381532.8;0.0
135;DC_SINGAPORE;3607714.04;0.0;3607714.0;0.0
136;DC_SINGAPORE;7103818.9509875;0.0;7103818.9;0.0
137;DC_SINGAPORE;7381532.8;0.0;7381532.8;0.0
138;DC_SINGAPORE;7381532.8;0.0;7381532.8;0.0
139;DC_SINGAPORE;7381532.8;0.0;7381532.8;0.0
140;DC_SINGAPORE;7381532.8;0.0;7381532.8;0.0
141;DC_SINGAPORE;7381532.8;0.0;7381532.8;0.0
142;DC_SINGAPORE;7381532.8;0.0;7381532.8;0.0
143;DC_SINGAPORE;7381532.8;0.0;7381532.8;0.0
144;DC_SINGAPORE;7381532.8;0.0;6040551.6;1340981.2465112999
145;DC_SINGAPORE;7276640.8635875;0.0;970085.1;6306555.886382849
146;DC_SINGAPORE;7381532.8;0.0;0.0;12303655.4698323
147;DC_SINGAPORE;7381532.8;0.0;0.0;17363139.7478166
148;DC_SINGAPORE;7381532.8;0.0;0.0;19951700.062913552
149;DC_SINGAPORE;7381532.8;0.0;0.0;21149317.90586925
150;DC_SINGAPORE;7381532.8;0.0;0.0;21765409.977207746
151;DC_SINGAPORE;7381532.8;0.0;0.0;19391995.07934165
152;DC_SINGAPORE;7381532.8;0.0;0.0;15822142.47848985
153;DC_SINGAPORE;7381532.8;0.0;0.0;11798160.215782348
154;DC_SINGAPORE;6666622.3471875;0.0;0.0;6666622.491929699
155;DC_SINGAPORE;4149165.48331375;0.0;2264906.8000000003;1884258.6817007998
156;DC_SINGAPORE;3372224.8000000003;0.0;3370720.1;1504.6784617499998
157;DC_SINGAPORE;7381532.8;0.0;7381532.8;0.0
158;DC_SINGAPORE;3372224.8000000003;0.0;3372224.8;0.0
159;DC_SINGAPORE;3372224.8000000003;0.0;3372224.8;0.0
160;DC_SINGAPORE;3372224.8000000003;0.0;3372224.8;0.0
161;DC_SINGAPORE;4212796.96;0.0;4212797.0;0.0
162;DC_SINGAPORE;3372224.8000000003;0.0;3372224.8;0.0
163;DC_SINGAPORE;3633060.24;0.0;3633060.1999999997;0.0
164;DC_SINGAPORE;3584211.2;0.0;3584211.2;0.0
165;DC_SINGAPORE;6994410.6385625005;0.0;6994410.600000001;0.0
166;DC_SINGAPORE;3639051.16;0.0;3639051.1999999997;0.0
167;DC_SINGAPORE;7381532.8;0.0;7381532.8;0.0
1;DC_PUNE;3372224.8000000003;0.0;3372224.8;0.0
2;DC_PUNE;3372224.8000000003;0.0;3372224.8;291420.775746
3;DC_PUNE;5703553.586725;0.0;210551.51;5493002.1349140005
4;DC_PUNE;6700872.12;0.0;0.0;14112655.382511
5;DC_PUNE;7381532.8;0.0;0.0;21925383.81975
6;DC_PUNE;7381532.8;0.0;0.0;28257375.142017003
7;DC_PUNE;3372224.8000000003;0.0;0.0;31358918.847681
8;DC_PUNE;6286576.96;0.0;0.0;30356166.493413
9;DC_PUNE;6686125.24;0.0;0.0;26168042.665574998
10;DC_PUNE;7381532.8;0.0;0.0;19723391.213202
11;DC_PUNE;7381532.8;0.0;0.0;11832722.390403
12;DC_PUNE;4626292.0153525;0.0;0.0;4626292.02642
13;DC_PUNE;7381532.8;0.0;6908156.600000001;473376.23313300003
14;DC_PUNE;7381532.8;0.0;7381532.8;0.0
15;DC_PUNE;7381532.8;0.0;7381532.8;0.0
16;DC_PUNE;7381532.8;0.0;7381532.8;0.0
17;DC_PUNE;7381532.8;0.0;7381532.8;0.0
18;DC_PUNE;7381532.8;0.0;7381532.8;0.0
19;DC_PUNE;7381532.8;0.0;7381532.8;0.0
20;DC_PUNE;7381532.8;0.0;7381532.8;0.0
21;DC_PUNE;6253396.48;0.0;6253396.5;0.0
22;DC_PUNE;7381532.8;0.0;7381532.8;0.0
23;DC_PUNE;6237267.08;0.0;6237267.1;0.0
24;DC_PUNE;6109269.7780875005;0.0;6109269.8;0.0
25;DC_PUNE;3372224.8000000003;0.0;3372224.8;0.0
26;DC_PUNE;6889355.68;0.0;6718082.1;171273.53223
27;DC_PUNE;3372224.8000000003;0.0;114409.7;3257815.108788
28;DC_PUNE;7381532.8;0.0;0.0;8738475.132528001
29;DC_PUNE;7381532.8;0.0;0.0;14423375.239407001
30;DC_PUNE;7381532.8;0.0;0.0;20858916.595401
31;DC_PUNE;7381532.8;0.0;0.0;25366149.567459
32;DC_PUNE;7381532.8;0.0;0.0;26632597.125951
33;DC_PUNE;7381532.8;0.0;0.0;21681875.919447
34;DC_PUNE;7381532.8;0.0;0.0;15690380.843619002
35;DC_PUNE;7381532.8;0.0;0.0;9551533.795425002
36;DC_PUNE;7381532.8;0.0;3979737.3;3401795.554929
37;DC_PUNE;3688821.88;0.0;3359630.7;329191.17022800003
38;DC_PUNE;7381532.8;0.0;7381532.8;0.0
39;DC_PUNE;3692508.6;0.0;3692508.6;0.0
40;DC_PUNE;4618523.14583;0.0;4618523.100000001;0.0
41;DC_PUNE;3588358.7600000002;0.0;3588358.8;0.0
42;DC_PUNE;6640402.567362499;0.0;6640402.5;0.0
43;DC_PUNE;3372224.8000000003;0.0;3372224.8;0.0
44;DC_PUNE;3372224.8000000003;0.0;3372224.8;0.0
45;DC_PUNE;3372224.8000000003;0.0;3372224.8;0.0
46;DC_PUNE;3372224.8000000003;0.0;3372224.8;0.0
47;DC_PUNE;3975464.36;0.0;3975464.4;0.0
48;DC_PUNE;3372224.8000000003;0.0;3372224.8;0.0
49;DC_PUNE;3372224.8000000003;0.0;3372224.8;0.0
50;DC_PUNE;3372224.8000000003;0.0;3141770.5;230454.280836
51;DC_PUNE;3801402.7877999996;0.0;0.0;3801402.7942589996
52;DC_PUNE;7381532.8;0.0;0.0;9991599.349455
53;DC_PUNE;7381532.8;0.0;0.0;18587112.469281
54;DC_PUNE;7381532.8;0.0;0.0;25137904.217598
55;DC_PUNE;7381532.8;0.0;0.0;28950946.9155
56;DC_PUNE;7381532.8;0.0;0.0;29919942.154089
57;DC_PUNE;7381532.8;0.0;0.0;26487579.644847006
58;DC_PUNE;7381532.8;0.0;0.0;19598747.051259
59;DC_PUNE;7381532.8;0.0;0.0;11819622.267126001
60;DC_PUNE;7381532.8;0.0;2308129.9;5073402.907665
61;DC_PUNE;4280739.63809;0.0;3796639.6;484100.01171900006
62;DC_PUNE;6420398.127412501;0.0;6420398.100000001;0.0
63;DC_PUNE;3810022.8000000003;0.0;3810022.8000000003;0.0
64;DC_PUNE;3815092.04;0.0;3815092.0;0.0
65;DC_PUNE;4061180.6;0.0;4061180.6;0.0
66;DC_PUNE;4250340.14027375;0.0;4250340.100000001;0.0
67;DC_PUNE;7381532.8;0.0;7381532.8;0.0
68;DC_PUNE;7381532.8;0.0;7381532.8;0.0
69;DC_PUNE;7381532.8;0.0;7381532.8;0.0
70;DC_PUNE;7381532.8;0.0;7381532.8;0.0
71;DC_PUNE;7381532.8;0.0;7381532.8;0.0
72;DC_PUNE;7381532.8;0.0;7381532.8;0.0
73;DC_PUNE;4194847.6740375;0.0;4194847.7;0.0
74;DC_PUNE;3801727.68;0.0;3570413.1;231314.601321
75;DC_PUNE;4700433.034646249;0.0;0.0;4700433.050703
76;DC_PUNE;7381532.8;0.0;0.0;13565305.538811002
77;DC_PUNE;7381532.8;0.0;0.0;22770716.126787
78;DC_PUNE;7381532.8;0.0;0.0;29453388.029882997
79;DC_PUNE;7381532.8;0.0;0.0;28473957.33633
80;DC_PUNE;7381532.8;0.0;0.0;27023252.381856006
81;DC_PUNE;7381532.8;0.0;0.0;20589436.317213
82;DC_PUNE;7381532.8;0.0;0.0;11957329.349298002
83;DC_PUNE;7381532.8;0.0;7349.257500000001;7374183.557796
84;DC_PUNE;7381532.8;0.0;3985857.1999999997;3395675.653533
85;DC_PUNE;7381532.8;0.0;7013324.899999999;368207.86681800004
86;DC_PUNE;3733523.36;0.0;3733523.4;0.0
87;DC_PUNE;3845046.64;0.0;3845046.6;0.0
88;DC_PUNE;3743661.84;0.0;3743661.8;0.0
89;DC_PUNE;7381532.8;0.0;7381532.8;0.0
90;DC_PUNE;6760085.739625001;0.0;6760085.699999999;0.0
91;DC_PUNE;7381532.8;0.0;7381532.8;0.0
92;DC_PUNE;5545523.0539875;0.0;5545523.100000001;0.0
93;DC_PUNE;7381532.8;0.0;7381532.8;0.0
94;DC_PUNE;3523372.94656;0.0;3523372.9;0.0
95;DC_PUNE;3372224.8000000003;0.0;3372224.8;0.0
96;DC_PUNE;3372224.8000000003;0.0;3372224.8;0.0
97;DC_PUNE;3598497.24;0.0;3598497.1999999997;0.0
98;DC_PUNE;3402179.4;0.0;3167228.2;234951.19926300002
99;DC_PUNE;4593209.2046300005;0.0;2.8678833e-09;4593209.215986
100;DC_PUNE;7381532.8;0.0;0.0;12218522.648543999
101;DC_PUNE;7381532.8;0.0;0.0;19258139.195676
102;DC_PUNE;7381532.8;0.0;0.0;24149256.468902998
103;DC_PUNE;7381532.8;0.0;0.0;24525988.484093998
104;DC_PUNE;7381532.8;0.0;0.0;23815070.789481
105;DC_PUNE;7381532.8;0.0;0.0;21253454.919441
106;DC_PUNE;7381532.8;0.0;0.0;15991451.15994
107;DC_PUNE;7381532.8;0.0;0.0;10476875.907567
108;DC_PUNE;7381532.8;0.0;2686917.4;4694615.424072
109;DC_PUNE;3372224.8000000003;0.0;2915408.6;456816.226392
110;DC_PUNE;4172606.8443775005;0.0;4172606.7999999993;0.0
111;DC_PUNE;3372224.8000000003;0.0;3372224.8;0.0
112;DC_PUNE;3372224.8000000003;0.0;3372224.8;0.0
113;DC_PUNE;3372224.8000000003;0.0;3372224.8;0.0
114;DC_PUNE;3372224.8000000003;0.0;3372224.8;0.0
115;DC_PUNE;3994358.8000000003;0.0;3994358.8;0.0
116;DC_PUNE;3710742.49786625;0.0;3710742.5;0.0
117;DC_PUNE;3372224.8000000003;0.0;3372224.8;0.0
118;DC_PUNE;3703107.92;0.0;3703107.9;0.0
119;DC_PUNE;3372224.8000000003;0.0;3372224.8;0.0
120;DC_PUNE;3372224.8000000003;0.0;3372224.8;0.0
121;DC_PUNE;3372224.8000000003;0.0;3372224.8;0.0
122;DC_PUNE;3863941.08;0.0;3638225.5;225715.54259700002
123;DC_PUNE;4608653.11953125;0.0;0.0;4608653.131287
124;DC_PUNE;7381532.8;0.0;0.0;12856401.459170999
125;DC_PUNE;7381532.8;0.0;0.0;20787863.424102005
126;DC_PUNE;7381532.8;0.0;0.0;29078041.828230005
127;DC_PUNE;7381532.8;0.0;0.0;31921721.907444004
128;DC_PUNE;7381532.8;0.0;0.0;30114239.722650006
129;DC_PUNE;7381532.8;0.0;0.0;25097673.771567002
130;DC_PUNE;7381532.8;0.0;0.0;21227115.161457
131;DC_PUNE;7381532.8;0.0;0.0;12346831.310715001
132;DC_PUNE;4267587.7541325;0.0;0.0;5023132.289055
133;DC_PUNE;3372224.8000000003;0.0;2902015.5;470209.323672
134;DC_PUNE;3372224.8000000003;0.0;3372224.8;0.0
135;DC_PUNE;3372224.8000000003;0.0;3372224.8;0.0
136;DC_PUNE;3372224.8000000003;0.0;3372224.8;0.0
137;DC_PUNE;3757026.2;0.0;3757026.1999999997;0.0
138;DC_PUNE;3372224.8000000003;0.0;3372224.8;0.0
139;DC_PUNE;3804492.72;0.0;3804492.6999999997;0.0
140;DC_PUNE;3372224.8000000003;0.0;3372224.8;0.0
141;DC_PUNE;3372224.8000000003;0.0;3372224.8;0.0
142;DC_PUNE;3372224.8000000003;0.0;3372224.8;0.0
143;DC_PUNE;3372224.8000000003;0.0;3372224.8;0.0
144;DC_PUNE;3372224.8000000003;0.0;3372224.8;0.0
145;DC_PUNE;3372224.8000000003;0.0;3372224.8;0.0
146;DC_PUNE;3372224.8000000003;0.0;3276826.9;95397.915834
147;DC_PUNE;3372224.8000000003;0.0;1501609.0;1870615.7572500003
148;DC_PUNE;3874079.56;0.0;0.0;5245118.22609
149;DC_PUNE;3711863.88;0.0;0.0;9463520.684619
150;DC_PUNE;3826152.2;0.0;0.0;12912508.305936
151;DC_PUNE;4080535.88;0.0;0.0;13939712.363502001
152;DC_PUNE;7381532.8;0.0;0.0;14135177.177694
153;DC_PUNE;7381532.8;0.0;0.0;13102834.449123
154;DC_PUNE;4995450.8928125;0.0;0.0;10619842.570650002
155;DC_PUNE;7348387.8910875;0.0;0.0;7348387.894389
156;DC_PUNE;4128463.24;0.0;721687.13;3406776.11298
157;DC_PUNE;4218787.88;0.0;3841823.3;376964.53424099996
158;DC_PUNE;7381532.8;0.0;7381532.8;0.0
159;DC_PUNE;7381532.8;0.0;7381532.8;0.0
160;DC_PUNE;7381532.8;0.0;7381532.8;0.0
161;DC_PUNE;7381532.8;0.0;7381532.8;0.0
162;DC_PUNE;7381532.8;0.0;7381532.8;0.0
163;DC_PUNE;7381532.8;0.0;7381532.8;0.0
164;DC_PUNE;7381532.8;0.0;7381532.8;0.0
165;DC_PUNE;5587377.1188375;0.0;5587377.1;0.0
166;DC_PUNE;7381532.8;0.0;7381532.8;0.0
167;DC_PUNE;7381532.8;0.0;7381532.8;0.0
1;DC_JOHANNESBURG;2844189.6;0.0;2844189.6;0.0
2;DC_JOHANNESBURG;2844189.6;0.0;2844189.6;0.0
3;DC_JOHANNESBURG;2844189.6;0.0;2844189.6;0.0
4;DC_JOHANNESBURG;2844189.6;0.0;1722497.7;1121691.9252294
5;DC_JOHANNESBURG;6225705.600000001;0.0;-2.6049291999999998e-09;7963033.142918999
6;DC_JOHANNESBURG;4184815.9107;0.0;0.0;16023530.4689262
7;DC_JOHANNESBURG;5306936.771175001;0.0;0.0;22395861.512381997
8;DC_JOHANNESBURG;6225705.600000001;0.0;0.0;25707652.1224356
9;DC_JOHANNESBURG;6225705.600000001;0.0;0.0;26456325.170181602
10;DC_JOHANNESBURG;6225705.600000001;0.0;0.0;20702170.9594788
11;DC_JOHANNESBURG;6225705.600000001;0.0;0.0;16071166.414982397
12;DC_JOHANNESBURG;6225705.600000001;0.0;0.0;16233933.6075
13;DC_JOHANNESBURG;6225705.600000001;0.0;0.0;12586044.7232532
14;DC_JOHANNESBURG;6225705.600000001;0.0;0.0;9995620.0754232
15;DC_JOHANNESBURG;6225705.600000001;0.0;0.0;6768355.7239944
16;DC_JOHANNESBURG;3566978.57575875;0.0;9.2450604e-09;3566978.580513
17;DC_JOHANNESBURG;6225705.600000001;0.0;5491189.7;734515.9217382
18;DC_JOHANNESBURG;6225705.600000001;0.0;6225705.600000001;0.0
19;DC_JOHANNESBURG;6225705.600000001;0.0;6225705.600000001;0.0
20;DC_JOHANNESBURG;6225705.600000001;0.0;6225705.600000001;0.0
21;DC_JOHANNESBURG;6225705.600000001;0.0;6225705.600000001;0.0
22;DC_JOHANNESBURG;6225705.600000001;0.0;6225705.600000001;0.0
23;DC_JOHANNESBURG;6225705.600000001;0.0;6225705.600000001;0.0
24;DC_JOHANNESBURG;3607868.22190125;0.0;3607868.1999999997;0.0
25;DC_JOHANNESBURG;4094342.7456375;0.0;4094342.7;0.0
26;DC_JOHANNESBURG;2844189.6;0.0;2844189.6;0.0
27;DC_JOHANNESBURG;6077807.758575001;0.0;6077807.8;0.0
28;DC_JOHANNESBURG;2844189.6;0.0;2493214.8000000003;350974.804839
29;DC_JOHANNESBURG;3217275.9770325003;0.0;0.0;3217275.9859812
30;DC_JOHANNESBURG;6190624.557825;0.0;0.0;6190624.5772578
31;DC_JOHANNESBURG;6225705.600000001;0.0;0.0;8602235.5228026
32;DC_JOHANNESBURG;6225705.600000001;0.0;0.0;10703771.7103488
33;DC_JOHANNESBURG;6225705.600000001;0.0;0.0;9963966.2713512
34;DC_JOHANNESBURG;6225705.600000001;0.0;0.0;10379187.696703797
35;DC_JOHANNESBURG;6225705.600000001;0.0;0.0;12257598.6426042
36;DC_JOHANNESBURG;6225705.600000001;0.0;0.0;14111462.744988
37;DC_JOHANNESBURG;6225705.600000001;0.0;0.0;14371012.579357801
38;DC_JOHANNESBURG;6225705.600000001;0.0;0.0;12888838.349047199
39;DC_JOHANNESBURG;6225705.600000001;0.0;0.0;9674708.8117722
40;DC_JOHANNESBURG;5373172.701675001;0.0;0.0;5373172.6597788
41;DC_JOHANNESBURG;2844189.6;0.0;1409817.9;1434371.6852856001
42;DC_JOHANNESBURG;3926863.4608837506;0.0;3926863.5;0.0
43;DC_JOHANNESBURG;3397669.92;0.0;3397669.9;0.0
44;DC_JOHANNESBURG;3391839.72;0.0;3391839.7;0.0
45;DC_JOHANNESBURG;3476571.96;0.0;3476572.0;0.0
46;DC_JOHANNESBURG;6225705.600000001;0.0;6225705.600000001;0.0
47;DC_JOHANNESBURG;6225705.600000001;0.0;6225705.600000001;0.0
48;DC_JOHANNESBURG;6225705.600000001;0.0;6225705.600000001;0.0
49;DC_JOHANNESBURG;6225705.600000001;0.0;6225705.600000001;0.0
50;DC_JOHANNESBURG;6225705.600000001;0.0;6225705.600000001;0.0
51;DC_JOHANNESBURG;6225705.600000001;0.0;6225705.600000001;0.0
52;DC_JOHANNESBURG;3526323.0;0.0;2343368.1;1182954.9096654
53;DC_JOHANNESBURG;6225705.600000001;0.0;0.0;8359235.781447
54;DC_JOHANNESBURG;6225705.600000001;0.0;1541475.5;16790306.0091684
55;DC_JOHANNESBURG;6225705.600000001;0.0;8746639.9;23056888.3571784
56;DC_JOHANNESBURG;6225705.600000001;0.0;16658601.999999998;29018250.035326198
57;DC_JOHANNESBURG;6225705.600000001;0.0;0.0;34368689.5085442
58;DC_JOHANNESBURG;6225705.600000001;0.0;20333306.0;37114539.635244
59;DC_JOHANNESBURG;6225705.600000001;0.0;6225705.600000001;37831475.5794336
60;DC_JOHANNESBURG;6225705.600000001;0.0;6225705.600000001;36825675.9550458
61;DC_JOHANNESBURG;6225705.600000001;0.0;29155305.0;31941690.876426596
62;DC_JOHANNESBURG;6225705.600000001;0.0;6225705.600000001;25558356.7283496
63;DC_JOHANNESBURG;6225705.600000001;0.0;6225705.600000001;17316754.9642362
64;DC_JOHANNESBURG;6225705.600000001;0.0;6225705.600000001;7806358.1717832
65;DC_JOHANNESBURG;6225705.600000001;0.0;4566951.600000001;1658753.9918778
66;DC_JOHANNESBURG;6225705.600000001;0.0;6225705.600000001;0.0
67;DC_JOHANNESBURG;6225705.600000001;0.0;6225705.600000001;0.0
68;DC_JOHANNESBURG;6225705.600000001;0.0;6225705.600000001;0.0
69;DC_JOHANNESBURG;6225705.600000001;0.0;6225705.600000001;0.0
70;DC_JOHANNESBURG;6225705.600000001;0.0;6225705.600000001;0.0
71;DC_JOHANNESBURG;6225705.600000001;0.0;6225705.600000001;0.0
72;DC_JOHANNESBURG;6225705.600000001;0.0;6225705.600000001;0.0
73;DC_JOHANNESBURG;6225705.600000001;0.0;6225705.600000001;0.0
74;DC_JOHANNESBURG;6225705.600000001;0.0;6225705.600000001;0.0
75;DC_JOHANNESBURG;6225705.600000001;0.0;6225705.600000001;0.0
76;DC_JOHANNESBURG;6225705.600000001;0.0;5323409.399999999;902296.2286806
77;DC_JOHANNESBURG;6225705.600000001;0.0;0.0;6756648.360095999
78;DC_JOHANNESBURG;6225705.600000001;0.0;383606.13999999996;15938833.8249924
79;DC_JOHANNESBURG;6225705.600000001;0.0;7294890.6;24554791.0446798
80;DC_JOHANNESBURG;6225705.600000001;0.0;17740836.0;31158247.866624
81;DC_JOHANNESBURG;6225705.600000001;0.0;0.0;36211951.858367994
82;DC_JOHANNESBURG;6225705.600000001;0.0;6225705.600000001;39303574.358472
83;DC_JOHANNESBURG;6225705.600000001;0.0;43836190.0;39842446.295736
84;DC_JOHANNESBURG;6225705.600000001;0.0;6225705.600000001;37160115.8122314
85;DC_JOHANNESBURG;6225705.600000001;0.0;0.0;32421980.558116194
86;DC_JOHANNESBURG;6225705.600000001;0.0;0.0;25560143.880923998
87;DC_JOHANNESBURG;6225705.600000001;0.0;0.0;16961463.731569197
88;DC_JOHANNESBURG;6225705.600000001;0.0;0.0;8296632.4325802
89;DC_JOHANNESBURG;6225705.600000001;0.0;4449397.100000001;1776308.4960672
90;DC_JOHANNESBURG;6225705.600000001;0.0;6225705.600000001;0.0
91;DC_JOHANNESBURG;6225705.600000001;0.0;6225705.600000001;0.0
92;DC_JOHANNESBURG;6225705.600000001;0.0;6225705.600000001;0.0
93;DC_JOHANNESBURG;6225705.600000001;0.0;6225705.600000001;0.0
94;DC_JOHANNESBURG;6225705.600000001;0.0;6225705.600000001;0.0
95;DC_JOHANNESBURG;6225705.600000001;0.0;6225705.600000001;0.0
96;DC_JOHANNESBURG;6225705.600000001;0.0;6225705.600000001;0.0
97;DC_JOHANNESBURG;6225705.600000001;0.0;6225705.600000001;0.0
98;DC_JOHANNESBURG;6225705.600000001;0.0;6225705.600000001;0.0
99;DC_JOHANNESBURG;6225705.600000001;0.0;6225705.600000001;0.0
100;DC_JOHANNESBURG;6225705.600000001;0.0;5270627.8;955077.8110685999
101;DC_JOHANNESBURG;6225705.600000001;0.0;0.0;7677478.7240555985
102;DC_JOHANNESBURG;6225705.600000001;0.0;0.0;16744419.3522846
103;DC_JOHANNESBURG;6225705.600000001;0.0;0.0;25255824.360029403
104;DC_JOHANNESBURG;6225705.600000001;0.0;0.0;31761362.638061397
105;DC_JOHANNESBURG;6225705.600000001;0.0;0.0;36409772.988457195
106;DC_JOHANNESBURG;6225705.600000001;0.0;0.0;39437194.304129995
107;DC_JOHANNESBURG;6225705.600000001;0.0;45803289.0;39172036.899923995
108;DC_JOHANNESBURG;6225705.600000001;0.0;6225705.600000001;35475114.9100872
109;DC_JOHANNESBURG;6225705.600000001;0.0;0.0;29974596.270361796
110;DC_JOHANNESBURG;6225705.600000001;0.0;6225705.600000001;21540671.142129596
111;DC_JOHANNESBURG;6225705.600000001;0.0;0.0;12132944.7505398
112;DC_JOHANNESBURG;6225705.600000001;0.0;1722736.2;4502969.4506334
113;DC_JOHANNESBURG;6225705.600000001;0.0;5381571.3;844134.2568683999
114;DC_JOHANNESBURG;6225705.600000001;0.0;6225705.600000001;0.0
115;DC_JOHANNESBURG;6225705.600000001;0.0;6225705.600000001;0.0
116;DC_JOHANNESBURG;6225705.600000001;0.0;6225705.600000001;0.0
117;DC_JOHANNESBURG;6225705.600000001;0.0;6225705.600000001;0.0
118;DC_JOHANNESBURG;6225705.600000001;0.0;6225705.600000001;0.0
119;DC_JOHANNESBURG;6225705.600000001;0.0;6225705.600000001;0.0
120;DC_JOHANNESBURG;6225705.600000001;0.0;6225705.600000001;0.0
121;DC_JOHANNESBURG;6225705.600000001;0.0;6225705.600000001;0.0
122;DC_JOHANNESBURG;6225705.600000001;0.0;6225705.600000001;0.0
123;DC_JOHANNESBURG;6225705.600000001;0.0;6225705.600000001;0.0
124;DC_JOHANNESBURG;6225705.600000001;0.0;5758600.0;467105.6451132
125;DC_JOHANNESBURG;6225705.600000001;0.0;1643132.1;4582573.4669982
126;DC_JOHANNESBURG;6225705.600000001;0.0;3.9157708000000005e-11;12170944.460786998
127;DC_JOHANNESBURG;6225705.600000001;0.0;4295435.1;20201525.912874002
128;DC_JOHANNESBURG;6225705.600000001;0.0;13200982.0;25580703.70821
129;DC_JOHANNESBURG;6225705.600000001;0.0;18482058.0;28670717.013729002
130;DC_JOHANNESBURG;6225705.600000001;0.0;20714593.0;30791692.271861997
131;DC_JOHANNESBURG;6225705.600000001;0.0;0.0;30781575.1708476
132;DC_JOHANNESBURG;6225705.600000001;0.0;6225705.600000001;28435483.056123596
133;DC_JOHANNESBURG;6225705.600000001;0.0;0.0;24879253.8954384
134;DC_JOHANNESBURG;6225705.600000001;0.0;6225705.600000001;19526497.182017997
135;DC_JOHANNESBURG;6225705.600000001;0.0;0.0;11685327.398435999
136;DC_JOHANNESBURG;6225705.600000001;0.0;6225705.600000001;6531046.8519594
137;DC_JOHANNESBURG;6225705.600000001;0.0;4747033.7;1478671.8656255996
138;DC_JOHANNESBURG;6225705.600000001;0.0;6225705.600000001;0.0
139;DC_JOHANNESBURG;6225705.600000001;0.0;6225705.600000001;0.0
140;DC_JOHANNESBURG;6225705.600000001;0.0;6225705.600000001;0.0
141;DC_JOHANNESBURG;6225705.600000001;0.0;6225705.600000001;0.0
142;DC_JOHANNESBURG;6225705.600000001;0.0;6225705.600000001;0.0
143;DC_JOHANNESBURG;6225705.600000001;0.0;6225705.600000001;0.0
144;DC_JOHANNESBURG;6225705.600000001;0.0;6225705.600000001;0.0
145;DC_JOHANNESBURG;6225705.600000001;0.0;6225705.600000001;0.0
146;DC_JOHANNESBURG;6225705.600000001;0.0;6225705.600000001;0.0
147;DC_JOHANNESBURG;6225705.600000001;0.0;6225705.600000001;0.0
148;DC_JOHANNESBURG;6225705.600000001;0.0;5475654.3;750051.2755788
149;DC_JOHANNESBURG;6225705.600000001;0.0;115162.13;6110543.4820278
150;DC_JOHANNESBURG;6225705.600000001;0.0;7.9741284e-10;13563355.9239762
151;DC_JOHANNESBURG;6225705.600000001;0.0;5301452.3;20092873.0944948
152;DC_JOHANNESBURG;6225705.600000001;0.0;13849328.0;26099254.357620597
153;DC_JOHANNESBURG;6225705.600000001;0.0;0.0;31263667.1504724
154;DC_JOHANNESBURG;6225705.600000001;0.0;6225705.600000001;34389378.071397
155;DC_JOHANNESBURG;6225705.600000001;0.0;2294378.5;36894844.8178194
156;DC_JOHANNESBURG;6225705.600000001;0.0;49467082.0;34782237.371528395
157;DC_JOHANNESBURG;6225705.600000001;0.0;0.0;30249465.637180798
158;DC_JOHANNESBURG;6225705.600000001;0.0;0.0;23700244.352261398
159;DC_JOHANNESBURG;6225705.600000001;0.0;0.0;16410180.171129601
160;DC_JOHANNESBURG;6225705.600000001;0.0;0.0;8724583.5336852
161;DC_JOHANNESBURG;6225705.600000001;0.0;6225705.600000001;1828522.1274251998
162;DC_JOHANNESBURG;6225705.600000001;0.0;6225705.600000001;0.0
163;DC_JOHANNESBURG;6225705.600000001;0.0;6225705.600000001;0.0
164;DC_JOHANNESBURG;6225705.600000001;0.0;6225705.600000001;0.0
165;DC_JOHANNESBURG;6225705.600000001;0.0;6225705.600000001;0.0
166;DC_JOHANNESBURG;6225705.600000001;0.0;6225705.600000001;0.0
167;DC_JOHANNESBURG;6225705.600000001;0.0;6225705.600000001;0.0
1;DC_SP;6146899.199999999;0.0;6146899.2;0.0
2;DC_SP;6146899.199999999;0.0;6146899.2;0.0
3;DC_SP;6146899.199999999;0.0;6146899.2;0.0
4;DC_SP;6146899.199999999;0.0;6146899.2;0.0
5;DC_SP;3308994.0;0.0;3308994.0;0.0
6;DC_SP;6146899.199999999;0.0;6146899.2;0.0
7;DC_SP;6146899.199999999;0.0;6146899.2;0.0
8;DC_SP;6146899.199999999;0.0;6146899.2;0.0
9;DC_SP;6146899.199999999;0.0;5686379.2;460520.0010744
10;DC_SP;6146899.199999999;0.0;1962260.6;4184638.7189388005
11;DC_SP;6146899.199999999;0.0;0.0;9752683.2548424
12;DC_SP;6146899.199999999;0.0;0.0;14032167.323226
13;DC_SP;6146899.199999999;0.0;0.0;15412372.7939316
14;DC_SP;6146899.199999999;0.0;0.0;16433865.769782
15;DC_SP;6146899.199999999;0.0;0.0;17944481.8413984
16;DC_SP;6146899.199999999;0.0;0.0;17938618.0490748
17;DC_SP;6146899.199999999;0.0;0.0;20146502.5436112
18;DC_SP;6146899.199999999;0.0;0.0;17970530.2737252
19;DC_SP;6146899.199999999;0.0;0.0;14823175.7128368
20;DC_SP;6146899.199999999;0.0;0.0;8789470.2687648
21;DC_SP;6146899.199999999;0.0;1711858.0;4435041.24966
22;DC_SP;6146899.199999999;0.0;5338225.8;808673.4587652
23;DC_SP;6146899.199999999;0.0;6146899.2;0.0
24;DC_SP;6146899.199999999;0.0;6146899.2;0.0
25;DC_SP;6146899.199999999;0.0;6146899.2;0.0
26;DC_SP;6146899.199999999;0.0;6146899.2;0.0
27;DC_SP;6146899.199999999;0.0;6146899.2;0.0
28;DC_SP;6146899.199999999;0.0;6146899.2;0.0
29;DC_SP;6146899.199999999;0.0;6146899.2;0.0
30;DC_SP;3252189.2931449995;0.0;3252189.3;0.0
31;DC_SP;2841190.56;0.0;2841190.6;0.0
32;DC_SP;3059933.76;0.0;3059933.8;0.0
33;DC_SP;3099461.04;0.0;2671477.9;427983.14743919997
34;DC_SP;4354799.24295;0.0;2128056.6;2226742.6752348
35;DC_SP;6146899.199999999;0.0;2351393.9;3795505.3888632
36;DC_SP;6146899.199999999;0.0;0.0;6755078.2293324
37;DC_SP;6146899.199999999;0.0;0.0;10824055.3115352
38;DC_SP;6146899.199999999;0.0;0.0;14588378.379280798
39;DC_SP;6146899.199999999;0.0;0.0;18600693.190598402
40;DC_SP;6146899.199999999;0.0;0.0;21174743.617988396
41;DC_SP;6146899.199999999;0.0;0.0;20257784.7591504
42;DC_SP;6146899.199999999;0.0;0.0;16160790.610573199
43;DC_SP;6146899.199999999;0.0;0.0;9152586.748877998
44;DC_SP;6146899.199999999;0.0;2251446.1999999997;3895453.0447343993
45;DC_SP;6146899.199999999;0.0;4355979.2;1790920.0831211999
46;DC_SP;6146899.199999999;0.0;5823674.8;323224.4447244
47;DC_SP;6146899.199999999;0.0;6146899.2;0.0
48;DC_SP;6146899.199999999;0.0;6146899.2;0.0
49;DC_SP;6146899.199999999;0.0;6146899.2;0.0
50;DC_SP;6146899.199999999;0.0;6146899.2;0.0
51;DC_SP;6146899.199999999;0.0;6146899.2;0.0
52;DC_SP;6146899.199999999;0.0;6146899.2;0.0
53;DC_SP;3495885.1199999996;0.0;3495885.1;0.0
54;DC_SP;3223799.28;0.0;3223799.3000000003;0.0
55;DC_SP;3417214.32;0.0;3417214.3000000003;0.0
56;DC_SP;3497803.92;0.0;3497803.9;0.0
57;DC_SP;3226101.84;0.0;2618432.6;607669.2551172
58;DC_SP;5468847.207525;0.0;105109.12000000001;5363738.2206
59;DC_SP;6146899.199999999;0.0;0.0;12933111.5695608
60;DC_SP;6146899.199999999;0.0;0.0;20746883.2908552
61;DC_SP;6146899.199999999;0.0;10548488.0;27596491.0459884
62;DC_SP;6146899.199999999;0.0;-1.3967745000000001e-09;31072067.0834796
63;DC_SP;6146899.199999999;0.0;7357972.7;32875437.636477597
64;DC_SP;6146899.199999999;0.0;6146899.2;30646259.6100324
65;DC_SP;6146899.199999999;0.0;6146899.2;24051493.4623944
66;DC_SP;6146899.199999999;0.0;0.0;17807151.1935324
67;DC_SP;6146899.199999999;0.0;0.0;13392578.825155199
68;DC_SP;6146899.199999999;0.0;0.0;9359879.352193201
69;DC_SP;6146899.199999999;0.0;1792129.9;4354769.406810001
70;DC_SP;6146899.199999999;0.0;6146899.2;762278.9654616
71;DC_SP;6146899.199999999;0.0;6146899.2;0.0
72;DC_SP;6146899.199999999;0.0;6146899.2;0.0
73;DC_SP;6146899.199999999;0.0;6146899.2;0.0
74;DC_SP;6146899.199999999;0.0;6146899.2;0.0
75;DC_SP;6146899.199999999;0.0;6146899.2;0.0
76;DC_SP;6146899.199999999;0.0;6146899.2;0.0
77;DC_SP;6146899.199999999;0.0;6146899.2;0.0
78;DC_SP;6146899.199999999;0.0;6146899.2;0.0
79;DC_SP;6146899.199999999;0.0;6146899.2;0.0
80;DC_SP;6146899.199999999;0.0;6146899.2;0.0
81;DC_SP;6146899.199999999;0.0;6146899.2;383536.2332736
82;DC_SP;6146899.199999999;0.0;2882135.5;3264763.7551212003
83;DC_SP;6146899.199999999;0.0;0.0;9116502.1429752
84;DC_SP;6146899.199999999;0.0;2145538.0;15036118.050227998
85;DC_SP;6146899.199999999;0.0;7972611.600000001;17272742.496368397
86;DC_SP;6146899.199999999;0.0;6146899.2;20200673.316860396
87;DC_SP;6146899.199999999;0.0;3868689.3;23127165.3851964
88;DC_SP;6146899.199999999;0.0;0.0;24438159.858895198
89;DC_SP;6146899.199999999;0.0;6146899.2;27487591.544385597
90;DC_SP;6146899.199999999;0.0;6146899.2;22182319.2985932
91;DC_SP;6146899.199999999;0.0;11604792.0;19028406.133364398
92;DC_SP;6146899.199999999;0.0;6146899.2;14157405.4346784
93;DC_SP;6146899.199999999;0.0;6146899.2;7266228.2696915995
94;DC_SP;6146899.199999999;0.0;6146899.2;1241404.4883192
95;DC_SP;6146899.199999999;0.0;6146899.2;0.0
96;DC_SP;6146899.199999999;0.0;6146899.2;0.0
97;DC_SP;6146899.199999999;0.0;6146899.2;0.0
98;DC_SP;6146899.199999999;0.0;6146899.2;0.0
99;DC_SP;6146899.199999999;0.0;6146899.2;0.0
100;DC_SP;6146899.199999999;0.0;6146899.2;0.0
101;DC_SP;6146899.199999999;0.0;6146899.2;0.0
102;DC_SP;6146899.199999999;0.0;6146899.2;0.0
103;DC_SP;6146899.199999999;0.0;6146899.2;0.0
104;DC_SP;6146899.199999999;0.0;6146899.2;0.0
105;DC_SP;6146899.199999999;0.0;5626639.4;520259.7979127999
106;DC_SP;6146899.199999999;0.0;1912862.2;4234037.046012
107;DC_SP;6146899.199999999;0.0;0.0;11416112.351184
108;DC_SP;6146899.199999999;0.0;3807006.3;21930288.5215296
109;DC_SP;6146899.199999999;0.0;0.0;30421916.039092798
110;DC_SP;6146899.199999999;0.0;0.0;35589745.344168
111;DC_SP;6146899.199999999;0.0;21272456.0;38285475.603288
112;DC_SP;6146899.199999999;0.0;6146899.2;38480619.52376399
113;DC_SP;6146899.199999999;0.0;0.0;36002000.474135995
114;DC_SP;6146899.199999999;0.0;21406299.0;31100785.980174
115;DC_SP;6146899.199999999;0.0;6146899.2;23285382.5033856
116;DC_SP;6146899.199999999;0.0;6146899.2;14102676.706324799
117;DC_SP;6146899.199999999;0.0;6146899.2;5521709.6981772
118;DC_SP;6146899.199999999;0.0;6146899.2;997030.6800467998
119;DC_SP;6146899.199999999;0.0;6146899.2;0.0
120;DC_SP;6146899.199999999;0.0;6146899.2;0.0
121;DC_SP;6146899.199999999;0.0;6146899.2;0.0
122;DC_SP;6146899.199999999;0.0;6146899.2;0.0
123;DC_SP;6146899.199999999;0.0;6146899.2;0.0
124;DC_SP;6146899.199999999;0.0;6146899.2;0.0
125;DC_SP;6146899.199999999;0.0;6146899.2;0.0
126;DC_SP;6146899.199999999;0.0;6146899.2;0.0
127;DC_SP;6146899.199999999;0.0;6146899.2;0.0
128;DC_SP;6146899.199999999;0.0;6146899.2;0.0
129;DC_SP;6146899.199999999;0.0;5641942.8;504956.38778520003
130;DC_SP;6146899.199999999;0.0;1296325.4;4850573.9272224
131;DC_SP;6146899.199999999;0.0;0.0;11908376.137631997
132;DC_SP;6146899.199999999;0.0;0.0;19031795.97381
133;DC_SP;6146899.199999999;0.0;9309337.600000001;23130418.3687296
134;DC_SP;6146899.199999999;0.0;6146899.2;24870192.5672808
135;DC_SP;6146899.199999999;0.0;1729835.2;25235025.022526402
136;DC_SP;6146899.199999999;0.0;6146899.2;24002768.8924284
137;DC_SP;6146899.199999999;0.0;0.0;21808173.5550012
138;DC_SP;6146899.199999999;0.0;0.0;18734444.5038324
139;DC_SP;6146899.199999999;0.0;4763581.7;14156935.208363999
140;DC_SP;6146899.199999999;0.0;3602142.0;9137950.0775544
141;DC_SP;6146899.199999999;0.0;6146899.2;4186249.4195231996
142;DC_SP;6146899.199999999;0.0;6146899.2;735549.7577244
143;DC_SP;6146899.199999999;0.0;6146899.2;0.0
144;DC_SP;6146899.199999999;0.0;6146899.2;0.0
145;DC_SP;6146899.199999999;0.0;6146899.2;0.0
146;DC_SP;6146899.199999999;0.0;6146899.2;0.0
147;DC_SP;6146899.199999999;0.0;6146899.2;0.0
148;DC_SP;6146899.199999999;0.0;6146899.2;0.0
149;DC_SP;6146899.199999999;0.0;6146899.2;0.0
150;DC_SP;6146899.199999999;0.0;6146899.2;0.0
151;DC_SP;6146899.199999999;0.0;6146899.2;0.0
152;DC_SP;6146899.199999999;0.0;6146899.2;0.0
153;DC_SP;6146899.199999999;0.0;5743613.5;403285.7384784
154;DC_SP;6146899.199999999;0.0;3125947.9;3020951.4111047997
155;DC_SP;6146899.199999999;0.0;0.0;7209944.987179199
156;DC_SP;6146899.199999999;0.0;768050.47;13581925.627187999
157;DC_SP;6146899.199999999;0.0;5926722.899999999;21709394.446612798
158;DC_SP;6146899.199999999;0.0;5292806.2;24997585.297815602
159;DC_SP;6146899.199999999;0.0;0.0;26084074.7796012
160;DC_SP;6146899.199999999;0.0;0.0;26033869.347659998
161;DC_SP;6146899.199999999;0.0;0.0;20168743.546451997
162;DC_SP;6146899.199999999;0.0;0.0;15910405.62561
163;DC_SP;6146899.199999999;0.0;0.0;12276531.7594428
164;DC_SP;6146899.199999999;0.0;0.0;7747111.8775007995
165;DC_SP;6146899.199999999;0.0;6146899.2;3547173.2575859996
166;DC_SP;6146899.199999999;0.0;6146899.2;583638.5849604
167;DC_SP;6146899.199999999;0.0;6146899.2;0.0
