dc;type;value
DC_JOHANNESBURG;GEC;1.51
DC_JOHANNESBURG;CO2_savings;93.86
DC_JOHANNESBURG;DCU;88.91
DC_PUNE;GEC;1.43
DC_PUNE;CO2_savings;91.52
DC_PUNE;DCU;86.78
DC_CANBERRA;GEC;1.5
DC_CANBERRA;CO2_savings;89.59
DC_CANBERRA;DCU;64.6
DC_DUBAI;GEC;1.53
DC_DUBAI;CO2_savings;89.47
DC_DUBAI;DCU;90.34
DC_SINGAPORE;GEC;1.44
DC_SINGAPORE;CO2_savings;85.48
DC_SINGAPORE;DCU;83.68
DC_SEOUL;GEC;1.48
DC_SEOUL;CO2_savings;82.72
DC_SEOUL;DCU;67.93
DC_VIRGINIA;GEC;1.48
DC_VIRGINIA;CO2_savings;77.17
DC_VIRGINIA;DCU;70.94
DC_SP;GEC;0.51
DC_SP;CO2_savings;19.74
DC_SP;DCU;63.91
DC_PARIS;GEC;0.23
DC_PARIS;CO2_savings;4.94
DC_PARIS;DCU;92.77
