dc;type;value
DC_CANBERRA;GEC;1.53
DC_CANBERRA;CO2_savings;90.23
DC_CANBERRA;DCU;67.45
DC_SEOUL;GEC;1.51
DC_SEOUL;CO2_savings;82.59
DC_SEOUL;DCU;66.04
DC_PARIS;GEC;0.23
DC_PARIS;CO2_savings;4.98
DC_PARIS;DCU;91.66
DC_VIRGINIA;GEC;1.44
DC_VIRGINIA;CO2_savings;75.4
DC_VIRGINIA;DCU;73.94
DC_DUBAI;GEC;1.58
DC_DUBAI;CO2_savings;89.1
DC_DUBAI;DCU;91.99
DC_SINGAPORE;GEC;1.38
DC_SINGAPORE;CO2_savings;85.95
DC_SINGAPORE;DCU;83.53
DC_PUNE;GEC;1.49
DC_PUNE;CO2_savings;91.29
DC_PUNE;DCU;88.56
DC_JOHANNESBURG;GEC;1.52
DC_JOHANNESBURG;CO2_savings;93.82
DC_JOHANNESBURG;DCU;88.28
DC_SP;GEC;0.52
DC_SP;CO2_savings;20.22
DC_SP;DCU;58.42
