dc;type;value
DC_CANBERRA;battery;178475.85035841525
DC_CANBERRA;pv;300414.00243637327
DC_SEOUL;battery;164627.3780654211
DC_SEOUL;pv;327271.6483495405
DC_PARIS;battery;0.0
DC_PARIS;pv;57895.765118811665
DC_VIRGINIA;battery;139968.4534497418
DC_VIRGINIA;pv;260306.2583335731
DC_DUBAI;battery;163324.07760206322
DC_DUBAI;pv;252554.32692245237
DC_SINGAPORE;battery;191368.19262266898
DC_SINGAPORE;pv;368253.7246778151
DC_PUNE;battery;198826.74716602964
DC_PUNE;pv;296479.23048657627
DC_JOHANNESBURG;battery;155503.75411009273
DC_JOHANNESBURG;pv;221888.44535021574
DC_SP;battery;10297.098727713294
DC_SP;pv;71081.33517151039
