time;dc;power;grid;bat;pv
1;DC_CANBERRA;7381532.8;0.0;0.0;28126600.4459282
2;DC_CANBERRA;7381532.8;0.0;0.0;29899118.16380341
3;DC_CANBERRA;7381532.8;0.0;0.0;26594137.549119845
4;DC_CANBERRA;7381532.8;0.0;0.0;24228363.7613033
5;DC_CANBERRA;7381532.8;0.0;0.0;21751840.849418566
6;DC_CANBERRA;7381532.8;0.0;0.0;16979656.2716759
7;DC_CANBERRA;7381532.8;0.0;2144089.26651345;12767999.160379142
8;DC_CANBERRA;7381532.8;0.0;0.0;8856324.957425259
9;DC_CANBERRA;7381532.8;0.0;4088791.051775693;3292741.748224308
10;DC_CANBERRA;7381532.8;0.0;7316647.881683781;64884.91831622007
11;DC_CANBERRA;7381532.8;0.0;7381532.800000001;0.0
12;DC_CANBERRA;7381532.8;0.0;7381532.800000001;0.0
13;DC_CANBERRA;7381532.8;0.0;7381532.800000001;0.0
14;DC_CANBERRA;7381532.8;0.0;7381532.800000001;0.0
15;DC_CANBERRA;7381532.8;0.0;7381532.800000001;0.0
16;DC_CANBERRA;7381532.8;0.0;7381532.800000001;0.0
17;DC_CANBERRA;7381532.8;0.0;7381532.800000001;0.0
18;DC_CANBERRA;7381532.8;0.0;7381532.800000001;0.0
19;DC_CANBERRA;7381532.8;0.0;7372200.439014315;9332.360985685935
20;DC_CANBERRA;7381532.8;0.0;5415076.81457194;1966455.9854280609
21;DC_CANBERRA;7381532.8;0.0;727257.5011334802;6654275.298866521
22;DC_CANBERRA;7381532.8;0.0;0.0;10412540.087336244
23;DC_CANBERRA;7381532.8;0.0;0.0;14450645.025285486
24;DC_CANBERRA;7381532.8;0.0;0.0;18895250.664421473
25;DC_CANBERRA;7381532.8;0.0;0.0;23995766.717846923
26;DC_CANBERRA;7381532.8;0.0;0.0;29212128.418891884
27;DC_CANBERRA;7381532.8;0.0;0.0;28636771.015215714
28;DC_CANBERRA;7381532.8;0.0;0.0;23382525.6063935
29;DC_CANBERRA;7381532.8;0.0;0.0;17738758.895802263
30;DC_CANBERRA;7381532.8;0.0;0.0;14850985.737352269
31;DC_CANBERRA;7381532.8;0.0;0.0;11432101.65157494
32;DC_CANBERRA;7381532.8;0.0;2483579.9001373462;4897952.899862654
33;DC_CANBERRA;7381532.8;0.0;5974333.529787541;1407199.2702124596
34;DC_CANBERRA;7381532.8;0.0;7356559.383977465;24973.416022535708
35;DC_CANBERRA;7381532.8;0.0;7381532.800000001;0.0
36;DC_CANBERRA;7381532.8;0.0;7381532.800000001;0.0
37;DC_CANBERRA;7381532.8;0.0;7381532.800000001;0.0
38;DC_CANBERRA;7381532.8;0.0;7381532.800000001;0.0
39;DC_CANBERRA;7381532.8;0.0;7381532.800000001;0.0
40;DC_CANBERRA;7381532.8;0.0;7381532.800000001;0.0
41;DC_CANBERRA;7381532.8;0.0;7381532.800000001;0.0
42;DC_CANBERRA;7381532.8;0.0;7381532.800000001;0.0
43;DC_CANBERRA;7381532.8;0.0;7375007.807867083;6524.992132918027
44;DC_CANBERRA;7381532.8;0.0;5393410.956716228;1988121.843283772
45;DC_CANBERRA;7381532.8;0.0;0.0;7771729.769939134
46;DC_CANBERRA;7381532.8;0.0;0.0;14572429.857733168
47;DC_CANBERRA;7381532.8;0.0;0.0;20781536.667089347
48;DC_CANBERRA;7381532.8;0.0;0.0;31962651.43204877
49;DC_CANBERRA;7381532.8;0.0;0.0;40006745.549016796
50;DC_CANBERRA;7381532.8;0.0;0.0;40589218.25834068
51;DC_CANBERRA;7381532.8;0.0;0.0;40549315.76846707
52;DC_CANBERRA;7381532.8;0.0;0.0;33229027.132409148
53;DC_CANBERRA;7381532.8;0.0;0.0;19311367.617826197
54;DC_CANBERRA;7381532.8;0.0;0.0;21476416.785774864
55;DC_CANBERRA;7381532.8;0.0;0.0;19056311.62354768
56;DC_CANBERRA;7381532.8;0.0;0.0;8411706.225539377
57;DC_CANBERRA;3874079.56;0.0;1696264.2990178047;2177815.2609821954
58;DC_CANBERRA;7381532.8;0.0;7330815.40603868;50717.39396132071
59;DC_CANBERRA;7381532.8;0.0;7381532.800000001;0.0
60;DC_CANBERRA;7381532.8;0.0;7381532.800000001;0.0
61;DC_CANBERRA;7381532.8;0.0;7381532.800000001;0.0
62;DC_CANBERRA;7381532.8;0.0;7381532.800000001;0.0
63;DC_CANBERRA;7381532.8;0.0;7381532.800000001;0.0
64;DC_CANBERRA;7381532.8;0.0;7381532.800000001;0.0
65;DC_CANBERRA;7381532.8;0.0;7381532.800000001;0.0
66;DC_CANBERRA;7381532.8;0.0;7381532.800000001;0.0
67;DC_CANBERRA;7381532.8;0.0;7377414.124026598;4118.675973402677
68;DC_CANBERRA;7381532.8;0.0;6045545.166995071;1335987.6330049294
69;DC_CANBERRA;7381532.8;0.0;123574.06116757556;7257958.738832423
70;DC_CANBERRA;7381532.8;0.0;0.0;13094893.155060269
71;DC_CANBERRA;7381532.8;0.0;0.0;14679168.454868825
72;DC_CANBERRA;7381532.8;0.0;0.0;17812557.09757077
73;DC_CANBERRA;7381532.8;0.0;0.0;19605965.605175406
74;DC_CANBERRA;7381532.8;0.0;0.0;16777467.133546136
75;DC_CANBERRA;7381532.8;0.0;0.0;16056369.884868
76;DC_CANBERRA;7381532.8;0.0;0.0;14215132.463935466
77;DC_CANBERRA;7381532.8;0.0;0.0;18658845.873484213
78;DC_CANBERRA;7381532.8;0.0;0.0;20848404.317821648
79;DC_CANBERRA;7381532.8;0.0;0.0;16395408.115597617
80;DC_CANBERRA;7381532.8;0.0;0.0;7982989.908872466
81;DC_CANBERRA;3622236.557998568;0.0;465704.0205489239;3156532.537449644
82;DC_CANBERRA;5153298.20334925;0.0;5130821.227686961;22476.975662289446
83;DC_CANBERRA;7381532.8;0.0;7381532.800000001;0.0
84;DC_CANBERRA;7381532.8;0.0;7381532.800000001;0.0
85;DC_CANBERRA;7381532.8;0.0;7381532.800000001;0.0
86;DC_CANBERRA;7381532.8;0.0;7381532.800000001;0.0
87;DC_CANBERRA;7381532.8;0.0;7381532.800000001;0.0
88;DC_CANBERRA;7381532.8;0.0;7381532.800000001;0.0
89;DC_CANBERRA;7381532.8;0.0;7381532.800000001;0.0
90;DC_CANBERRA;7381532.8;0.0;7381532.800000001;0.0
91;DC_CANBERRA;7381532.8;0.0;7375787.382203406;5745.417796595639
92;DC_CANBERRA;7381532.8;0.0;5452379.221254465;1929153.5787455363
93;DC_CANBERRA;7381532.8;0.0;507025.4980173877;6874507.301982613
94;DC_CANBERRA;7381532.8;0.0;0.0;13561520.216764638
95;DC_CANBERRA;7381532.8;0.0;0.0;22994022.708092723
96;DC_CANBERRA;7381532.8;0.0;0.0;32741874.283988312
97;DC_CANBERRA;7381532.8;0.0;0.0;35246087.85654762
98;DC_CANBERRA;7381532.8;0.0;0.0;37212503.286085345
99;DC_CANBERRA;7381532.8;0.0;0.0;39607589.97018962
100;DC_CANBERRA;7381532.8;0.0;0.0;40344328.27390461
101;DC_CANBERRA;7381532.8;0.0;0.0;36798085.173864394
102;DC_CANBERRA;7381532.8;0.0;0.0;29313671.355855405
103;DC_CANBERRA;7381532.8;0.0;0.0;20902411.245109648
104;DC_CANBERRA;7381532.8;0.0;0.0;12011884.153507007
105;DC_CANBERRA;7381532.8;0.0;4090832.3649222483;3290700.435077752
106;DC_CANBERRA;7381532.8;0.0;7326593.0872344375;54939.71276556395
107;DC_CANBERRA;7381532.8;0.0;7381532.800000001;0.0
108;DC_CANBERRA;7381532.8;0.0;7381532.800000001;0.0
109;DC_CANBERRA;7381532.8;0.0;7381532.800000001;0.0
110;DC_CANBERRA;7381532.8;0.0;7381532.800000001;0.0
111;DC_CANBERRA;7381532.8;0.0;7381532.800000001;0.0
112;DC_CANBERRA;7381532.8;0.0;7381532.800000001;0.0
113;DC_CANBERRA;7381532.8;0.0;7381532.800000001;0.0
114;DC_CANBERRA;7381532.8;0.0;7381532.800000001;0.0
115;DC_CANBERRA;7381532.8;0.0;7375052.8699674485;6479.930032552572
116;DC_CANBERRA;7381532.8;0.0;4966636.816575068;2414895.9834249327
117;DC_CANBERRA;7381532.8;0.0;0.0;8471363.940213203
118;DC_CANBERRA;7381532.8;0.0;0.0;15885963.046125991
119;DC_CANBERRA;7381532.8;0.0;0.0;24902488.276560478
120;DC_CANBERRA;7381532.8;0.0;0.0;31138438.579104364
121;DC_CANBERRA;7381532.8;0.0;0.0;31880989.893766493
122;DC_CANBERRA;7381532.8;0.0;0.0;31867462.25123678
123;DC_CANBERRA;7381532.8;0.0;0.0;28988124.717975207
124;DC_CANBERRA;7381532.8;0.0;0.0;27978116.319013983
125;DC_CANBERRA;7381532.8;0.0;0.0;28271330.899881966
126;DC_CANBERRA;7381532.8;0.0;0.0;23598400.104404256
127;DC_CANBERRA;7381532.8;0.0;0.0;14293833.422223734
128;DC_CANBERRA;7381532.8;0.0;0.0;7589895.182544447
129;DC_CANBERRA;7381532.8;0.0;4863805.103541098;2517727.696458903
130;DC_CANBERRA;7381532.8;0.0;7346749.364727905;34783.43527209548
131;DC_CANBERRA;7381532.8;0.0;7381532.800000001;0.0
132;DC_CANBERRA;7381532.8;0.0;7381532.800000001;0.0
133;DC_CANBERRA;7381532.8;0.0;7381532.800000001;0.0
134;DC_CANBERRA;7381532.8;0.0;7381532.800000001;0.0
135;DC_CANBERRA;7381532.8;0.0;7381532.800000001;0.0
136;DC_CANBERRA;7381532.8;0.0;7381532.800000001;0.0
137;DC_CANBERRA;7381532.8;0.0;7381532.800000001;0.0
138;DC_CANBERRA;7381532.8;0.0;7381532.800000001;0.0
139;DC_CANBERRA;7381532.8;0.0;7381532.800000001;6169.001540030924
140;DC_CANBERRA;7381532.8;0.0;4566926.9739134;2814605.8260866003
141;DC_CANBERRA;7381532.8;0.0;0.0;11340972.566005878
142;DC_CANBERRA;7381532.8;0.0;0.0;20083047.07416456
143;DC_CANBERRA;7381532.8;0.0;0.0;31297962.920608114
144;DC_CANBERRA;7381532.8;0.0;0.0;39627286.61425936
145;DC_CANBERRA;7381532.8;0.0;0.0;45784986.57951863
146;DC_CANBERRA;7381532.8;0.0;0.0;48763771.662076734
147;DC_CANBERRA;7381532.8;0.0;0.0;48628765.60938183
148;DC_CANBERRA;7381532.8;0.0;0.0;41939030.94373774
149;DC_CANBERRA;7381532.8;0.0;0.0;33870652.86088277
150;DC_CANBERRA;7381532.8;0.0;0.0;27447419.96301001
151;DC_CANBERRA;7381532.8;0.0;0.0;19463974.926923852
152;DC_CANBERRA;7381532.8;0.0;0.0;11118550.544812026
153;DC_CANBERRA;7381532.8;0.0;3425810.393938885;3955722.406061115
154;DC_CANBERRA;7381532.8;0.0;7322330.212539865;59202.58746013608
155;DC_CANBERRA;7381532.8;0.0;7381532.800000001;0.0
156;DC_CANBERRA;7381532.8;0.0;7381532.800000001;0.0
157;DC_CANBERRA;7381532.8;0.0;7381532.800000001;0.0
158;DC_CANBERRA;7381532.8;0.0;7381532.800000001;0.0
159;DC_CANBERRA;7381532.8;0.0;7381532.800000001;0.0
160;DC_CANBERRA;7381532.8;0.0;7381532.800000001;0.0
161;DC_CANBERRA;7381532.8;0.0;7381532.800000001;0.0
162;DC_CANBERRA;7381532.8;0.0;7381532.800000001;0.0
163;DC_CANBERRA;7381532.8;0.0;7378153.142472592;3379.6575274091992
164;DC_CANBERRA;7381532.8;0.0;5195759.572093266;2185773.227906735
165;DC_CANBERRA;7381532.8;0.0;0.0;7534144.351972305
166;DC_CANBERRA;7381532.8;0.0;0.0;17505774.318282746
167;DC_CANBERRA;7381532.8;0.0;0.0;25484010.175566655
1;DC_SEOUL;7381532.8;0.0;0.0;10559027.008019906
2;DC_SEOUL;7381532.8;0.0;0.0;16981245.472123593
3;DC_SEOUL;7047805.157369586;0.0;0.0;22291710.692276202
4;DC_SEOUL;7381532.8;0.0;0.0;22563830.522445884
5;DC_SEOUL;7381532.8;0.0;0.0;18442377.56427023
6;DC_SEOUL;7381532.8;0.0;0.0;15005779.802863792
7;DC_SEOUL;7381532.8;0.0;0.0;9857937.501134308
8;DC_SEOUL;3372224.8000000003;0.0;14550.232951296039;3357674.5670487033
9;DC_SEOUL;3372224.8000000003;0.0;3301813.941215838;70410.85878416187
10;DC_SEOUL;3372224.8000000003;0.0;3372224.8;0.0
11;DC_SEOUL;3372224.8000000003;0.0;3372224.8;0.0
12;DC_SEOUL;3372224.8000000003;0.0;3372224.8;0.0
13;DC_SEOUL;3372224.8000000003;0.0;3372224.8;0.0
14;DC_SEOUL;3372224.8000000003;0.0;3372224.8;0.0
15;DC_SEOUL;3372224.8000000003;0.0;3372224.8;0.0
16;DC_SEOUL;3372224.8000000003;0.0;3372224.8;0.0
17;DC_SEOUL;5445083.12;0.0;5445083.12;0.0
18;DC_SEOUL;3372224.8000000003;0.0;3372224.8;0.0
19;DC_SEOUL;5753845.92;0.0;5753845.92;0.0
20;DC_SEOUL;7381532.8;0.0;7381532.800000001;0.0
21;DC_SEOUL;6253396.48;0.0;6253396.48;0.0
22;DC_SEOUL;3372224.8000000003;0.0;3372224.8;0.0
23;DC_SEOUL;7381532.8;0.0;7318809.55223557;62723.24776443118
24;DC_SEOUL;7381532.8;0.0;2942933.978274742;4438598.821725259
25;DC_SEOUL;7381532.8;0.0;0.0;13085398.861095939
26;DC_SEOUL;7381532.8;0.0;0.0;20282136.77182541
27;DC_SEOUL;7381532.8;0.0;0.0;24741928.069139544
28;DC_SEOUL;7381532.8;0.0;0.0;25484636.71154575
29;DC_SEOUL;7381532.8;0.0;0.0;23828496.53501356
30;DC_SEOUL;6150434.343754379;0.0;0.0;19412916.364674963
31;DC_SEOUL;7381532.8;0.0;0.0;12729014.763267463
32;DC_SEOUL;4893350.958898153;0.0;0.0;4893350.958898153
33;DC_SEOUL;3372224.8000000003;0.0;3236361.2479041717;135863.55209582823
34;DC_SEOUL;3372224.8000000003;0.0;3372224.8;0.0
35;DC_SEOUL;3727532.44;0.0;3727532.44;0.0
36;DC_SEOUL;3372224.8000000003;0.0;3372224.8;0.0
37;DC_SEOUL;3688821.88;0.0;3688821.88;0.0
38;DC_SEOUL;3602644.8000000003;0.0;3602644.8;0.0
39;DC_SEOUL;3692508.6;0.0;3692508.6;0.0
40;DC_SEOUL;3607714.04;0.0;3607714.04;0.0
41;DC_SEOUL;3588358.7600000002;0.0;3588358.7600000002;0.0
42;DC_SEOUL;3372224.8000000003;0.0;3372224.8;0.0
43;DC_SEOUL;4028460.96;0.0;4028460.96;0.0
44;DC_SEOUL;7381532.8;0.0;7381532.800000001;0.0
45;DC_SEOUL;7381532.8;0.0;7381532.800000001;0.0
46;DC_SEOUL;4018783.3200000003;0.0;4018783.32;0.0
47;DC_SEOUL;3975464.36;0.0;3893585.90265767;81878.45734232978
48;DC_SEOUL;4945107.333726392;0.0;0.0;4945107.333726391
49;DC_SEOUL;7381532.8;0.0;0.0;13309615.940096693
50;DC_SEOUL;7381532.8;0.0;0.0;20289387.475194596
51;DC_SEOUL;7381532.8;0.0;0.0;24752934.214673538
52;DC_SEOUL;7381532.8;0.0;0.0;23299936.459346633
53;DC_SEOUL;7381532.8;0.0;0.0;18232544.074214436
54;DC_SEOUL;3372224.8000000003;0.0;0.0;13700751.377905164
55;DC_SEOUL;3372224.8000000003;0.0;0.0;7548031.298067869
56;DC_SEOUL;3372224.8000000003;0.0;259562.15248817988;3112662.6475118203
57;DC_SEOUL;3372224.8000000003;0.0;3248791.0251084873;123433.77489151269
58;DC_SEOUL;3372224.8000000003;0.0;3372224.8;0.0
59;DC_SEOUL;4194363.36;0.0;4194363.36;0.0
60;DC_SEOUL;3372224.8000000003;0.0;3372224.8;0.0
61;DC_SEOUL;3372224.8000000003;0.0;3372224.8;0.0
62;DC_SEOUL;3372224.8000000003;0.0;3372224.8;0.0
63;DC_SEOUL;3810022.8000000003;0.0;3810022.8;0.0
64;DC_SEOUL;3815092.04;0.0;3815092.04;0.0
65;DC_SEOUL;4061180.6;0.0;4061180.6;0.0
66;DC_SEOUL;3372224.8000000003;0.0;3372224.8;0.0
67;DC_SEOUL;7381532.8;0.0;7381532.800000001;0.0
68;DC_SEOUL;3372224.8000000003;0.0;3372224.8;0.0
69;DC_SEOUL;3372224.8000000003;0.0;3372224.8;0.0
70;DC_SEOUL;3372224.8000000003;0.0;3372224.8;0.0
71;DC_SEOUL;3372224.8000000003;0.0;3316811.1645014556;55413.635498544194
72;DC_SEOUL;3372224.8000000003;0.0;432857.39936398657;2939367.400636013
73;DC_SEOUL;7381532.8;0.0;0.0;9092598.024244733
74;DC_SEOUL;7381532.8;0.0;0.0;14614315.457048729
75;DC_SEOUL;6439814.173335451;0.0;0.0;17381845.606002335
76;DC_SEOUL;5987970.962265557;0.0;0.0;16336683.960699175
77;DC_SEOUL;3372224.8000000003;0.0;0.0;13464948.882552836
78;DC_SEOUL;3372224.8000000003;0.0;0.0;10065046.454717591
79;DC_SEOUL;3372224.8000000003;0.0;0.0;5738472.718222381
80;DC_SEOUL;3372224.8000000003;0.0;1103815.0055860388;2268409.7944139615
81;DC_SEOUL;3372224.8000000003;0.0;3316634.437811347;55590.36218865295
82;DC_SEOUL;3372224.8000000003;0.0;3372224.8;0.0
83;DC_SEOUL;3372224.8000000003;0.0;3372224.8;0.0
84;DC_SEOUL;3372224.8000000003;0.0;3372224.8;0.0
85;DC_SEOUL;3372224.8000000003;0.0;3372224.8;0.0
86;DC_SEOUL;3372224.8000000003;0.0;3372224.8;0.0
87;DC_SEOUL;3372224.8000000003;0.0;3372224.8;0.0
88;DC_SEOUL;3372224.8000000003;0.0;3372224.8;0.0
89;DC_SEOUL;3372224.8000000003;0.0;3372224.8;0.0
90;DC_SEOUL;3372224.8000000003;0.0;3372224.8;0.0
91;DC_SEOUL;3609557.4;0.0;3609557.4000000004;0.0
92;DC_SEOUL;3372224.8000000003;0.0;3372224.8;0.0
93;DC_SEOUL;3372224.8000000003;0.0;3372224.8;0.0
94;DC_SEOUL;3372224.8000000003;0.0;3372224.8;0.0
95;DC_SEOUL;3372224.8000000003;0.0;3293232.878596113;78991.92140388684
96;DC_SEOUL;4530732.336168622;0.0;0.0;4530732.336168622
97;DC_SEOUL;7381532.8;0.0;0.0;11878591.203239975
98;DC_SEOUL;7381532.8;0.0;0.0;16148867.6707861
99;DC_SEOUL;4609685.545384582;0.0;0.0;23979008.766089514
100;DC_SEOUL;7381532.8;0.0;0.0;25919634.732024264
101;DC_SEOUL;3584211.2;0.0;0.0;24879966.341338653
102;DC_SEOUL;7302729.16;0.0;0.0;20620804.018970482
103;DC_SEOUL;3372224.8000000003;0.0;0.0;13882259.5067963
104;DC_SEOUL;3583289.52;0.0;0.0;5679004.187000786
105;DC_SEOUL;3372224.8000000003;0.0;3179951.070236403;192273.72976359676
106;DC_SEOUL;3372224.8000000003;0.0;3372224.8;0.0
107;DC_SEOUL;3514163.52;0.0;3514163.52;0.0
108;DC_SEOUL;3372224.8000000003;0.0;3372224.8;0.0
109;DC_SEOUL;3372224.8000000003;0.0;3372224.8;0.0
110;DC_SEOUL;3763477.96;0.0;3763477.96;0.0
111;DC_SEOUL;3372224.8000000003;0.0;3372224.8;0.0
112;DC_SEOUL;3457480.2;0.0;3457480.2;0.0
113;DC_SEOUL;3372224.8000000003;0.0;3372224.8;0.0
114;DC_SEOUL;3372224.8000000003;0.0;3372224.8;0.0
115;DC_SEOUL;3994358.8000000003;0.0;3994358.8;0.0
116;DC_SEOUL;3372224.8000000003;0.0;3372224.8;0.0
117;DC_SEOUL;3921601.5351640955;0.0;3921601.5351640955;0.0
118;DC_SEOUL;3372224.8000000003;0.0;3372224.8;0.0
119;DC_SEOUL;3372224.8000000003;0.0;3268800.413688578;103424.38631142177
120;DC_SEOUL;5141995.593731717;0.0;0.0;5141995.593731716
121;DC_SEOUL;7381532.8;0.0;0.0;13570916.169571932
122;DC_SEOUL;3863941.08;0.0;0.0;20534458.303628184
123;DC_SEOUL;7381532.8;0.0;0.0;24636981.869663298
124;DC_SEOUL;7381532.8;0.0;0.0;24898478.462127548
125;DC_SEOUL;3927997.84;0.0;0.0;21700957.548915174
126;DC_SEOUL;6314503.824779404;0.0;0.0;15120632.515135579
127;DC_SEOUL;3372224.8000000003;0.0;0.0;9056771.59689991
128;DC_SEOUL;3902478.7709814585;0.0;0.0;3902478.7709814585
129;DC_SEOUL;3372224.8000000003;0.0;3284735.2702467176;87489.52975328267
130;DC_SEOUL;3372224.8000000003;0.0;3372224.8;0.0
131;DC_SEOUL;3824308.84;0.0;3824308.8400000003;0.0
132;DC_SEOUL;3372224.8000000003;0.0;3372224.8;0.0
133;DC_SEOUL;6066258.85619426;0.0;6066258.85619426;0.0
134;DC_SEOUL;3372224.8000000003;0.0;3372224.8;0.0
135;DC_SEOUL;4947673.733379293;0.0;4947673.733379292;0.0
136;DC_SEOUL;3372224.8000000003;0.0;3372224.8;0.0
137;DC_SEOUL;3757026.2;0.0;3757026.1999999997;0.0
138;DC_SEOUL;3720159.0;0.0;3720159.0;0.0
139;DC_SEOUL;3804492.72;0.0;3804492.72;0.0
140;DC_SEOUL;3372224.8000000003;0.0;3372224.8;0.0
141;DC_SEOUL;3641816.2;0.0;3641816.2;0.0
142;DC_SEOUL;3372224.8000000003;0.0;3372224.8;0.0
143;DC_SEOUL;7381532.8;0.0;7272713.340565537;108819.45943446396
144;DC_SEOUL;5242243.808695907;0.0;0.0;5242243.808695907
145;DC_SEOUL;7381532.8;0.0;0.0;13546905.885090768
146;DC_SEOUL;5774842.458293389;0.0;0.0;20410710.347954255
147;DC_SEOUL;7381532.8;0.0;0.0;23775910.526556756
148;DC_SEOUL;6239672.970897433;0.0;0.0;22278343.281799365
149;DC_SEOUL;3711863.88;0.0;0.0;18822644.31063701
150;DC_SEOUL;3826152.2;0.0;0.0;14490331.865787989
151;DC_SEOUL;3372224.8000000003;0.0;0.0;7490438.0333913155
152;DC_SEOUL;3372224.8000000003;960563.2960287199;0.0;2411661.5039712805
153;DC_SEOUL;3372224.8000000003;0.0;3288745.9842972406;83478.81570275904
154;DC_SEOUL;3372224.8000000003;0.0;3372224.8;0.0
155;DC_SEOUL;3372224.8000000003;0.0;3372224.8;0.0
156;DC_SEOUL;3372224.8000000003;0.0;3372224.8;0.0
157;DC_SEOUL;3372224.8000000003;0.0;3372224.8;0.0
158;DC_SEOUL;3372224.8000000003;0.0;3372224.8;0.0
159;DC_SEOUL;3372224.8000000003;0.0;3372224.8;0.0
160;DC_SEOUL;3372224.8000000003;0.0;3372224.8;0.0
161;DC_SEOUL;3372224.8000000003;0.0;3372224.8;0.0
162;DC_SEOUL;3372224.8000000003;0.0;3372224.8;0.0
163;DC_SEOUL;3372224.8000000003;0.0;3372224.8;0.0
164;DC_SEOUL;3372224.8000000003;487779.8146302071;2884444.9853697927;0.0
165;DC_SEOUL;3372224.8000000003;0.0;3372224.8;0.0
166;DC_SEOUL;3372224.8000000003;0.0;3372224.8;0.0
167;DC_SEOUL;7381532.8;0.0;7280567.860125926;100964.93987407499
1;DC_PARIS;2844189.6;2844189.6;0.0;0.0
2;DC_PARIS;2844189.6;2844189.6;0.0;0.0
3;DC_PARIS;2844189.6;2844189.6;0.0;0.0
4;DC_PARIS;2844189.6;2844189.6;0.0;0.0
5;DC_PARIS;2844189.6;2844189.6;0.0;0.0
6;DC_PARIS;2844189.6;2844189.6;0.0;0.0
7;DC_PARIS;2844189.6;2844189.6;0.0;0.0
8;DC_PARIS;5302201.92;5296603.978470663;0.0;5597.941529337899
9;DC_PARIS;5639187.48;5295411.690046916;0.0;343775.7899530846
10;DC_PARIS;6142916.760000001;5190995.747831801;0.0;951921.012168199
11;DC_PARIS;6225705.600000001;4724023.481514276;0.0;1501682.1184857246
12;DC_PARIS;6225705.600000001;4337616.144915953;0.0;1888089.455084046
13;DC_PARIS;6225705.600000001;4453931.921306728;0.0;1771773.678693272
14;DC_PARIS;6225705.600000001;4608976.490816081;0.0;1616729.10918392
15;DC_PARIS;6225705.600000001;5460637.380176254;0.0;765068.2198237462
16;DC_PARIS;6225705.600000001;6033196.680882266;0.0;192508.9191177351
17;DC_PARIS;6225705.600000001;6225705.600000001;0.0;0.0
18;DC_PARIS;6225705.600000001;6225705.600000001;0.0;0.0
19;DC_PARIS;6225705.600000001;6225705.600000001;0.0;0.0
20;DC_PARIS;6225705.600000001;6225705.600000001;0.0;0.0
21;DC_PARIS;6225705.600000001;6225705.600000001;0.0;0.0
22;DC_PARIS;6225705.600000001;6225705.600000001;0.0;0.0
23;DC_PARIS;6225705.600000001;6225705.600000001;0.0;0.0
24;DC_PARIS;6225705.600000001;6225705.600000001;0.0;0.0
25;DC_PARIS;6225705.600000001;6225705.600000001;0.0;0.0
26;DC_PARIS;6225705.600000001;6225705.600000001;0.0;0.0
27;DC_PARIS;6225705.600000001;6225705.600000001;0.0;0.0
28;DC_PARIS;6225705.600000001;6225705.600000001;0.0;0.0
29;DC_PARIS;6225705.600000001;6225705.600000001;0.0;0.0
30;DC_PARIS;6225705.600000001;6225705.600000001;0.0;0.0
31;DC_PARIS;6225705.600000001;6225705.600000001;0.0;0.0
32;DC_PARIS;6225705.600000001;6214715.536386322;0.0;10990.063613678423
33;DC_PARIS;6225705.600000001;5692029.674105434;0.0;533675.925894566
34;DC_PARIS;6225705.600000001;4804919.2077630125;0.0;1420786.3922369883
35;DC_PARIS;6225705.600000001;4105235.570276196;0.0;2120470.0297238044
36;DC_PARIS;6225705.600000001;3813997.5818590024;0.0;2411708.018140998
37;DC_PARIS;6225705.600000001;3953571.8239709567;0.0;2272133.7760290434
38;DC_PARIS;6225705.600000001;4510557.4533388335;0.0;1715148.146661167
39;DC_PARIS;6225705.600000001;5275183.638995897;0.0;950521.961004103
40;DC_PARIS;6225705.600000001;6008228.263738302;0.0;217477.33626169938
41;DC_PARIS;6225705.600000001;6225705.600000001;0.0;0.0
42;DC_PARIS;6225705.600000001;6225705.600000001;0.0;0.0
43;DC_PARIS;6225705.600000001;6225705.600000001;0.0;0.0
44;DC_PARIS;6225705.600000001;6225705.600000001;0.0;0.0
45;DC_PARIS;6225705.600000001;6225705.600000001;0.0;0.0
46;DC_PARIS;6225705.600000001;6225705.600000001;0.0;0.0
47;DC_PARIS;6225705.600000001;6225705.600000001;0.0;0.0
48;DC_PARIS;6225705.600000001;6225705.600000001;0.0;0.0
49;DC_PARIS;6225705.600000001;6225705.600000001;0.0;0.0
50;DC_PARIS;6225705.600000001;6225705.600000001;0.0;0.0
51;DC_PARIS;6225705.600000001;6225705.600000001;0.0;0.0
52;DC_PARIS;6225705.600000001;6225705.600000001;0.0;0.0
53;DC_PARIS;6225705.600000001;6225705.600000001;0.0;0.0
54;DC_PARIS;6225705.600000001;6225705.600000001;0.0;0.0
55;DC_PARIS;6225705.600000001;6225705.600000001;0.0;0.0
56;DC_PARIS;6225705.600000001;6219475.436715565;0.0;6230.1632844353235
57;DC_PARIS;6225705.600000001;5921404.59009905;0.0;304301.00990095094
58;DC_PARIS;6225705.600000001;5332364.9703731425;0.0;893340.6296268573
59;DC_PARIS;6225705.600000001;4657964.992471363;0.0;1567740.6075286374
60;DC_PARIS;6225705.600000001;4295826.981653196;0.0;1929878.6183468045
61;DC_PARIS;6225705.600000001;4236802.828072218;0.0;1988902.7719277816
62;DC_PARIS;6225705.600000001;4624722.112576617;0.0;1600983.4874233822
63;DC_PARIS;6225705.600000001;5400853.344678092;0.0;824852.2553219079
64;DC_PARIS;6225705.600000001;6069863.805804962;0.0;155841.79419503806
65;DC_PARIS;6225705.600000001;6225705.600000001;0.0;0.0
66;DC_PARIS;6225705.600000001;6225705.600000001;0.0;0.0
67;DC_PARIS;6225705.600000001;6225705.600000001;0.0;0.0
68;DC_PARIS;6225705.600000001;6225705.600000001;0.0;0.0
69;DC_PARIS;6225705.600000001;6225705.600000001;0.0;0.0
70;DC_PARIS;6225705.600000001;6225705.600000001;0.0;0.0
71;DC_PARIS;6225705.600000001;6225705.600000001;0.0;0.0
72;DC_PARIS;6225705.600000001;6225705.600000001;0.0;0.0
73;DC_PARIS;6225705.600000001;6225705.600000001;0.0;0.0
74;DC_PARIS;6225705.600000001;6225705.600000001;0.0;0.0
75;DC_PARIS;6225705.600000001;6225705.600000001;0.0;0.0
76;DC_PARIS;6225705.600000001;6225705.600000001;0.0;0.0
77;DC_PARIS;6225705.600000001;6225705.600000001;0.0;0.0
78;DC_PARIS;6225705.600000001;6225705.600000001;0.0;0.0
79;DC_PARIS;6225705.600000001;6225705.600000001;0.0;0.0
80;DC_PARIS;6225705.600000001;6220017.341077076;0.0;5688.258922923246
81;DC_PARIS;6225705.600000001;6011147.078736765;0.0;214558.5212632345
82;DC_PARIS;6225705.600000001;5647036.848679827;0.0;578668.7513201737
83;DC_PARIS;6225705.600000001;5222809.9719541175;0.0;1002895.6280458822
84;DC_PARIS;6225705.600000001;4886982.981073021;0.0;1338722.6189269796
85;DC_PARIS;6225705.600000001;4977312.532769041;0.0;1248393.0672309587
86;DC_PARIS;6225705.600000001;5251378.058294345;0.0;974327.5417056559
87;DC_PARIS;6225705.600000001;5597549.864486871;0.0;628155.7355131292
88;DC_PARIS;6225705.600000001;6050897.15315204;0.0;174808.4468479608
89;DC_PARIS;6225705.600000001;6225704.731563523;0.0;0.868436476782175
90;DC_PARIS;6225705.600000001;6225705.600000001;0.0;0.0
91;DC_PARIS;6225705.600000001;6225705.600000001;0.0;0.0
92;DC_PARIS;6225705.600000001;6225705.600000001;0.0;0.0
93;DC_PARIS;6225705.600000001;6225705.600000001;0.0;0.0
94;DC_PARIS;6225705.600000001;6225705.600000001;0.0;0.0
95;DC_PARIS;6225705.600000001;6225705.600000001;0.0;0.0
96;DC_PARIS;6225705.600000001;6225705.600000001;0.0;0.0
97;DC_PARIS;6225705.600000001;6225705.600000001;0.0;0.0
98;DC_PARIS;6225705.600000001;6225705.600000001;0.0;0.0
99;DC_PARIS;6225705.600000001;6225705.600000001;0.0;0.0
100;DC_PARIS;6225705.600000001;6225705.600000001;0.0;0.0
101;DC_PARIS;6225705.600000001;6225705.600000001;0.0;0.0
102;DC_PARIS;6225705.600000001;6225705.600000001;0.0;0.0
103;DC_PARIS;6225705.600000001;6225705.600000001;0.0;0.0
104;DC_PARIS;6225705.600000001;6216360.355073348;0.0;9345.244926652986
105;DC_PARIS;6225705.600000001;5854850.223827894;0.0;370855.3761721064
106;DC_PARIS;6225705.600000001;5175852.743218029;0.0;1049852.8567819712
107;DC_PARIS;6225705.600000001;4579258.594580594;0.0;1646447.0054194059
108;DC_PARIS;6225705.600000001;4266273.219911822;0.0;1959432.3800881784
109;DC_PARIS;6225705.600000001;4626491.117679823;0.0;1599214.482320177
110;DC_PARIS;6225705.600000001;5005852.829142011;0.0;1219852.770857989
111;DC_PARIS;6225705.600000001;5516967.643806253;0.0;708737.9561937472
112;DC_PARIS;6225705.600000001;6041881.9140865635;0.0;183823.68591343652
113;DC_PARIS;6225705.600000001;6225702.994690569;0.0;2.6053094303465247
114;DC_PARIS;6225705.600000001;6225705.600000001;0.0;0.0
115;DC_PARIS;6225705.600000001;6225705.600000001;0.0;0.0
116;DC_PARIS;6225705.600000001;6225705.600000001;0.0;0.0
117;DC_PARIS;6225705.600000001;6225705.600000001;0.0;0.0
118;DC_PARIS;6225705.600000001;6225705.600000001;0.0;0.0
119;DC_PARIS;6225705.600000001;6225705.600000001;0.0;0.0
120;DC_PARIS;6225705.600000001;6225705.600000001;0.0;0.0
121;DC_PARIS;6225705.600000001;6225705.600000001;0.0;0.0
122;DC_PARIS;6225705.600000001;6225705.600000001;0.0;0.0
123;DC_PARIS;6225705.600000001;6225705.600000001;0.0;0.0
124;DC_PARIS;6225705.600000001;6225705.600000001;0.0;0.0
125;DC_PARIS;6225705.600000001;6225705.600000001;0.0;0.0
126;DC_PARIS;6225705.600000001;6225705.600000001;0.0;0.0
127;DC_PARIS;6225705.600000001;6225705.600000001;0.0;0.0
128;DC_PARIS;6225705.600000001;6213181.009131848;0.0;12524.590868152527
129;DC_PARIS;6225705.600000001;5817118.395784662;0.0;408587.2042153384
130;DC_PARIS;6225705.600000001;5116838.142438296;0.0;1108867.457561704
131;DC_PARIS;6225705.600000001;4400574.315736754;0.0;1825131.2842632455
132;DC_PARIS;6225705.600000001;4083342.286696517;0.0;2142363.313303483
133;DC_PARIS;6225705.600000001;4359572.824358438;0.0;1866132.7756415624
134;DC_PARIS;6225705.600000001;4781948.194515646;0.0;1443757.4054843532
135;DC_PARIS;6225705.600000001;5354148.830956747;0.0;871556.7690432534
136;DC_PARIS;6225705.600000001;5986558.168333155;0.0;239147.431666845
137;DC_PARIS;6225705.600000001;6225698.652508186;0.0;6.9474918142574
138;DC_PARIS;6225705.600000001;6225705.600000001;0.0;0.0
139;DC_PARIS;6225705.600000001;6225705.600000001;0.0;0.0
140;DC_PARIS;6225705.600000001;6225705.600000001;0.0;0.0
141;DC_PARIS;6225705.600000001;6225705.600000001;0.0;0.0
142;DC_PARIS;6225705.600000001;6225705.600000001;0.0;0.0
143;DC_PARIS;6225705.600000001;6225705.600000001;0.0;0.0
144;DC_PARIS;6225705.600000001;6225705.600000001;0.0;0.0
145;DC_PARIS;6225705.600000001;6225705.600000001;0.0;0.0
146;DC_PARIS;6225705.600000001;6225705.600000001;0.0;0.0
147;DC_PARIS;6225705.600000001;6225705.600000001;0.0;0.0
148;DC_PARIS;6225705.600000001;6225705.600000001;0.0;0.0
149;DC_PARIS;6225705.600000001;6225705.600000001;0.0;0.0
150;DC_PARIS;6225705.600000001;6225705.600000001;0.0;0.0
151;DC_PARIS;6225705.600000001;6225705.600000001;0.0;0.0
152;DC_PARIS;6225705.600000001;6220914.435957593;0.0;4791.164042407259
153;DC_PARIS;6225705.600000001;6044646.147392161;0.0;181059.45260783887
154;DC_PARIS;6225705.600000001;5637793.210820957;0.0;587912.3891790432
155;DC_PARIS;6225705.600000001;5208608.430249299;0.0;1017097.1697507013
156;DC_PARIS;6225705.600000001;4842659.720171012;0.0;1383045.8798289883
157;DC_PARIS;6225705.600000001;4586850.466260624;0.0;1638855.1337393762
158;DC_PARIS;6225705.600000001;4919091.682929088;0.0;1306613.9170709127
159;DC_PARIS;6225705.600000001;5384729.084613677;0.0;840976.5153863225
160;DC_PARIS;6225705.600000001;5998357.614743194;0.0;227347.98525680555
161;DC_PARIS;6225705.600000001;6225688.231270465;0.0;17.3687295356435
162;DC_PARIS;6225705.600000001;6225705.600000001;0.0;0.0
163;DC_PARIS;6225705.600000001;6225705.600000001;0.0;0.0
164;DC_PARIS;6225705.600000001;6225705.600000001;0.0;0.0
165;DC_PARIS;6225705.600000001;6225705.600000001;0.0;0.0
166;DC_PARIS;6225705.600000001;6225705.600000001;0.0;0.0
167;DC_PARIS;6225705.600000001;6225705.600000001;0.0;0.0
1;DC_VIRGINIA;2808187.1999999997;0.0;2808187.1999999997;0.0
2;DC_VIRGINIA;2808187.1999999997;0.0;2808187.1999999997;0.0
3;DC_VIRGINIA;2808187.1999999997;2808187.1999999997;0.0;0.0
4;DC_VIRGINIA;2808187.1999999997;0.0;2808187.1999999997;0.0
5;DC_VIRGINIA;2808187.1999999997;2808187.1999999997;0.0;0.0
6;DC_VIRGINIA;2808187.1999999997;2808187.1999999997;0.0;0.0
7;DC_VIRGINIA;2808187.1999999997;0.0;2808187.1999999997;0.0
8;DC_VIRGINIA;2808187.1999999997;0.0;2808187.1999999997;0.0
9;DC_VIRGINIA;2808187.1999999997;0.0;2808187.1999999997;0.0
10;DC_VIRGINIA;2808187.1999999997;2808187.1999999997;0.0;0.0
11;DC_VIRGINIA;2953632.2399999998;2953632.2399999998;0.0;0.0
12;DC_VIRGINIA;5780550.381298855;5780550.381298855;0.0;0.0
13;DC_VIRGINIA;6146899.199999999;6008176.788808873;0.0;138722.41119112776
14;DC_VIRGINIA;6146899.199999999;0.0;4744365.175504833;1402534.0244951667
15;DC_VIRGINIA;6146899.199999999;3743246.828923286;0.0;2403652.371076714
16;DC_VIRGINIA;6146899.199999999;3293047.1551353713;0.0;2853852.0448646285
17;DC_VIRGINIA;6146899.199999999;0.0;3528736.2506183386;2618162.949381661
18;DC_VIRGINIA;6146899.199999999;3099512.0551269427;0.0;3047387.1448730566
19;DC_VIRGINIA;6146899.199999999;2868973.1189651056;0.0;3277926.081034894
20;DC_VIRGINIA;6146899.199999999;3644183.3777205697;0.0;2502715.82227943
21;DC_VIRGINIA;6146899.199999999;4617044.178428716;0.0;1529855.0215712842
22;DC_VIRGINIA;6146899.199999999;5741325.129609501;0.0;405574.07039049856
23;DC_VIRGINIA;6146899.199999999;6146899.2;0.0;0.0
24;DC_VIRGINIA;6146899.199999999;6146899.2;0.0;0.0
25;DC_VIRGINIA;6146899.199999999;6146899.2;0.0;0.0
26;DC_VIRGINIA;6146899.199999999;0.0;6146899.2;0.0
27;DC_VIRGINIA;6146899.199999999;6146899.2;0.0;0.0
28;DC_VIRGINIA;6095475.359999999;6095475.36;0.0;0.0
29;DC_VIRGINIA;6146899.199999999;6146899.2;0.0;0.0
30;DC_VIRGINIA;6146899.199999999;6146899.2;0.0;0.0
31;DC_VIRGINIA;6146899.199999999;6146899.2;0.0;0.0
32;DC_VIRGINIA;6146899.199999999;0.0;6146899.2;0.0
33;DC_VIRGINIA;6146899.199999999;6146899.2;0.0;0.0
34;DC_VIRGINIA;6146899.199999999;6146899.2;0.0;0.0
35;DC_VIRGINIA;6146899.199999999;6146899.2;0.0;0.0
36;DC_VIRGINIA;6146899.199999999;0.0;6146899.2;0.0
37;DC_VIRGINIA;6146899.199999999;5988376.593268729;0.0;158522.606731271
38;DC_VIRGINIA;6146899.199999999;4475077.049727459;0.0;1671822.1502725398
39;DC_VIRGINIA;6146899.199999999;2467045.9392538606;0.0;3679853.2607461396
40;DC_VIRGINIA;6146899.199999999;0.0;0.0;6241161.418713873
41;DC_VIRGINIA;6146899.199999999;0.0;0.0;9604832.381243845
42;DC_VIRGINIA;6146899.199999999;0.0;0.0;13178843.815820264
43;DC_VIRGINIA;6146899.199999999;0.0;0.0;14442592.955622302
44;DC_VIRGINIA;6146899.199999999;0.0;0.0;11607892.943714565
45;DC_VIRGINIA;6146899.199999999;0.0;0.0;6517755.039631377
46;DC_VIRGINIA;6146899.199999999;4434828.496063923;0.0;1712070.703936077
47;DC_VIRGINIA;6146899.199999999;6146743.016245;0.0;156.18375500014383
48;DC_VIRGINIA;6146899.199999999;6146899.2;0.0;0.0
49;DC_VIRGINIA;6146899.199999999;6146899.2;0.0;0.0
50;DC_VIRGINIA;6146899.199999999;6146899.2;0.0;0.0
51;DC_VIRGINIA;6146899.199999999;0.0;6146899.2;0.0
52;DC_VIRGINIA;6146899.199999999;6146899.2;0.0;0.0
53;DC_VIRGINIA;6146899.199999999;6146899.2;0.0;0.0
54;DC_VIRGINIA;6146899.199999999;6146899.2;0.0;0.0
55;DC_VIRGINIA;6146899.199999999;6146899.2;0.0;0.0
56;DC_VIRGINIA;6146899.199999999;6146899.2;0.0;0.0
57;DC_VIRGINIA;6146899.199999999;0.0;6146899.2;0.0
58;DC_VIRGINIA;6146899.199999999;6146899.2;0.0;0.0
59;DC_VIRGINIA;6146899.199999999;6146899.2;0.0;0.0
60;DC_VIRGINIA;6146899.199999999;1985959.7273626942;4160939.4726373055;0.0
61;DC_VIRGINIA;6146899.199999999;5849904.076085601;0.0;296995.12391439854
62;DC_VIRGINIA;6146899.199999999;3846050.8810582557;0.0;2300848.3189417436
63;DC_VIRGINIA;6146899.199999999;2089858.2663346378;0.0;4057040.9336653617
64;DC_VIRGINIA;6146899.199999999;766505.5010306697;0.0;5380393.698969332
65;DC_VIRGINIA;6146899.199999999;684399.7010270932;0.0;5462499.498972907
66;DC_VIRGINIA;6146899.199999999;0.0;1430376.2654404053;4716522.934559594
67;DC_VIRGINIA;6146899.199999999;2484671.2760056267;0.0;3662227.923994373
68;DC_VIRGINIA;6146899.199999999;3326142.4928199016;0.0;2820756.707180098
69;DC_VIRGINIA;6146899.199999999;0.0;4152112.4719504123;1994786.7280495872
70;DC_VIRGINIA;6146899.199999999;5353540.38891352;0.0;793358.8110864807
71;DC_VIRGINIA;6146899.199999999;6146727.397869499;0.0;171.80213050015823
72;DC_VIRGINIA;6146899.199999999;6146899.2;0.0;0.0
73;DC_VIRGINIA;6146899.199999999;6146899.2;0.0;0.0
74;DC_VIRGINIA;6146899.199999999;6146899.2;0.0;0.0
75;DC_VIRGINIA;6146899.199999999;6146899.2;0.0;0.0
76;DC_VIRGINIA;6146899.199999999;6146899.2;0.0;0.0
77;DC_VIRGINIA;6146899.199999999;6146899.2;0.0;0.0
78;DC_VIRGINIA;3226485.5999999996;3226485.6;0.0;0.0
79;DC_VIRGINIA;6146899.199999999;6146899.2;0.0;0.0
80;DC_VIRGINIA;3197703.5999999996;3197703.5999999996;0.0;0.0
81;DC_VIRGINIA;6033876.835260979;0.0;6033876.835260979;0.0
82;DC_VIRGINIA;6146899.199999999;6146899.2;0.0;0.0
83;DC_VIRGINIA;6146899.199999999;6146899.2;0.0;0.0
84;DC_VIRGINIA;6146899.199999999;6146899.2;0.0;0.0
85;DC_VIRGINIA;6146899.199999999;5701962.91875559;0.0;444936.28124440985
86;DC_VIRGINIA;6146899.199999999;0.0;1268323.9058461313;4878575.294153868
87;DC_VIRGINIA;6146899.199999999;0.0;0.0;10023900.728066357
88;DC_VIRGINIA;6146899.199999999;0.0;0.0;12293719.239483448
89;DC_VIRGINIA;6146899.199999999;0.0;0.0;14617760.846042715
90;DC_VIRGINIA;6146899.199999999;0.0;0.0;14043422.41918681
91;DC_VIRGINIA;6146899.199999999;0.0;0.0;11734448.640391182
92;DC_VIRGINIA;6146899.199999999;0.0;0.0;8156559.944096887
93;DC_VIRGINIA;6146899.199999999;877723.9529662711;0.0;5269175.247033728
94;DC_VIRGINIA;6146899.199999999;4502553.6768258605;0.0;1644345.5231741397
95;DC_VIRGINIA;6146899.199999999;6146508.740612499;0.0;390.45938750035964
96;DC_VIRGINIA;6146899.199999999;6146899.2;0.0;0.0
97;DC_VIRGINIA;6146899.199999999;6146899.2;0.0;0.0
98;DC_VIRGINIA;6146899.199999999;6146899.2;0.0;0.0
99;DC_VIRGINIA;6146899.199999999;0.0;6146899.2;0.0
100;DC_VIRGINIA;3803249.860098544;3803249.8600985445;0.0;0.0
101;DC_VIRGINIA;2808187.1999999997;2808187.1999999997;0.0;0.0
102;DC_VIRGINIA;2808187.1999999997;0.0;2808187.1999999997;0.0
103;DC_VIRGINIA;2808187.1999999997;2808187.1999999997;0.0;0.0
104;DC_VIRGINIA;2808187.1999999997;0.0;2808187.1999999997;0.0
105;DC_VIRGINIA;2878031.52;0.0;2878031.52;0.0
106;DC_VIRGINIA;6146899.199999999;6146899.2;0.0;0.0
107;DC_VIRGINIA;6146899.199999999;6146899.2;0.0;0.0
108;DC_VIRGINIA;6146899.199999999;0.0;6146899.2;0.0
109;DC_VIRGINIA;6146899.199999999;5805071.52921281;0.0;341827.67078718985
110;DC_VIRGINIA;6146899.199999999;2958759.255120813;0.0;3188139.944879186
111;DC_VIRGINIA;6146899.199999999;0.0;0.0;6944613.05123452
112;DC_VIRGINIA;6146899.199999999;0.0;0.0;10399218.100519452
113;DC_VIRGINIA;6146899.199999999;0.0;0.0;12471015.133565735
114;DC_VIRGINIA;6146899.199999999;0.0;0.0;12680344.315798555
115;DC_VIRGINIA;6146899.199999999;0.0;0.0;11372887.152159724
116;DC_VIRGINIA;6146899.199999999;0.0;0.0;8979386.725158019
117;DC_VIRGINIA;6146899.199999999;555876.0890374752;0.0;5591023.110962525
118;DC_VIRGINIA;6146899.199999999;4432349.078953295;0.0;1714550.121046704
119;DC_VIRGINIA;6146899.199999999;6146223.705259624;0.0;675.4947403756221
120;DC_VIRGINIA;6146899.199999999;6146899.2;0.0;0.0
121;DC_VIRGINIA;6146899.199999999;0.0;6146899.2;0.0
122;DC_VIRGINIA;6146899.199999999;6146899.2;0.0;0.0
123;DC_VIRGINIA;5418381.393678629;0.0;5418381.393678629;0.0
124;DC_VIRGINIA;2808187.1999999997;2808187.1999999997;0.0;0.0
125;DC_VIRGINIA;2808187.1999999997;2808187.1999999997;0.0;0.0
126;DC_VIRGINIA;2808187.1999999997;0.0;2808187.1999999997;0.0
127;DC_VIRGINIA;3430645.92;0.0;3430645.92;0.0
128;DC_VIRGINIA;2889304.5149834114;2889304.5149834114;0.0;0.0
129;DC_VIRGINIA;3170072.88;0.0;3170072.88;0.0
130;DC_VIRGINIA;6146899.199999999;0.0;6146899.2;0.0
131;DC_VIRGINIA;6146899.199999999;6146899.2;0.0;0.0
132;DC_VIRGINIA;6146899.199999999;0.0;6146899.2;0.0
133;DC_VIRGINIA;6146899.199999999;5533339.127669685;0.0;613560.0723303151
134;DC_VIRGINIA;6146899.199999999;0.0;319472.45287538227;5827426.747124617
135;DC_VIRGINIA;6146899.199999999;0.0;0.0;12059470.939140357
136;DC_VIRGINIA;6146899.199999999;0.0;0.0;17020733.817785177
137;DC_VIRGINIA;6146899.199999999;0.0;0.0;19964360.285023887
138;DC_VIRGINIA;6146899.199999999;0.0;0.0;20541916.097232793
139;DC_VIRGINIA;6146899.199999999;0.0;0.0;18406919.3077257
140;DC_VIRGINIA;6146899.199999999;0.0;0.0;13978512.45060875
141;DC_VIRGINIA;6146899.199999999;0.0;0.0;7912819.576043663
142;DC_VIRGINIA;6146899.199999999;0.0;3951185.975736602;2195713.2242633975
143;DC_VIRGINIA;6146899.199999999;6145938.669906749;0.0;960.5300932508846
144;DC_VIRGINIA;6146899.199999999;0.0;6146899.2;0.0
145;DC_VIRGINIA;6146899.199999999;6146899.2;0.0;0.0
146;DC_VIRGINIA;6146899.199999999;6146899.2;0.0;0.0
147;DC_VIRGINIA;6146899.199999999;0.0;6146899.2;0.0
148;DC_VIRGINIA;6146899.199999999;6146899.2;0.0;0.0
149;DC_VIRGINIA;6146899.199999999;6146899.2;0.0;0.0
150;DC_VIRGINIA;6146899.199999999;0.0;6146899.2;0.0
151;DC_VIRGINIA;6146899.199999999;0.0;6146899.2;0.0
152;DC_VIRGINIA;6146899.199999999;6146899.2;0.0;0.0
153;DC_VIRGINIA;6146899.199999999;0.0;6146899.2;0.0
154;DC_VIRGINIA;6146899.199999999;6146899.2;0.0;0.0
155;DC_VIRGINIA;6146899.199999999;0.0;6146899.2;0.0
156;DC_VIRGINIA;6146899.199999999;0.0;6146899.2;0.0
157;DC_VIRGINIA;6146899.199999999;5556247.3799343305;0.0;590651.820065669
158;DC_VIRGINIA;6146899.199999999;0.0;418699.89702084876;5728199.302979152
159;DC_VIRGINIA;6146899.199999999;0.0;0.0;12311844.364251213
160;DC_VIRGINIA;6146899.199999999;0.0;0.0;17088868.98090399
161;DC_VIRGINIA;6146899.199999999;0.0;0.0;19151533.168876637
162;DC_VIRGINIA;6146899.199999999;0.0;0.0;19877604.113715183
163;DC_VIRGINIA;6146899.199999999;0.0;0.0;17025841.02657368
164;DC_VIRGINIA;6146899.199999999;0.0;0.0;13097792.256162938
165;DC_VIRGINIA;6146899.199999999;0.0;0.0;6248486.43682338
166;DC_VIRGINIA;6146899.199999999;5098019.861139409;0.0;1048879.338860591
167;DC_VIRGINIA;6146899.199999999;6146582.927896124;0.0;316.2721038752913
1;DC_DUBAI;5469883.289977918;0.0;10679955.963555759;0.0
2;DC_DUBAI;5532689.16;0.0;5532689.16;0.0
3;DC_DUBAI;6225705.600000001;0.0;6225705.600000001;0.0
4;DC_DUBAI;5651625.24;0.0;4023756.0193021027;1627869.2206978973
5;DC_DUBAI;6225705.600000001;0.0;0.0;6840545.068598469
6;DC_DUBAI;6225705.600000001;0.0;0.0;16047737.588866564
7;DC_DUBAI;6225705.600000001;0.0;0.0;22004161.9368927
8;DC_DUBAI;6225705.600000001;0.0;0.0;24893327.874933634
9;DC_DUBAI;6225705.600000001;0.0;0.0;26193549.527913593
10;DC_DUBAI;6225705.600000001;0.0;0.0;23570436.945569117
11;DC_DUBAI;6225705.600000001;0.0;0.0;17536515.039555192
12;DC_DUBAI;6225705.600000001;0.0;0.0;10957966.041391172
13;DC_DUBAI;6225705.600000001;0.0;1731642.7828380365;4494062.817161962
14;DC_DUBAI;6225705.600000001;0.0;5751094.143902617;474611.456097384
15;DC_DUBAI;4143935.52;0.0;4143935.52;0.0
16;DC_DUBAI;4351922.944034848;0.0;4351922.944034848;0.0
17;DC_DUBAI;6225705.600000001;0.0;6225705.600000001;0.0
18;DC_DUBAI;4834619.88;0.0;4834619.88;0.0
19;DC_DUBAI;6225705.600000001;0.0;6225705.600000001;0.0
20;DC_DUBAI;4938786.12;0.0;4938786.120000001;0.0
21;DC_DUBAI;6225705.600000001;0.0;6225705.600000001;0.0
22;DC_DUBAI;6225705.600000001;0.0;6225705.600000001;0.0
23;DC_DUBAI;5260613.16;0.0;5260613.160000001;0.0
24;DC_DUBAI;6225705.600000001;0.0;6225705.600000001;0.0
25;DC_DUBAI;6225705.600000001;0.0;6225705.600000001;0.0
26;DC_DUBAI;2844189.6;0.0;2844189.6;0.0
27;DC_DUBAI;6037195.8;0.0;6037195.800000001;0.0
28;DC_DUBAI;2844189.6;0.0;786581.5132406655;2057608.0867593347
29;DC_DUBAI;6225705.600000001;0.0;0.0;8926717.049732734
30;DC_DUBAI;6225705.600000001;0.0;0.0;15899955.424467891
31;DC_DUBAI;6225705.600000001;0.0;0.0;21534948.82953328
32;DC_DUBAI;6225705.600000001;0.0;0.0;24868431.069385618
33;DC_DUBAI;3139197.72;0.0;0.0;25578099.88863626
34;DC_DUBAI;4737003.427461731;0.0;0.0;23687855.766013537
35;DC_DUBAI;6225705.600000001;0.0;0.0;19425077.150360618
36;DC_DUBAI;6225705.600000001;0.0;0.0;13316014.018229088
37;DC_DUBAI;6225705.600000001;0.0;90328.83254642275;6135376.767453576
38;DC_DUBAI;6225705.600000001;0.0;5632584.28876589;593121.3112341102
39;DC_DUBAI;6225705.600000001;0.0;6225705.600000001;0.0
40;DC_DUBAI;6225705.600000001;0.0;6225705.600000001;0.0
41;DC_DUBAI;6225705.600000001;0.0;6225705.600000001;0.0
42;DC_DUBAI;6225705.600000001;0.0;6225705.600000001;0.0
43;DC_DUBAI;6225705.600000001;0.0;6225705.600000001;0.0
44;DC_DUBAI;6225705.600000001;0.0;6225705.600000001;0.0
45;DC_DUBAI;3476571.96;0.0;3476571.9600000004;0.0
46;DC_DUBAI;6225705.600000001;0.0;6225705.600000001;0.0
47;DC_DUBAI;6225705.600000001;0.0;6225705.600000001;0.0
48;DC_DUBAI;5359696.5228001615;0.0;5359696.522800161;0.0
49;DC_DUBAI;2844189.6;0.0;2844189.6;0.0
50;DC_DUBAI;6225705.600000001;0.0;6225705.600000001;0.0
51;DC_DUBAI;6225705.600000001;0.0;6225705.600000001;0.0
52;DC_DUBAI;2844189.6;0.0;1030518.6865285238;1813670.9134714764
53;DC_DUBAI;6225705.600000001;0.0;0.0;7815698.996309998
54;DC_DUBAI;6225705.600000001;0.0;0.0;14565449.521608211
55;DC_DUBAI;3461024.7600000002;0.0;0.0;19781334.072232332
56;DC_DUBAI;3542647.56;0.0;0.0;22962154.79808985
57;DC_DUBAI;6225705.600000001;0.0;0.0;23931921.742008127
58;DC_DUBAI;5814168.08728491;0.0;0.0;22564438.557910547
59;DC_DUBAI;6225705.600000001;0.0;0.0;18823011.627638545
60;DC_DUBAI;6225705.600000001;0.0;0.0;13076929.676333044
61;DC_DUBAI;6225705.600000001;0.0;43376.457628269236;6182329.142371731
62;DC_DUBAI;6225705.600000001;0.0;5605262.9616794195;620442.638320581
63;DC_DUBAI;6225705.600000001;0.0;6225705.600000001;0.0
64;DC_DUBAI;6225705.600000001;0.0;6225705.600000001;0.0
65;DC_DUBAI;6225705.600000001;0.0;6225705.600000001;0.0
66;DC_DUBAI;6225705.600000001;0.0;6225705.600000001;0.0
67;DC_DUBAI;6225705.600000001;0.0;6225705.600000001;0.0
68;DC_DUBAI;6225705.600000001;0.0;6225705.600000001;0.0
69;DC_DUBAI;3873347.8284338904;0.0;3873347.8284338904;0.0
70;DC_DUBAI;6225705.600000001;0.0;6225705.600000001;0.0
71;DC_DUBAI;6225705.600000001;0.0;6225705.600000001;0.0
72;DC_DUBAI;6225705.600000001;0.0;6225705.600000001;0.0
73;DC_DUBAI;2899770.8400000003;0.0;2899770.8400000003;0.0
74;DC_DUBAI;2844189.6;0.0;2844189.6;0.0
75;DC_DUBAI;2844189.6;0.0;2844189.6;0.0
76;DC_DUBAI;2844189.6;0.0;405473.245599781;2438716.354400219
77;DC_DUBAI;6225705.600000001;0.0;0.0;9982721.194121948
78;DC_DUBAI;6225705.600000001;0.0;0.0;17352194.57790901
79;DC_DUBAI;6225705.600000001;0.0;0.0;23187707.27914939
80;DC_DUBAI;6225705.600000001;0.0;0.0;26638062.82209999
81;DC_DUBAI;6225705.600000001;0.0;0.0;27481360.661268577
82;DC_DUBAI;6225705.600000001;0.0;0.0;25749494.619830552
83;DC_DUBAI;6225705.600000001;0.0;0.0;21384211.779509615
84;DC_DUBAI;6225705.600000001;0.0;0.0;14920244.153927045
85;DC_DUBAI;6225705.600000001;0.0;0.0;7035415.987251833
86;DC_DUBAI;6225705.600000001;0.0;5482411.697662896;743293.9023371041
87;DC_DUBAI;6225705.600000001;0.0;6225705.600000001;0.0
88;DC_DUBAI;6225705.600000001;0.0;6225705.600000001;0.0
89;DC_DUBAI;6225705.600000001;0.0;6225705.600000001;0.0
90;DC_DUBAI;6225705.600000001;0.0;6225705.600000001;0.0
91;DC_DUBAI;6225705.600000001;0.0;6225705.600000001;0.0
92;DC_DUBAI;6225705.600000001;0.0;6225705.600000001;0.0
93;DC_DUBAI;6225705.600000001;0.0;6225705.600000001;0.0
94;DC_DUBAI;6225705.600000001;0.0;6225705.600000001;0.0
95;DC_DUBAI;6225705.600000001;0.0;6225705.600000001;0.0
96;DC_DUBAI;6225705.600000001;0.0;6225705.600000001;0.0
97;DC_DUBAI;4597018.901912803;0.0;4597018.901912803;0.0
98;DC_DUBAI;2869453.8000000003;0.0;2869453.8000000003;0.0
99;DC_DUBAI;5187452.469978129;0.0;5187452.469978129;0.0
100;DC_DUBAI;5421165.366310448;0.0;2901886.7071652366;2519278.6591452123
101;DC_DUBAI;6225705.600000001;0.0;0.0;10155036.485837867
102;DC_DUBAI;6225705.600000001;0.0;0.0;17574678.52389644
103;DC_DUBAI;6225705.600000001;0.0;0.0;23435088.030684836
104;DC_DUBAI;6225705.600000001;0.0;0.0;26889894.843647446
105;DC_DUBAI;6225705.600000001;0.0;0.0;27728711.106284793
106;DC_DUBAI;6225705.600000001;0.0;0.0;25894765.131447982
107;DC_DUBAI;6225705.600000001;0.0;0.0;21497221.001405973
108;DC_DUBAI;6225705.600000001;0.0;0.0;14988869.478410048
109;DC_DUBAI;6225705.600000001;0.0;0.0;7170689.135838036
110;DC_DUBAI;6225705.600000001;0.0;5468319.166220623;757386.4337793769
111;DC_DUBAI;6225705.600000001;0.0;6225705.600000001;0.0
112;DC_DUBAI;6225705.600000001;0.0;6225705.600000001;0.0
113;DC_DUBAI;6225705.600000001;0.0;6225705.600000001;0.0
114;DC_DUBAI;6225705.600000001;0.0;6225705.600000001;0.0
115;DC_DUBAI;6225705.600000001;0.0;6225705.600000001;0.0
116;DC_DUBAI;6225705.600000001;0.0;6225705.600000001;0.0
117;DC_DUBAI;6225705.600000001;0.0;6225705.600000001;0.0
118;DC_DUBAI;6225705.600000001;0.0;6225705.600000001;0.0
119;DC_DUBAI;6225705.600000001;0.0;6225705.600000001;0.0
120;DC_DUBAI;6225705.600000001;0.0;6225705.600000001;0.0
121;DC_DUBAI;3517022.09125426;0.0;3517022.09125426;0.0
122;DC_DUBAI;6225705.600000001;0.0;6225705.600000001;0.0
123;DC_DUBAI;3892214.018197286;0.0;3892214.018197286;0.0
124;DC_DUBAI;3405832.2;0.0;1003930.689835267;2401901.510164733
125;DC_DUBAI;6225705.600000001;0.0;0.0;9799794.832360381
126;DC_DUBAI;6225705.600000001;0.0;0.0;17096267.387950506
127;DC_DUBAI;6225705.600000001;0.0;0.0;22838136.733082943
128;DC_DUBAI;6225705.600000001;0.0;0.0;26267232.252793215
129;DC_DUBAI;6225705.600000001;0.0;0.0;27099290.161642116
130;DC_DUBAI;6225705.600000001;0.0;0.0;25141504.172598884
131;DC_DUBAI;6225705.600000001;0.0;0.0;20765837.56112653
132;DC_DUBAI;6225705.600000001;0.0;0.0;14322285.164560735
133;DC_DUBAI;6225705.600000001;0.0;0.0;6699960.702517085
134;DC_DUBAI;6225705.600000001;0.0;5540827.51348006;684878.086519941
135;DC_DUBAI;6225705.600000001;0.0;6225705.600000001;0.0
136;DC_DUBAI;6225705.600000001;0.0;6225705.600000001;0.0
137;DC_DUBAI;6225705.600000001;0.0;6225705.600000001;0.0
138;DC_DUBAI;6225705.600000001;0.0;6225705.600000001;0.0
139;DC_DUBAI;6225705.600000001;0.0;6225705.600000001;0.0
140;DC_DUBAI;6225705.600000001;0.0;6225705.600000001;0.0
141;DC_DUBAI;6225705.600000001;0.0;6225705.600000001;0.0
142;DC_DUBAI;6225705.600000001;0.0;6225705.600000001;0.0
143;DC_DUBAI;6225705.600000001;0.0;6225705.600000001;0.0
144;DC_DUBAI;6225705.600000001;0.0;6225705.600000001;0.0
145;DC_DUBAI;4625797.643528834;0.0;4625797.643528834;0.0
146;DC_DUBAI;4770269.455887783;0.0;4770269.455887783;0.0
147;DC_DUBAI;3202941.24;0.0;3202941.24;0.0
148;DC_DUBAI;2844189.6;0.0;664491.7005198136;2179697.8994801864
149;DC_DUBAI;6225705.600000001;0.0;0.0;9182144.182123927
150;DC_DUBAI;6225705.600000001;0.0;0.0;16238532.2806834
151;DC_DUBAI;6225705.600000001;0.0;0.0;22695173.305241954
152;DC_DUBAI;6225705.600000001;0.0;0.0;26100868.403791223
153;DC_DUBAI;6225705.600000001;0.0;0.0;26942639.552053567
154;DC_DUBAI;6225705.600000001;0.0;0.0;25148535.285060406
155;DC_DUBAI;6225705.600000001;0.0;0.0;20800663.5400375
156;DC_DUBAI;6225705.600000001;0.0;0.0;14379420.529940402
157;DC_DUBAI;6225705.600000001;0.0;0.0;6739059.900639584
158;DC_DUBAI;6225705.600000001;0.0;5527318.382532977;698387.217467023
159;DC_DUBAI;6225705.600000001;0.0;6225705.600000001;0.0
160;DC_DUBAI;6225705.600000001;0.0;6225705.600000001;0.0
161;DC_DUBAI;6225705.600000001;0.0;6225705.600000001;0.0
162;DC_DUBAI;6225705.600000001;0.0;6225705.600000001;0.0
163;DC_DUBAI;6225705.600000001;0.0;6225705.600000001;0.0
164;DC_DUBAI;6225705.600000001;0.0;6225705.600000001;0.0
165;DC_DUBAI;6225705.600000001;0.0;6225705.600000001;0.0
166;DC_DUBAI;6225705.600000001;0.0;6225705.600000001;0.0
167;DC_DUBAI;6225705.600000001;0.0;6225705.600000001;0.0
1;DC_SINGAPORE;4136568.311545169;0.0;0.0;4136568.3115451694
2;DC_SINGAPORE;7381532.8;0.0;0.0;8022543.645984333
3;DC_SINGAPORE;7381532.8;0.0;0.0;11606317.085072517
4;DC_SINGAPORE;7381532.8;0.0;0.0;15104261.628550043
5;DC_SINGAPORE;7381532.8;0.0;0.0;18097402.1249706
6;DC_SINGAPORE;7381532.8;0.0;0.0;19626027.018645454
7;DC_SINGAPORE;7381532.8;0.0;0.0;19632992.537847735
8;DC_SINGAPORE;7381532.8;0.0;0.0;17728914.55917761
9;DC_SINGAPORE;7381532.8;0.0;0.0;13658946.775009047
10;DC_SINGAPORE;7381532.8;0.0;0.0;7925755.519527262
11;DC_SINGAPORE;3372224.8000000003;0.0;1332681.0061698954;2039543.7938301049
12;DC_SINGAPORE;3372224.8000000003;0.0;3370656.0391328726;1568.7608671274922
13;DC_SINGAPORE;4402663.04;0.0;4402663.039999999;0.0
14;DC_SINGAPORE;4704052.4;0.0;4704052.4;0.0
15;DC_SINGAPORE;7381532.8;0.0;7381532.800000001;0.0
16;DC_SINGAPORE;7381532.8;0.0;7381532.800000001;0.0
17;DC_SINGAPORE;3372224.8000000003;0.0;3372224.8;0.0
18;DC_SINGAPORE;3372224.8000000003;0.0;3372224.8;0.0
19;DC_SINGAPORE;7381532.8;0.0;7381532.800000001;0.0
20;DC_SINGAPORE;3372224.8000000003;0.0;3372224.8;0.0
21;DC_SINGAPORE;3372224.8000000003;0.0;3372224.8;0.0
22;DC_SINGAPORE;6463078.68;0.0;6463078.680000001;0.0
23;DC_SINGAPORE;3372224.8000000003;0.0;3372224.8;0.0
24;DC_SINGAPORE;3372224.8000000003;0.0;2379469.8375959354;992754.9624040644
25;DC_SINGAPORE;4770110.17821226;0.0;0.0;4770110.17821226
26;DC_SINGAPORE;7381532.8;0.0;0.0;9635030.96038007
27;DC_SINGAPORE;7381532.8;0.0;0.0;14932990.503739636
28;DC_SINGAPORE;7381532.8;0.0;0.0;18936192.04635549
29;DC_SINGAPORE;7112402.24;0.0;0.0;21004824.201897893
30;DC_SINGAPORE;7381532.8;0.0;0.0;21273728.595463507
31;DC_SINGAPORE;7381532.8;0.0;0.0;19097796.510893103
32;DC_SINGAPORE;7381532.8;0.0;0.0;14761962.426387519
33;DC_SINGAPORE;7381532.8;0.0;0.0;9870974.80431839
34;DC_SINGAPORE;5671424.058241576;0.0;0.0;5671424.058241575
35;DC_SINGAPORE;3372224.8000000003;0.0;1823962.7764566983;1548262.0235433015
36;DC_SINGAPORE;3692047.7600000002;0.0;3690838.0465144333;1209.7134855666225
37;DC_SINGAPORE;3372224.8000000003;0.0;3372224.8;0.0
38;DC_SINGAPORE;3372224.8000000003;0.0;3372224.8;0.0
39;DC_SINGAPORE;7381532.8;0.0;7381532.800000001;0.0
40;DC_SINGAPORE;3372224.8000000003;0.0;3372224.8;0.0
41;DC_SINGAPORE;7381532.8;0.0;7381532.800000001;0.0
42;DC_SINGAPORE;3933527.92;0.0;3933527.92;0.0
43;DC_SINGAPORE;3372224.8000000003;0.0;3372224.8;0.0
44;DC_SINGAPORE;7381532.8;0.0;7381532.800000001;0.0
45;DC_SINGAPORE;3372224.8000000003;0.0;3372224.8;0.0
46;DC_SINGAPORE;3372224.8000000003;0.0;3372224.8;0.0
47;DC_SINGAPORE;3372224.8000000003;0.0;3372224.8;0.0
48;DC_SINGAPORE;3372224.8000000003;0.0;2486725.5761769726;885499.2238230273
49;DC_SINGAPORE;4365513.493445991;0.0;0.0;4365513.493445991
50;DC_SINGAPORE;7381532.8;0.0;0.0;8789435.71016313
51;DC_SINGAPORE;7381532.8;0.0;0.0;11652148.102377294
52;DC_SINGAPORE;7381532.8;0.0;0.0;14278314.555813288
53;DC_SINGAPORE;4198050.08;0.0;0.0;14710861.698282601
54;DC_SINGAPORE;7381532.8;0.0;0.0;14855392.078875529
55;DC_SINGAPORE;7381532.8;0.0;0.0;14001881.214846639
56;DC_SINGAPORE;7381532.8;0.0;0.0;11363810.959760435
57;DC_SINGAPORE;7381532.8;0.0;0.0;8301153.366463826
58;DC_SINGAPORE;4782306.741573588;0.0;0.0;4782306.741573589
59;DC_SINGAPORE;3372224.8000000003;0.0;2004408.942817451;1367815.8571825488
60;DC_SINGAPORE;6562875.204683185;0.0;6561693.110226968;1182.0944562157863
61;DC_SINGAPORE;4123394.0;0.0;4123394.0;0.0
62;DC_SINGAPORE;7381532.8;0.0;7381532.800000001;0.0
63;DC_SINGAPORE;3372224.8000000003;0.0;3372224.8;0.0
64;DC_SINGAPORE;3372224.8000000003;0.0;3372224.8;0.0
65;DC_SINGAPORE;3372224.8000000003;0.0;3372224.8;0.0
66;DC_SINGAPORE;4058415.56;0.0;4058415.56;0.0
67;DC_SINGAPORE;3861176.04;0.0;3861176.04;0.0
68;DC_SINGAPORE;3743201.0;0.0;3743201.0;0.0
69;DC_SINGAPORE;6346104.061139565;0.0;6346104.061139566;0.0
70;DC_SINGAPORE;3693430.2800000003;0.0;3693430.2800000003;0.0
71;DC_SINGAPORE;4189704.5620285748;0.0;4189704.562028575;0.0
72;DC_SINGAPORE;3778224.84;0.0;2503164.730989299;1275060.1090107008
73;DC_SINGAPORE;7381532.8;0.0;1179867.5686693331;6201665.231330668
74;DC_SINGAPORE;7381532.8;0.0;0.0;13055051.174447145
75;DC_SINGAPORE;7381532.8;0.0;0.0;20862901.05767569
76;DC_SINGAPORE;7381532.8;0.0;0.0;27464561.643482774
77;DC_SINGAPORE;7381532.8;0.0;0.0;31933469.73520656
78;DC_SINGAPORE;7381532.8;0.0;0.0;31942744.20526256
79;DC_SINGAPORE;7381532.8;0.0;0.0;27476570.397444516
80;DC_SINGAPORE;7381532.8;0.0;0.0;19810864.610672988
81;DC_SINGAPORE;7381532.8;0.0;0.0;12425972.54292315
82;DC_SINGAPORE;5891249.43665075;0.0;0.0;5891249.43665075
83;DC_SINGAPORE;3503564.2;0.0;2023344.417165418;1480219.7828345818
84;DC_SINGAPORE;3766243.0;0.0;3765303.9530020715;939.0469979284286
85;DC_SINGAPORE;7381532.8;0.0;7381532.800000001;0.0
86;DC_SINGAPORE;7381532.8;0.0;7381532.800000001;0.0
87;DC_SINGAPORE;7381532.8;0.0;7381532.800000001;0.0
88;DC_SINGAPORE;3743661.84;0.0;3743661.84;0.0
89;DC_SINGAPORE;3822004.64;0.0;3822004.64;0.0
90;DC_SINGAPORE;7381532.8;0.0;7381532.800000001;0.0
91;DC_SINGAPORE;7381532.8;0.0;7381532.800000001;0.0
92;DC_SINGAPORE;7381532.8;0.0;7381532.800000001;0.0
93;DC_SINGAPORE;7381532.8;0.0;7381532.800000001;0.0
94;DC_SINGAPORE;7381532.8;0.0;7381532.800000001;0.0
95;DC_SINGAPORE;7381532.8;0.0;7381532.800000001;0.0
96;DC_SINGAPORE;3372224.8000000003;0.0;2191019.67652931;1181205.1234706896
97;DC_SINGAPORE;5529556.15207807;0.0;0.0;5529556.152078071
98;DC_SINGAPORE;7381532.8;0.0;0.0;10849975.490105739
99;DC_SINGAPORE;7381532.8;0.0;0.0;16086283.836148372
100;DC_SINGAPORE;7381532.8;0.0;0.0;19497399.675152738
101;DC_SINGAPORE;7381532.8;0.0;0.0;21523377.001765713
102;DC_SINGAPORE;7381532.8;0.0;0.0;23413739.370460212
103;DC_SINGAPORE;7301346.640000001;0.0;0.0;24038238.766917836
104;DC_SINGAPORE;7381532.8;0.0;0.0;20779524.731871385
105;DC_SINGAPORE;7381532.8;0.0;0.0;16162992.928267386
106;DC_SINGAPORE;7381532.8;0.0;0.0;9382018.55630293
107;DC_SINGAPORE;3372224.8000000003;0.0;750841.9624475705;2621382.837552429
108;DC_SINGAPORE;6358278.846095531;0.0;6356201.895088349;2076.951007182877
109;DC_SINGAPORE;3654719.72;0.0;3654719.72;0.0
110;DC_SINGAPORE;7381532.8;0.0;7381532.800000001;0.0
111;DC_SINGAPORE;3585132.88;0.0;3585132.88;0.0
112;DC_SINGAPORE;3372224.8000000003;0.0;3372224.8;0.0
113;DC_SINGAPORE;3372224.8000000003;0.0;3372224.8;0.0
114;DC_SINGAPORE;7381532.8;0.0;7381532.800000001;0.0
115;DC_SINGAPORE;7381532.8;0.0;7381532.800000001;0.0
116;DC_SINGAPORE;7381532.8;0.0;7381532.800000001;0.0
117;DC_SINGAPORE;7310047.144835904;0.0;7310047.144835905;0.0
118;DC_SINGAPORE;3703107.92;0.0;3703107.92;0.0
119;DC_SINGAPORE;7381532.8;0.0;7381532.800000001;0.0
120;DC_SINGAPORE;3372224.8000000003;0.0;2146878.9438208044;1225345.8561791957
121;DC_SINGAPORE;7134950.899736511;0.0;0.0;7134950.899736512
122;DC_SINGAPORE;7381532.8;0.0;0.0;14545169.617401067
123;DC_SINGAPORE;7381532.8;0.0;0.0;21662891.766628526
124;DC_SINGAPORE;7381532.8;0.0;0.0;26552537.1038712
125;DC_SINGAPORE;7381532.8;0.0;0.0;29485429.44966585
126;DC_SINGAPORE;7381532.8;0.0;0.0;29871836.24170165
127;DC_SINGAPORE;7381532.8;0.0;0.0;25600895.8285588
128;DC_SINGAPORE;7381532.8;0.0;0.0;20807408.90390399
129;DC_SINGAPORE;7381532.8;0.0;0.0;15138398.748827673
130;DC_SINGAPORE;7381532.8;0.0;0.0;8508793.229123414
131;DC_SINGAPORE;3372224.8000000003;0.0;1210516.515545277;2161708.284454723
132;DC_SINGAPORE;3778685.68;0.0;3777238.442862016;1447.2371379838135
133;DC_SINGAPORE;4950638.383805741;0.0;4950638.38380574;0.0
134;DC_SINGAPORE;7381532.8;0.0;7381532.800000001;0.0
135;DC_SINGAPORE;3372224.8000000003;0.0;3372224.8;0.0
136;DC_SINGAPORE;7381532.8;0.0;7381532.800000001;0.0
137;DC_SINGAPORE;3372224.8000000003;0.0;3372224.8;0.0
138;DC_SINGAPORE;7381532.8;0.0;7381532.800000001;0.0
139;DC_SINGAPORE;3372224.8000000003;0.0;3372224.8;0.0
140;DC_SINGAPORE;7381532.8;0.0;7381532.800000001;0.0
141;DC_SINGAPORE;7381532.8;0.0;7381532.800000001;0.0
142;DC_SINGAPORE;7381532.8;0.0;7381532.800000001;0.0
143;DC_SINGAPORE;3652415.52;0.0;3652415.52;0.0
144;DC_SINGAPORE;3372224.8000000003;0.0;2116895.7255575364;1255329.0744424635
145;DC_SINGAPORE;5903738.761723198;0.0;0.0;5903738.761723198
146;DC_SINGAPORE;7381532.8;0.0;0.0;11517787.048391346
147;DC_SINGAPORE;7381532.8;0.0;0.0;16254108.106095793
148;DC_SINGAPORE;7381532.8;0.0;0.0;18677329.931861844
149;DC_SINGAPORE;7381532.8;0.0;0.0;19798452.618882723
150;DC_SINGAPORE;7381532.8;0.0;0.0;20375193.18978688
151;DC_SINGAPORE;7381532.8;0.0;0.0;18153374.849853
152;DC_SINGAPORE;7381532.8;0.0;0.0;14811538.584072271
153;DC_SINGAPORE;7381532.8;0.0;0.0;11044579.170911731
154;DC_SINGAPORE;4280540.44;0.0;0.0;6240806.919726673
155;DC_SINGAPORE;4116020.56;0.0;2352114.67909124;1763905.88090876
156;DC_SINGAPORE;4128463.24;0.0;4127054.669503107;1408.5704968926425
157;DC_SINGAPORE;4218787.88;0.0;4218787.88;0.0
158;DC_SINGAPORE;7381532.8;0.0;7381532.800000001;0.0
159;DC_SINGAPORE;7381532.8;0.0;7381532.800000001;0.0
160;DC_SINGAPORE;7381532.8;0.0;7381532.800000001;0.0
161;DC_SINGAPORE;7381532.8;0.0;7381532.800000001;0.0
162;DC_SINGAPORE;7381532.8;0.0;7381532.800000001;0.0
163;DC_SINGAPORE;7381532.8;0.0;7381532.800000001;0.0
164;DC_SINGAPORE;3584211.2;0.0;3584211.1999999997;0.0
165;DC_SINGAPORE;3450567.6;0.0;3450567.5999999996;0.0
166;DC_SINGAPORE;7381532.8;0.0;7381532.800000001;0.0
167;DC_SINGAPORE;3448724.24;0.0;3448724.24;0.0
1;DC_PUNE;3372224.8000000003;0.0;3372224.8;0.0
2;DC_PUNE;3372224.8000000003;0.0;3093537.288134923;278687.51186507684
3;DC_PUNE;5252992.322630415;0.0;0.0;5252992.322630415
4;DC_PUNE;7381532.8;0.0;0.0;13496020.67420637
5;DC_PUNE;7381532.8;0.0;0.0;20967381.77904878
6;DC_PUNE;7381532.8;0.0;0.0;27022704.71282582
7;DC_PUNE;7381532.8;0.0;0.0;29988730.3712904
8;DC_PUNE;7381532.8;0.0;0.0;29029792.01862001
9;DC_PUNE;7381532.8;0.0;0.0;25024662.988353763
10;DC_PUNE;7381532.8;0.0;0.0;18861602.467010215
11;DC_PUNE;7381532.8;0.0;0.0;11315706.483623479
12;DC_PUNE;4424152.021089837;0.0;0.0;4424152.021089837
13;DC_PUNE;3372224.8000000003;0.0;2919532.145366199;452692.65463380085
14;DC_PUNE;3372224.8000000003;0.0;3372224.8;0.0
15;DC_PUNE;3372224.8000000003;0.0;3372224.8;0.0
16;DC_PUNE;3372224.8000000003;0.0;3372224.8;0.0
17;DC_PUNE;7381532.8;0.0;7381532.800000001;0.0
18;DC_PUNE;7381532.8;0.0;7381532.800000001;0.0
19;DC_PUNE;3372224.8000000003;0.0;3372224.8;0.0
20;DC_PUNE;3372224.8000000003;0.0;3372224.8;0.0
21;DC_PUNE;7381532.8;0.0;7381532.800000001;0.0
22;DC_PUNE;7381532.8;0.0;7381532.800000001;0.0
23;DC_PUNE;3372224.8000000003;0.0;3372224.8;0.0
24;DC_PUNE;6245562.2;0.0;6245562.2;0.0
25;DC_PUNE;3372224.8000000003;0.0;3372224.8;0.0
26;DC_PUNE;6889355.68;0.0;6725565.7291176915;163789.95088230906
27;DC_PUNE;3372224.8000000003;0.0;256755.8206163494;3115468.9793836502
28;DC_PUNE;7381532.8;0.0;0.0;8356658.463848395
29;DC_PUNE;3372224.8000000003;0.0;0.0;13793164.018169237
30;DC_PUNE;4692265.376245622;0.0;0.0;19947512.49732494
31;DC_PUNE;3411857.04;0.0;0.0;24257807.599531017
32;DC_PUNE;5601429.132091787;0.0;0.0;25468919.32648407
33;DC_PUNE;7381532.8;0.0;0.0;20734513.649859253
34;DC_PUNE;7381532.8;0.0;0.0;15004809.407737168
35;DC_PUNE;7381532.8;0.0;0.0;9134191.552157117
36;DC_PUNE;7381532.8;0.0;4128374.4187899265;3253158.3812100734
37;DC_PUNE;7381532.8;0.0;7066725.223484744;314807.5765152564
38;DC_PUNE;7381532.8;0.0;7381532.800000001;0.0
39;DC_PUNE;3372224.8000000003;0.0;3372224.8;0.0
40;DC_PUNE;7381532.8;0.0;7381532.800000001;0.0
41;DC_PUNE;3372224.8000000003;0.0;3372224.8;0.0
42;DC_PUNE;7381532.8;0.0;7381532.800000001;0.0
43;DC_PUNE;7381532.8;0.0;7381532.800000001;0.0
44;DC_PUNE;3372224.8000000003;0.0;3372224.8;0.0
45;DC_PUNE;7381532.8;0.0;7381532.800000001;0.0
46;DC_PUNE;7381532.8;0.0;7381532.800000001;0.0
47;DC_PUNE;7381532.8;0.0;7381532.800000001;0.0
48;DC_PUNE;7381532.8;0.0;7381532.800000001;0.0
49;DC_PUNE;7381532.8;0.0;7381532.800000001;0.0
50;DC_PUNE;3372224.8000000003;0.0;3151839.928810108;220384.87118989156
51;DC_PUNE;3635305.285345746;0.0;0.0;3635305.2853457457
52;DC_PUNE;7381532.8;0.0;0.0;9555028.995871287
53;DC_PUNE;3372224.8000000003;0.0;0.0;17774971.992165405
54;DC_PUNE;3871314.52;0.0;0.0;24039535.14285834
55;DC_PUNE;7381532.8;0.0;0.0;27685971.740912706
56;DC_PUNE;7381532.8;0.0;0.0;28612627.952571567
57;DC_PUNE;7381532.8;0.0;0.0;25330238.201631673
58;DC_PUNE;7381532.8;0.0;0.0;18742404.47478924
59;DC_PUNE;7381532.8;0.0;0.0;11303178.75373927
60;DC_PUNE;4851726.9553168155;0.0;0.0;4851726.955316815
61;DC_PUNE;7381532.8;0.0;6918584.928783669;462947.87121633155
62;DC_PUNE;3779607.36;0.0;3779607.36;0.0
63;DC_PUNE;7381532.8;0.0;7381532.800000001;0.0
64;DC_PUNE;7381532.8;0.0;7381532.800000001;0.0
65;DC_PUNE;7381532.8;0.0;7381532.800000001;0.0
66;DC_PUNE;7381532.8;0.0;7381532.800000001;0.0
67;DC_PUNE;3372224.8000000003;0.0;3372224.8;0.0
68;DC_PUNE;7381532.8;0.0;7381532.800000001;0.0
69;DC_PUNE;7381532.8;0.0;7381532.800000001;0.0
70;DC_PUNE;7381532.8;0.0;7381532.800000001;0.0
71;DC_PUNE;6809219.917971426;0.0;6809219.917971425;0.0
72;DC_PUNE;7381532.8;0.0;7381532.800000001;0.0
73;DC_PUNE;3372224.8000000003;0.0;3372224.8;0.0
74;DC_PUNE;3801727.68;0.0;3580520.0789455078;221207.60105449185
75;DC_PUNE;4495053.54666455;0.0;0.0;4495053.54666455
76;DC_PUNE;4994824.117734444;0.0;0.0;12972586.59278232
77;DC_PUNE;3681448.44;0.0;0.0;21775778.355251156
78;DC_PUNE;7381532.8;0.0;0.0;28166459.32340462
79;DC_PUNE;3525223.68;0.0;0.0;27229823.620847583
80;DC_PUNE;7381532.8;0.0;0.0;25842505.392839447
81;DC_PUNE;7381532.8;0.0;0.0;19689806.820601396
82;DC_PUNE;7381532.8;0.0;0.0;11434868.898336798
83;DC_PUNE;7381532.8;0.0;329554.90824622393;7051977.891753776
84;DC_PUNE;7381532.8;0.0;4134226.918799732;3247305.881200269
85;DC_PUNE;3783754.92;0.0;3431635.432328008;352119.48767199204
86;DC_PUNE;3733523.36;0.0;3733523.3600000003;0.0
87;DC_PUNE;3845046.64;0.0;3845046.64;0.0
88;DC_PUNE;7381532.8;0.0;7381532.800000001;0.0
89;DC_PUNE;7381532.8;0.0;7381532.800000001;0.0
90;DC_PUNE;3795275.92;0.0;3795275.92;0.0
91;DC_PUNE;3372224.8000000003;0.0;3372224.8;0.0
92;DC_PUNE;3749652.7600000002;0.0;3749652.76;0.0
93;DC_PUNE;3918320.2;0.0;3918320.2;0.0
94;DC_PUNE;3372685.64;0.0;3372685.64;0.0
95;DC_PUNE;3864862.7600000002;0.0;3864862.76;0.0
96;DC_PUNE;6555290.9038313795;0.0;6555290.9038313795;0.0
97;DC_PUNE;3372224.8000000003;0.0;3372224.8;0.0
98;DC_PUNE;3372224.8000000003;0.0;3147539.4975719005;224685.30242809938
99;DC_PUNE;3372224.8000000003;0.0;0.0;4392514.722404615
100;DC_PUNE;3372224.8000000003;0.0;0.0;11684649.685229432
101;DC_PUNE;7381532.8;0.0;0.0;18416679.050611313
102;DC_PUNE;3372224.8000000003;0.0;0.0;23094085.112778936
103;DC_PUNE;7381532.8;0.0;0.0;23454356.296893157
104;DC_PUNE;7381532.8;0.0;0.0;22774501.25586054
105;DC_PUNE;7381532.8;0.0;0.0;20324811.966042154
106;DC_PUNE;3451028.44;0.0;0.0;15292724.835651139
107;DC_PUNE;7381532.8;0.0;0.0;10019102.005767316
108;DC_PUNE;4489490.113904469;0.0;0.0;4489490.113904469
109;DC_PUNE;7381532.8;0.0;6944676.583462641;436856.2165373604
110;DC_PUNE;3372224.8000000003;0.0;3372224.8;0.0
111;DC_PUNE;7381532.8;0.0;7381532.800000001;0.0
112;DC_PUNE;7381532.8;0.0;7381532.800000001;0.0
113;DC_PUNE;7250654.24;0.0;7250654.24;0.0
114;DC_PUNE;3598036.4;0.0;3598036.4;0.0
115;DC_PUNE;3372224.8000000003;0.0;3372224.8;0.0
116;DC_PUNE;3941362.2;0.0;3941362.2;0.0
117;DC_PUNE;3372224.8000000003;0.0;3372224.8;0.0
118;DC_PUNE;7381532.8;0.0;7381532.800000001;0.0
119;DC_PUNE;3543196.44;0.0;3543196.44;0.0
120;DC_PUNE;6071680.326268284;0.0;6071680.326268285;0.0
121;DC_PUNE;3372224.8000000003;0.0;3372224.8;0.0
122;DC_PUNE;3372224.8000000003;0.0;3156371.6138480958;215853.1861519043
123;DC_PUNE;3372224.8000000003;0.0;0.0;4407283.835271303
124;DC_PUNE;7381532.8;0.0;0.0;12294657.184351714
125;DC_PUNE;7381532.8;0.0;0.0;19879563.904885877
126;DC_PUNE;4922214.095220596;0.0;0.0;27807513.401450682
127;DC_PUNE;7381532.8;0.0;0.0;30526942.459958058
128;DC_PUNE;7381532.8;0.0;0.0;28798435.933505967
129;DC_PUNE;7381532.8;0.0;0.0;24001062.51551425
130;DC_PUNE;3675457.52;0.0;0.0;20299623.09062002
131;DC_PUNE;7381532.8;0.0;0.0;11807352.06195476
132;DC_PUNE;7381532.8;0.0;2577879.951906584;4803652.848093417
133;DC_PUNE;3372224.8000000003;0.0;2922560.680705619;449664.1192943805
134;DC_PUNE;4147357.68;0.0;4147357.68;0.0
135;DC_PUNE;6041573.106620708;0.0;6041573.106620708;0.0
136;DC_PUNE;3741357.64;0.0;3741357.64;0.0
137;DC_PUNE;7381532.8;0.0;7381532.800000001;0.0
138;DC_PUNE;3372224.8000000003;0.0;3372224.8;0.0
139;DC_PUNE;7381532.8;0.0;7381532.800000001;0.0
140;DC_PUNE;3861636.88;0.0;3861636.88;0.0
141;DC_PUNE;3372224.8000000003;0.0;3372224.8;0.0
142;DC_PUNE;3521536.96;0.0;3521536.96;0.0
143;DC_PUNE;3372224.8000000003;0.0;3372224.8;0.0
144;DC_PUNE;6115214.191304094;0.0;6115214.191304094;0.0
145;DC_PUNE;3372224.8000000003;0.0;3372224.8;0.0
146;DC_PUNE;3372224.8000000003;0.0;3280995.1759869754;91229.62401302438
147;DC_PUNE;3372224.8000000003;0.0;1583343.2430516204;1788881.5569483796
148;DC_PUNE;5015939.389102567;0.0;0.0;5015939.389102568
149;DC_PUNE;3372224.8000000003;0.0;0.0;9050024.063414283
150;DC_PUNE;3372224.8000000003;0.0;0.0;12348312.513089024
151;DC_PUNE;4080535.88;0.0;0.0;13330634.182667892
152;DC_PUNE;3851498.4;0.0;0.0;13517558.407905068
153;DC_PUNE;4302660.76;0.0;0.0;12530322.595080886
154;DC_PUNE;7381532.8;0.0;0.0;10155821.920510048
155;DC_PUNE;7381532.8;0.0;354223.4626188601;7027309.33738114
156;DC_PUNE;7381532.8;0.0;4123611.4799521603;3257921.3200478405
157;DC_PUNE;7381532.8;0.0;7021039.256462916;360493.54353708535
158;DC_PUNE;4053807.16;0.0;4053807.1599999997;0.0
159;DC_PUNE;4274549.5200000005;0.0;4274549.5200000005;0.0
160;DC_PUNE;4292061.44;0.0;4292061.44;0.0
161;DC_PUNE;4212796.96;0.0;4212796.96;0.0
162;DC_PUNE;3962100.0;0.0;3962100.0;0.0
163;DC_PUNE;3633060.24;0.0;3633060.2399999998;0.0
164;DC_PUNE;7381532.8;0.0;7381532.800000001;0.0
165;DC_PUNE;7381532.8;0.0;7381532.800000001;0.0
166;DC_PUNE;3639051.16;0.0;3639051.16;0.0
167;DC_PUNE;3372224.8000000003;0.0;3372224.8;0.0
1;DC_JOHANNESBURG;2844189.6;0.0;2844189.6;0.0
2;DC_JOHANNESBURG;2844189.6;0.0;2844189.6;0.0
3;DC_JOHANNESBURG;2844189.6;0.0;2844189.6;0.0
4;DC_JOHANNESBURG;2844189.6;0.0;1858182.8059550198;986006.7940449803
5;DC_JOHANNESBURG;3351417.0;0.0;0.0;6999787.1996071795
6;DC_JOHANNESBURG;4220894.16;0.0;0.0;14085248.856290758
7;DC_JOHANNESBURG;4732397.04;0.0;0.0;19686752.764296666
8;DC_JOHANNESBURG;6225705.600000001;0.0;0.0;22597933.605060406
9;DC_JOHANNESBURG;6225705.600000001;0.0;0.0;23256043.639546882
10;DC_JOHANNESBURG;6225705.600000001;0.0;0.0;18197938.986992512
11;DC_JOHANNESBURG;6225705.600000001;0.0;0.0;14127122.534255022
12;DC_JOHANNESBURG;6225705.600000001;0.0;0.0;14270200.64158575
13;DC_JOHANNESBURG;6225705.600000001;0.0;0.0;11063577.554722654
14;DC_JOHANNESBURG;6225705.600000001;0.0;0.0;8786502.856427401
15;DC_JOHANNESBURG;6225705.600000001;0.0;276082.0195263623;5949623.580473638
16;DC_JOHANNESBURG;6009944.575965151;0.0;2874444.5019323877;3135500.0740327653
17;DC_JOHANNESBURG;2844189.6;0.0;2198524.1789709944;645665.4210290055
18;DC_JOHANNESBURG;6225705.600000001;0.0;6225705.600000001;0.0
19;DC_JOHANNESBURG;2844189.6;0.0;2844189.6;0.0
20;DC_JOHANNESBURG;6225705.600000001;0.0;6225705.600000001;0.0
21;DC_JOHANNESBURG;2844189.6;0.0;2844189.6;0.0
22;DC_JOHANNESBURG;2844189.6;0.0;2844189.6;0.0
23;DC_JOHANNESBURG;6225705.600000001;0.0;6225705.600000001;0.0
24;DC_JOHANNESBURG;2844189.6;0.0;2844189.6;0.0
25;DC_JOHANNESBURG;4368848.268482898;0.0;4368848.268482898;0.0
26;DC_JOHANNESBURG;2844189.6;0.0;2844189.6;0.0
27;DC_JOHANNESBURG;2844189.6;0.0;2844189.6;0.0
28;DC_JOHANNESBURG;2844189.6;0.0;2535670.3583739265;308519.2416260737
29;DC_JOHANNESBURG;2844189.6;0.0;16090.449828744113;2828099.150171256
30;DC_JOHANNESBURG;2844189.6;0.0;0.0;5441777.510620558
31;DC_JOHANNESBURG;2844189.6;0.0;0.0;7561668.653114171
32;DC_JOHANNESBURG;3317589.5505885556;0.0;0.0;9408993.138781805
33;DC_JOHANNESBURG;6225705.600000001;0.0;0.0;8758678.045380484
34;DC_JOHANNESBURG;6225705.600000001;0.0;0.0;9123672.334117094
35;DC_JOHANNESBURG;6225705.600000001;0.0;0.0;10774861.856844086
36;DC_JOHANNESBURG;6225705.600000001;0.0;0.0;12404473.837702995
37;DC_JOHANNESBURG;6225705.600000001;0.0;0.0;12632627.303307675
38;DC_JOHANNESBURG;6225705.600000001;0.0;0.0;11329743.839342505
39;DC_JOHANNESBURG;6225705.600000001;0.0;0.0;8504410.528642537
40;DC_JOHANNESBURG;6225705.600000001;0.0;1502497.1780127143;4723208.421987286
41;DC_JOHANNESBURG;6225705.600000001;0.0;4964842.260373027;1260863.339626973
42;DC_JOHANNESBURG;6225705.600000001;0.0;6225705.600000001;0.0
43;DC_JOHANNESBURG;6225705.600000001;0.0;6225705.600000001;0.0
44;DC_JOHANNESBURG;3391839.72;0.0;3391839.7199999997;0.0
45;DC_JOHANNESBURG;6225705.600000001;0.0;6225705.600000001;0.0
46;DC_JOHANNESBURG;6225705.600000001;0.0;6225705.600000001;0.0
47;DC_JOHANNESBURG;6225705.600000001;0.0;6225705.600000001;0.0
48;DC_JOHANNESBURG;6225705.600000001;0.0;6225705.600000001;0.0
49;DC_JOHANNESBURG;6224777.695705695;0.0;6224777.695705694;0.0
50;DC_JOHANNESBURG;3557417.4000000004;0.0;3557417.4000000004;0.0
51;DC_JOHANNESBURG;3136915.532003766;0.0;3136915.532003766;0.0
52;DC_JOHANNESBURG;3526323.0;0.0;2486463.880268522;1039859.1197314777
53;DC_JOHANNESBURG;6225705.600000001;0.0;3.092281986015587e-09;7348063.303428878
54;DC_JOHANNESBURG;6225705.600000001;0.0;0.0;14759271.620635523
55;DC_JOHANNESBURG;6225705.600000001;0.0;0.0;20267818.692788642
56;DC_JOHANNESBURG;6225705.600000001;0.0;0.0;25508066.022919863
57;DC_JOHANNESBURG;6225705.600000001;0.0;0.0;30211291.17151891
58;DC_JOHANNESBURG;6225705.600000001;0.0;0.0;32624990.351711877
59;DC_JOHANNESBURG;6225705.600000001;0.0;0.0;33255202.351964463
60;DC_JOHANNESBURG;6225705.600000001;0.0;0.0;32371068.98094868
61;DC_JOHANNESBURG;6225705.600000001;0.0;0.0;28077873.709396746
62;DC_JOHANNESBURG;6225705.600000001;0.0;0.0;22466697.68405802
63;DC_JOHANNESBURG;6225705.600000001;0.0;0.0;15222038.83393125
64;DC_JOHANNESBURG;6225705.600000001;0.0;0.0;6862064.369904981
65;DC_JOHANNESBURG;6225705.600000001;0.0;4767602.29297454;1458103.30702546
66;DC_JOHANNESBURG;6225705.600000001;0.0;6225705.600000001;0.0
67;DC_JOHANNESBURG;6225705.600000001;0.0;6225705.600000001;0.0
68;DC_JOHANNESBURG;6225705.600000001;0.0;6225705.600000001;0.0
69;DC_JOHANNESBURG;6225705.600000001;0.0;6225705.600000001;0.0
70;DC_JOHANNESBURG;6225705.600000001;0.0;6225705.600000001;0.0
71;DC_JOHANNESBURG;6225705.600000001;0.0;6225705.600000001;0.0
72;DC_JOHANNESBURG;6225705.600000001;0.0;6225705.600000001;0.0
73;DC_JOHANNESBURG;6225705.600000001;0.0;6225705.600000001;0.0
74;DC_JOHANNESBURG;6225705.600000001;0.0;6225705.600000001;0.0
75;DC_JOHANNESBURG;6225705.600000001;0.0;6225705.600000001;0.0
76;DC_JOHANNESBURG;6225705.600000001;0.0;5432555.367115613;793150.2328843869
77;DC_JOHANNESBURG;6225705.600000001;0.0;286373.205621705;5939332.394378294
78;DC_JOHANNESBURG;6225705.600000001;0.0;0.0;14010797.516780173
79;DC_JOHANNESBURG;6225705.600000001;0.0;0.0;21584528.02578358
80;DC_JOHANNESBURG;6225705.600000001;0.0;0.0;27389199.65100551
81;DC_JOHANNESBURG;6225705.600000001;0.0;0.0;31831583.837673105
82;DC_JOHANNESBURG;6225705.600000001;0.0;0.0;34549229.13863348
83;DC_JOHANNESBURG;6225705.600000001;0.0;0.0;35022916.591767125
84;DC_JOHANNESBURG;6225705.600000001;0.0;0.0;32665053.419962082
85;DC_JOHANNESBURG;6225705.600000001;0.0;0.0;28500065.292133506
86;DC_JOHANNESBURG;6225705.600000001;0.0;0.0;22468268.6542511
87;DC_JOHANNESBURG;6225705.600000001;0.0;0.0;14909725.299889687
88;DC_JOHANNESBURG;6225705.600000001;0.0;0.0;7293032.750097571
89;DC_JOHANNESBURG;6225705.600000001;0.0;4664267.734532719;1561437.8654672822
90;DC_JOHANNESBURG;6225705.600000001;0.0;6225705.600000001;0.0
91;DC_JOHANNESBURG;6225705.600000001;0.0;6225705.600000001;0.0
92;DC_JOHANNESBURG;6225705.600000001;0.0;6225705.600000001;0.0
93;DC_JOHANNESBURG;6225705.600000001;0.0;6225705.600000001;0.0
94;DC_JOHANNESBURG;6225705.600000001;0.0;6225705.600000001;0.0
95;DC_JOHANNESBURG;6225705.600000001;0.0;6225705.600000001;0.0
96;DC_JOHANNESBURG;6225705.600000001;0.0;6225705.600000001;0.0
97;DC_JOHANNESBURG;6225705.600000001;0.0;6225705.600000001;0.0
98;DC_JOHANNESBURG;6225705.600000001;0.0;6225705.600000001;0.0
99;DC_JOHANNESBURG;6225705.600000001;0.0;6225705.600000001;0.0
100;DC_JOHANNESBURG;6225705.600000001;0.0;5386158.493192883;839547.106807117
101;DC_JOHANNESBURG;6225705.600000001;0.0;0.0;6748774.78636252
102;DC_JOHANNESBURG;6225705.600000001;0.0;0.0;14718935.629597532
103;DC_JOHANNESBURG;6225705.600000001;0.0;0.0;22200761.05397911
104;DC_JOHANNESBURG;6225705.600000001;0.0;0.0;27919358.822923005
105;DC_JOHANNESBURG;6225705.600000001;0.0;0.0;32005475.59340962
106;DC_JOHANNESBURG;6225705.600000001;0.0;0.0;34666685.78717962
107;DC_JOHANNESBURG;6225705.600000001;0.0;0.0;34433603.06976148
108;DC_JOHANNESBURG;6225705.600000001;0.0;0.0;31183878.152389105
109;DC_JOHANNESBURG;6225705.600000001;0.0;0.0;26348728.11916486
110;DC_JOHANNESBURG;6225705.600000001;0.0;0.0;18935010.24364131
111;DC_JOHANNESBURG;6225705.600000001;0.0;0.0;10665286.68587679
112;DC_JOHANNESBURG;6225705.600000001;0.0;2267436.5139552746;3958269.0860447255
113;DC_JOHANNESBURG;6225705.600000001;0.0;5483681.793250983;742023.806749017
114;DC_JOHANNESBURG;6225705.600000001;0.0;6225705.600000001;0.0
115;DC_JOHANNESBURG;6225705.600000001;0.0;6225705.600000001;0.0
116;DC_JOHANNESBURG;6225705.600000001;0.0;6225705.600000001;0.0
117;DC_JOHANNESBURG;6225705.600000001;0.0;6225705.600000001;0.0
118;DC_JOHANNESBURG;6225705.600000001;0.0;6225705.600000001;0.0
119;DC_JOHANNESBURG;6225705.600000001;0.0;6225705.600000001;0.0
120;DC_JOHANNESBURG;6225705.600000001;0.0;6225705.600000001;0.0
121;DC_JOHANNESBURG;6225705.600000001;0.0;6225705.600000001;0.0
122;DC_JOHANNESBURG;6225705.600000001;0.0;6225705.600000001;0.0
123;DC_JOHANNESBURG;6225705.600000001;0.0;6225705.600000001;0.0
124;DC_JOHANNESBURG;6225705.600000001;0.0;5815103.250763879;410602.3492361207
125;DC_JOHANNESBURG;6225705.600000001;0.0;2197461.773829631;4028243.826170369
126;DC_JOHANNESBURG;6225705.600000001;0.0;0.0;10698689.77243981
127;DC_JOHANNESBURG;6225705.600000001;0.0;0.0;17757854.32002271
128;DC_JOHANNESBURG;6225705.600000001;0.0;0.0;22486341.468124878
129;DC_JOHANNESBURG;6225705.600000001;0.0;0.0;25202572.23024614
130;DC_JOHANNESBURG;6225705.600000001;0.0;0.0;27066984.34509019
131;DC_JOHANNESBURG;6225705.600000001;0.0;0.0;27058091.056200556
132;DC_JOHANNESBURG;6225705.600000001;0.0;0.0;24995793.278582048
133;DC_JOHANNESBURG;6225705.600000001;0.0;0.0;21869742.32399452
134;DC_JOHANNESBURG;6225705.600000001;0.0;0.0;17164480.23946716
135;DC_JOHANNESBURG;6225705.600000001;0.0;0.0;10271815.23406393
136;DC_JOHANNESBURG;6225705.600000001;0.0;484684.89421123377;5741020.705788766
137;DC_JOHANNESBURG;6225705.600000001;0.0;4925900.838214065;1299804.7617859356
138;DC_JOHANNESBURG;6225705.600000001;0.0;6225705.600000001;0.0
139;DC_JOHANNESBURG;6225705.600000001;0.0;6225705.600000001;0.0
140;DC_JOHANNESBURG;6225705.600000001;0.0;6225705.600000001;0.0
141;DC_JOHANNESBURG;6225705.600000001;0.0;6225705.600000001;0.0
142;DC_JOHANNESBURG;6225705.600000001;0.0;6225705.600000001;0.0
143;DC_JOHANNESBURG;6225705.600000001;0.0;6225705.600000001;0.0
144;DC_JOHANNESBURG;6225705.600000001;0.0;6225705.600000001;0.0
145;DC_JOHANNESBURG;6225705.600000001;0.0;6225705.600000001;0.0
146;DC_JOHANNESBURG;6225705.600000001;0.0;6225705.600000001;0.0
147;DC_JOHANNESBURG;6225705.600000001;0.0;6225705.600000001;0.0
148;DC_JOHANNESBURG;6225705.600000001;0.0;5566384.054601915;659321.5453980846
149;DC_JOHANNESBURG;6225705.600000001;0.0;854322.1986667977;5371383.401333203
150;DC_JOHANNESBURG;6225705.600000001;0.0;0.0;11922668.595796218
151;DC_JOHANNESBURG;6225705.600000001;0.0;0.0;17662344.657606162
152;DC_JOHANNESBURG;6225705.600000001;0.0;0.0;22942165.791965596
153;DC_JOHANNESBURG;6225705.600000001;0.0;0.0;27481866.92243712
154;DC_JOHANNESBURG;6225705.600000001;0.0;0.0;30229477.148499817
155;DC_JOHANNESBURG;6225705.600000001;0.0;0.0;32431870.852743544
156;DC_JOHANNESBURG;6225705.600000001;0.0;0.0;30574814.339862842
157;DC_JOHANNESBURG;6225705.600000001;0.0;0.0;26590347.994517848
158;DC_JOHANNESBURG;6225705.600000001;0.0;0.0;20833351.320663866
159;DC_JOHANNESBURG;6225705.600000001;0.0;0.0;14425127.591898179
160;DC_JOHANNESBURG;6225705.600000001;0.0;0.0;7669216.873133193
161;DC_JOHANNESBURG;6225705.600000001;0.0;4618370.109612025;1607335.4903879743
162;DC_JOHANNESBURG;6225705.600000001;0.0;6225705.600000001;0.0
163;DC_JOHANNESBURG;6225705.600000001;0.0;6225705.600000001;0.0
164;DC_JOHANNESBURG;6225705.600000001;0.0;6225705.600000001;0.0
165;DC_JOHANNESBURG;6225705.600000001;0.0;6225705.600000001;0.0
166;DC_JOHANNESBURG;6225705.600000001;0.0;6225705.600000001;0.0
167;DC_JOHANNESBURG;6225705.600000001;0.0;6225705.600000001;0.0
1;DC_SP;2808187.1999999997;2808187.1999999997;0.0;0.0
2;DC_SP;2808187.1999999997;2808187.1999999997;0.0;0.0
3;DC_SP;2808187.1999999997;2808187.1999999997;0.0;0.0
4;DC_SP;2808187.1999999997;0.0;2808187.1999999997;0.0
5;DC_SP;2808187.1999999997;2808187.1999999997;0.0;0.0
6;DC_SP;2808187.1999999997;2808187.1999999997;0.0;0.0
7;DC_SP;2808187.1999999997;2808187.1999999997;0.0;0.0
8;DC_SP;2808187.1999999997;2808187.1999999997;0.0;0.0
9;DC_SP;2808187.1999999997;2668262.88090153;0.0;139924.31909846992
10;DC_SP;2808187.1999999997;1536727.2806598009;0.0;1271459.9193401993
11;DC_SP;6146899.199999999;3183645.5722896885;0.0;2963253.627710311
12;DC_SP;6146899.199999999;1883367.8580442565;0.0;4263531.341955744
13;DC_SP;6146899.199999999;1464006.4616794898;0.0;4682892.738320511
14;DC_SP;6146899.199999999;1153636.2089732548;0.0;4993262.991026745
15;DC_SP;6146899.199999999;694650.877723805;0.0;5452248.322276195
16;DC_SP;6146899.199999999;0.0;696432.5313898799;5450466.668610121
17;DC_SP;6146899.199999999;25589.280661743942;0.0;6121309.919338257
18;DC_SP;6146899.199999999;686736.326459134;0.0;5460162.873540866
19;DC_SP;6146899.199999999;1643028.0029690212;0.0;4503871.197030979
20;DC_SP;6146899.199999999;3476308.042777997;0.0;2670591.157222003
21;DC_SP;6146899.199999999;4799357.018152299;0.0;1347542.1818477013
22;DC_SP;6146899.199999999;5901191.993305963;0.0;245707.20669403582
23;DC_SP;6146899.199999999;6146899.2;0.0;0.0
24;DC_SP;6146899.199999999;6146899.2;0.0;0.0
25;DC_SP;6146899.199999999;6146899.2;0.0;0.0
26;DC_SP;6146899.199999999;4399998.580277105;1746900.6197228944;0.0
27;DC_SP;6146899.199999999;6146899.2;0.0;0.0
28;DC_SP;6146899.199999999;6146899.2;0.0;0.0
29;DC_SP;6146899.199999999;6146899.2;0.0;0.0
30;DC_SP;6146899.199999999;6146899.2;0.0;0.0
31;DC_SP;6146899.199999999;6146899.2;0.0;0.0
32;DC_SP;6146899.199999999;6146899.2;0.0;0.0
33;DC_SP;6146899.199999999;6016860.872997184;0.0;130038.32700281625
34;DC_SP;6146899.199999999;5470326.082843688;0.0;676573.1171563115
35;DC_SP;6146899.199999999;4993673.48573736;0.0;1153225.7142626396
36;DC_SP;6146899.199999999;4094437.375342941;0.0;2052461.824657059
37;DC_SP;6146899.199999999;2858120.068111536;0.0;3288779.1318884636
38;DC_SP;6146899.199999999;1714368.7850139076;0.0;4432530.414986093
39;DC_SP;6146899.199999999;495267.73256771866;0.0;5651631.467432282
40;DC_SP;6146899.199999999;0.0;0.0;6433730.513157513
41;DC_SP;6146899.199999999;0.0;0.0;6155121.888852641
42;DC_SP;6146899.199999999;1236607.3190789039;0.0;4910291.880921097
43;DC_SP;6146899.199999999;3365978.7929848614;0.0;2780920.4070151383
44;DC_SP;6146899.199999999;4963305.406912035;0.0;1183593.793087964
45;DC_SP;6146899.199999999;5602746.345388101;0.0;544152.8546118978
46;DC_SP;6146899.199999999;6048690.73948031;0.0;98208.46051968976
47;DC_SP;6146899.199999999;6146899.2;0.0;0.0
48;DC_SP;6146899.199999999;6146899.2;0.0;0.0
49;DC_SP;6146899.199999999;6146899.2;0.0;0.0
50;DC_SP;6146899.199999999;6146899.2;0.0;0.0
51;DC_SP;6146899.199999999;6146899.2;0.0;0.0
52;DC_SP;6146899.199999999;6146899.2;0.0;0.0
53;DC_SP;6146899.199999999;6146899.2;0.0;0.0
54;DC_SP;6146899.199999999;6146899.2;0.0;0.0
55;DC_SP;6146899.199999999;6146899.2;0.0;0.0
56;DC_SP;6146899.199999999;5933722.683548516;213176.51645148435;0.0
57;DC_SP;6146899.199999999;5962265.0764853265;0.0;184634.1235146741
58;DC_SP;6146899.199999999;4517181.887855195;0.0;1629717.3121448045
59;DC_SP;6146899.199999999;2217304.7720199297;0.0;3929594.4279800714
60;DC_SP;6146899.199999999;0.0;0.0;6303729.503855662
61;DC_SP;6146899.199999999;0.0;0.0;8384913.163615474
62;DC_SP;6146899.199999999;0.0;0.0;9440931.597964315
63;DC_SP;6146899.199999999;0.0;0.0;9988867.40123404
64;DC_SP;6146899.199999999;0.0;0.0;9311554.327378593
65;DC_SP;6146899.199999999;0.0;0.0;7307801.698461164
66;DC_SP;6146899.199999999;736377.398502861;0.0;5410521.801497139
67;DC_SP;6146899.199999999;2077700.3189297311;0.0;4069198.881070269
68;DC_SP;6146899.199999999;0.0;3302995.0435160897;2843904.156483911
69;DC_SP;6146899.199999999;4823746.801283023;0.0;1323152.3987169766
70;DC_SP;6146899.199999999;5915288.488290502;0.0;231610.71170949773
71;DC_SP;6146899.199999999;6146899.2;0.0;0.0
72;DC_SP;6146899.199999999;6146899.2;0.0;0.0
73;DC_SP;6146899.199999999;6146899.2;0.0;0.0
74;DC_SP;6146899.199999999;6146899.2;0.0;0.0
75;DC_SP;6146899.199999999;6146899.2;0.0;0.0
76;DC_SP;6146899.199999999;6146899.2;0.0;0.0
77;DC_SP;6146899.199999999;6146899.2;0.0;0.0
78;DC_SP;6146899.199999999;6146899.2;0.0;0.0
79;DC_SP;6146899.199999999;6146899.2;0.0;0.0
80;DC_SP;6146899.199999999;4198373.892403316;1948525.3075966842;0.0
81;DC_SP;6146899.199999999;6030365.615866419;0.0;116533.584133581
82;DC_SP;6146899.199999999;5154933.933807586;0.0;991965.2661924135
83;DC_SP;6146899.199999999;3376942.7335283905;0.0;2769956.466471609
84;DC_SP;6146899.199999999;1578327.6392558573;0.0;4568571.560744142
85;DC_SP;6146899.199999999;898752.0465019016;0.0;5248147.153498099
86;DC_SP;6146899.199999999;9130.042096104262;0.0;6137769.157903895
87;DC_SP;6146899.199999999;0.0;0.0;7026954.012098388
88;DC_SP;6146899.199999999;0.0;0.0;7425286.350859339
89;DC_SP;6146899.199999999;0.0;0.0;8351825.157499812
90;DC_SP;6146899.199999999;0.0;0.0;6739872.137234395
91;DC_SP;6146899.199999999;365311.50450702535;0.0;5781587.6954929745
92;DC_SP;6146899.199999999;0.0;1845315.5314802162;4301583.668519785
93;DC_SP;6146899.199999999;3939129.6336866524;0.0;2207769.5663133473
94;DC_SP;6146899.199999999;5769711.070605842;0.0;377188.12939415785
95;DC_SP;6146899.199999999;6146899.2;0.0;0.0
96;DC_SP;6146899.199999999;6146899.2;0.0;0.0
97;DC_SP;6146899.199999999;6146899.2;0.0;0.0
98;DC_SP;6146899.199999999;6146899.2;0.0;0.0
99;DC_SP;6146899.199999999;4411258.461812116;1735640.738187883;0.0
100;DC_SP;6146899.199999999;6146899.2;0.0;0.0
101;DC_SP;6146899.199999999;6146899.2;0.0;0.0
102;DC_SP;6146899.199999999;6146899.2;0.0;0.0
103;DC_SP;6146899.199999999;6146899.2;0.0;0.0
104;DC_SP;6146899.199999999;6146899.2;0.0;0.0
105;DC_SP;6146899.199999999;5988823.551152132;0.0;158075.6488478668
106;DC_SP;6146899.199999999;4860430.1013316605;0.0;1286469.0986683394
107;DC_SP;6146899.199999999;2678229.557499533;0.0;3468669.642500467
108;DC_SP;6146899.199999999;0.0;0.0;6663295.148634099
109;DC_SP;6146899.199999999;0.0;0.0;9243389.814795846
110;DC_SP;6146899.199999999;0.0;373096.072886645;10813582.195241323
111;DC_SP;6146899.199999999;0.0;0.0;11632652.42042264
112;DC_SP;6146899.199999999;0.0;0.0;11691944.916155953
113;DC_SP;6146899.199999999;0.0;0.0;10938841.724080559
114;DC_SP;6146899.199999999;0.0;0.0;9449657.542669969
115;DC_SP;6146899.199999999;0.0;0.0;7075026.674481557
116;DC_SP;6146899.199999999;0.0;1861944.2990302388;4284954.900969761
117;DC_SP;6146899.199999999;4469183.860873957;0.0;1677715.3391260426
118;DC_SP;6146899.199999999;5843961.567105975;0.0;302937.63289402565
119;DC_SP;6146899.199999999;6146899.2;0.0;0.0
120;DC_SP;6146899.199999999;6146899.2;0.0;0.0
121;DC_SP;6146899.199999999;6146899.2;0.0;0.0
122;DC_SP;6146899.199999999;2757323.147917465;3389576.0520825353;0.0
123;DC_SP;6146899.199999999;6146899.2;0.0;0.0
124;DC_SP;6146899.199999999;6146899.2;0.0;0.0
125;DC_SP;6146899.199999999;6146899.2;0.0;0.0
126;DC_SP;6146899.199999999;6146899.2;0.0;0.0
127;DC_SP;6146899.199999999;6146899.2;0.0;0.0
128;DC_SP;6146899.199999999;6146899.2;0.0;0.0
129;DC_SP;6146899.199999999;5993473.336692377;0.0;153425.86330762247
130;DC_SP;6146899.199999999;4673101.639807311;0.0;1473797.5601926895
131;DC_SP;6146899.199999999;2528660.212031641;0.0;3618238.9879683587
132;DC_SP;6146899.199999999;364281.535960391;0.0;5782617.664039609
133;DC_SP;6146899.199999999;0.0;0.0;7027942.398063947
134;DC_SP;6146899.199999999;0.0;0.0;7556555.0957739735
135;DC_SP;6146899.199999999;0.0;0.0;7667405.7271605935
136;DC_SP;6146899.199999999;0.0;0.0;7292997.233378317
137;DC_SP;6146899.199999999;0.0;0.0;6626191.757894599
138;DC_SP;6146899.199999999;0.0;454628.7562167872;5692270.443783213
139;DC_SP;6146899.199999999;1845458.4049639106;0.0;4301440.79503609
140;DC_SP;6146899.199999999;3370425.996719867;0.0;2776473.2032801327
141;DC_SP;6146899.199999999;4874949.885667145;0.0;1271949.314332855
142;DC_SP;6146899.199999999;5923409.886240522;0.0;223489.31375947682
143;DC_SP;6146899.199999999;6146899.2;0.0;0.0
144;DC_SP;6146899.199999999;6146899.2;0.0;0.0
145;DC_SP;6146899.199999999;6146899.2;0.0;0.0
146;DC_SP;6146899.199999999;2673587.1928663906;3473312.007133609;0.0
147;DC_SP;6146899.199999999;6146899.2;0.0;0.0
148;DC_SP;6146899.199999999;6146899.2;0.0;0.0
149;DC_SP;6146899.199999999;6146899.2;0.0;0.0
150;DC_SP;6146899.199999999;6146899.2;0.0;0.0
151;DC_SP;6146899.199999999;6146899.2;0.0;0.0
152;DC_SP;6146899.199999999;6146899.2;0.0;0.0
153;DC_SP;6146899.199999999;6024364.92955124;0.0;122534.2704487599
154;DC_SP;6146899.199999999;5229013.835103308;0.0;917885.3648966928
155;DC_SP;6146899.199999999;3956230.73670889;0.0;2190668.4632911095
156;DC_SP;6146899.199999999;2020169.2186819655;0.0;4126729.981318034
157;DC_SP;6146899.199999999;0.0;0.0;6596178.730338456
158;DC_SP;6146899.199999999;0.0;0.0;7595262.081434945
159;DC_SP;6146899.199999999;0.0;0.0;7925380.86149188
160;DC_SP;6146899.199999999;0.0;0.0;7910126.451557398
161;DC_SP;6146899.199999999;18831.57812698846;0.0;6128067.621873012
162;DC_SP;6146899.199999999;1312684.250486267;0.0;4834214.949513732
163;DC_SP;6146899.199999999;2416799.8702789107;0.0;3730099.3297210895
164;DC_SP;6146899.199999999;0.0;3793018.039768179;2353881.1602318212
165;DC_SP;6146899.199999999;5069126.678428594;0.0;1077772.5215714055
166;DC_SP;6146899.199999999;5969566.551234144;0.0;177332.64876585657
167;DC_SP;6146899.199999999;6146899.2;0.0;0.0
